модуль CyrillicUtilities; (** AUTHOR "SAGE"; PURPOSE "Cyrillic charsets text utilities"; *)

использует

	ЛогЯдра, Codecs, Потоки, Texts, Commands, UCS32;

конст

	(* Prime number for hash table *)
	PRIME = 977;

	(* Available encoding tables  *)
	CP1251 = 0;
	KOI8R = CP1251 + 1;
	KOI8U = KOI8R + 1;
	CP866 = KOI8U + 1;
	ISO88595 = CP866 + 1;
	ENCODINGS_HIGH = ISO88595;

	CR = 0DX; LF = 0AX;

тип

	Char32 = Texts.Char32;

	StaticTable = массив 256 из Char32;

	HashTable  = массив PRIME из
		запись
			ucs32: Char32;
			encodings: мнвоНаБитахМЗ;
			ch: массив ENCODINGS_HIGH + 1 из симв8;
		кон;

	LowBound = массив ENCODINGS_HIGH + 1 из цел16;

	CP1251Decoder = окласс(Codecs.TextDecoder)
	перем errors : булево;
		in : Потоки.Чтец;
		text : Texts.Text;

		проц Error(конст x : массив из симв8);
		нач
			ЛогЯдра.пСтроку8("CP1251 Decoder Error: ");
			ЛогЯдра.пСтроку8(x); ЛогЯдра.пВК_ПС;
			errors := истина
		кон Error;

		проц {перекрыта}Open*(in : Потоки.Чтец; перем res : целМЗ);
		перем i, m: размерМЗ;
			tempUCS32 : массив 1024 из Char32;
			ch, last : симв8;
		нач
			errors := ложь;
			res := Codecs.ResFailed;
			если in = НУЛЬ то Error("Input Stream is NIL"); возврат; всё;
			сам.in := in;

			нов(text);
			text.AcquireWrite;
			m := длинаМассива(tempUCS32) - 1;
			i := 0;
			нцДо
				in.чСимв8(ch);
				если i = m  то tempUCS32[i] := Texts.Симв32Нулевой; text.InsertUCS32(text.GetLength(), tempUCS32); i := 0 всё;
				если (last # CR) или (ch # LF) то
					если ch = CR то tempUCS32[i] := UCS32.CHARvCharJQ(LF)
					иначе tempUCS32[i] := cp1251[кодСимв8(ch)]
					всё;
					увел(i)
				всё;
				last := ch
			кцПри (in.кодВозвратаПоследнейОперации # Потоки.Успех);
			tempUCS32[i] := Texts.Симв32Нулевой; text.InsertUCS32(text.GetLength(), tempUCS32);
			res := Codecs.ResOk;
			text.ReleaseWrite
		кон Open;

		проц {перекрыта}GetText*() : Texts.Text;
		нач
			возврат text
		кон GetText;

	кон CP1251Decoder;

	CP1251Encoder = окласс(Codecs.TextEncoder)
	перем out: Потоки.Писарь;

		проц {перекрыта}Open*(out : Потоки.Писарь);
		нач
			если out = НУЛЬ то ЛогЯдра.пСтроку8("CP1251 Encoder Error: output stream is NIL");
			иначе сам.out := out
			всё
		кон Open;

		проц {перекрыта}WriteText*(text : Texts.Text; перем res : целМЗ);
		перем r : Texts.TextReader; ch : Texts.Char32; i : размерМЗ;
			c: симв8;
		нач
			res :=  -1;
			text.AcquireRead;
			нов(r, text);
			нцДля i := 0 до text.GetLength() - 1 делай
				r.ReadCh(ch);

				если кодСимв32(ch) < aLowBound[CP1251] то
					out.пСимв8(симв8ИзКода(кодСимв32(ch)))
				аесли hashSearch(CP1251, ложь, ch, c) то
					out.пСимв8(c)
				всё;

			кц;
			out.ПротолкниБуферВПоток;
			text.ReleaseRead;
			res := Codecs.ResOk
		кон WriteText;

	кон CP1251Encoder;

	KOI8RDecoder = окласс(Codecs.TextDecoder)
	перем errors : булево;
		in : Потоки.Чтец;
		text : Texts.Text;

		проц Error(конст x : массив из симв8);
		нач
			ЛогЯдра.пСтроку8("KOI8-R Decoder Error: ");
			ЛогЯдра.пСтроку8(x); ЛогЯдра.пВК_ПС;
			errors := истина
		кон Error;

		проц {перекрыта}Open*(in : Потоки.Чтец; перем res : целМЗ);
		перем i, m: размерМЗ;
			(*r : Files.Reader;*)
			tempUCS32 : массив 1024 из Char32;
			ch, last : симв8;
		нач
			errors := ложь;
			res := Codecs.ResFailed;
			если in = НУЛЬ то Error("Input Stream is NIL"); возврат; всё;
			сам.in := in;

			нов(text);
			text.AcquireWrite;
			m := длинаМассива(tempUCS32) - 1;
			i := 0;
			нцДо
				in.чСимв8(ch);
				если i = m  то tempUCS32[i] := Texts.Симв32Нулевой; text.InsertUCS32(text.GetLength(), tempUCS32); i := 0 всё;
				если (last # CR) или (ch # LF) то
					если ch = CR то tempUCS32[i] := симв32ИзКода(кодСимв8(LF))
					иначе tempUCS32[i] := koi8r[кодСимв8(ch)]
					всё;
					увел(i)
				всё;
				last := ch
			кцПри (in.кодВозвратаПоследнейОперации # Потоки.Успех);
			tempUCS32[i] := Texts.Симв32Нулевой; text.InsertUCS32(text.GetLength(), tempUCS32);
			res := Codecs.ResOk;
			text.ReleaseWrite
		кон Open;

		проц {перекрыта}GetText*() : Texts.Text;
		нач
			возврат text;
		кон GetText;

	кон KOI8RDecoder;

	KOI8REncoder = окласс(Codecs.TextEncoder)
	перем out: Потоки.Писарь;

		проц {перекрыта}Open*(out : Потоки.Писарь);
		нач
			если out = НУЛЬ то ЛогЯдра.пСтроку8("KOI8-R Encoder Error: output stream is NIL")
			иначе сам.out := out
			всё;
		кон Open;

		проц {перекрыта}WriteText*(text : Texts.Text; перем res : целМЗ);
		перем r : Texts.TextReader; ch : Texts.Char32; i : размерМЗ;
			c: симв8;
		нач
			res :=  -1;
			text.AcquireRead;
			нов(r, text);
			нцДля i := 0 до text.GetLength() - 1 делай
				r.ReadCh(ch);

				если кодСимв32(ch) < aLowBound[KOI8R] то
					out.пСимв32_вЮ8(ch)
				аесли hashSearch(KOI8R, ложь, ch, c) то
					out.пСимв8(c)
				всё;

			кц;
			out.ПротолкниБуферВПоток;
			text.ReleaseRead;
			res := Codecs.ResOk
		кон WriteText;

	кон KOI8REncoder;

	KOI8UDecoder = окласс(Codecs.TextDecoder)
	перем errors : булево;
		in : Потоки.Чтец;
		text : Texts.Text;

		проц Error(конст x : массив из симв8);
		нач
			ЛогЯдра.пСтроку8("KOI8-U Decoder Error: ");
			ЛогЯдра.пСтроку8(x); ЛогЯдра.пВК_ПС;
			errors := истина
		кон Error;

		проц {перекрыта}Open*(in : Потоки.Чтец; перем res : целМЗ);
		перем i, m: размерМЗ;
			tempUCS32 : массив 1024 из Char32;
			ch, last : симв8;
		нач
			errors := ложь;
			res := Codecs.ResFailed;
			если in = НУЛЬ то Error("Input Stream is NIL"); возврат; всё;
			сам.in := in;

			нов(text);
			text.AcquireWrite;
			m := длинаМассива(tempUCS32) - 1;
			i := 0;
			нцДо
				in.чСимв8(ch);
				если i = m  то tempUCS32[i] := Texts.Симв32Нулевой; text.InsertUCS32(text.GetLength(), tempUCS32); i := 0 всё;
				если (last # CR) или (ch # LF) то
					если ch = CR то tempUCS32[i] := симв32ИзКода(кодСимв8(LF))
					иначе tempUCS32[i] := koi8u[кодСимв8(ch)]
					всё;
					увел(i)
				всё;
				last := ch
			кцПри (in.кодВозвратаПоследнейОперации # Потоки.Успех);
			tempUCS32[i] := Texts.Симв32Нулевой; text.InsertUCS32(text.GetLength(), tempUCS32);
			res := Codecs.ResOk;
			text.ReleaseWrite
		кон Open;

		проц {перекрыта}GetText*() : Texts.Text;
		нач
			возврат text
		кон GetText;

	кон KOI8UDecoder;

	KOI8UEncoder = окласс(Codecs.TextEncoder)
	перем out: Потоки.Писарь;

		проц {перекрыта}Open*(out : Потоки.Писарь);
		нач
			если out = НУЛЬ то ЛогЯдра.пСтроку8("KOI8-U Encoder Error: output stream is NIL")
			иначе сам.out := out
			всё
		кон Open;

		проц {перекрыта}WriteText*(text : Texts.Text; перем res : целМЗ);
		перем r : Texts.TextReader; ch : Texts.Char32; i : размерМЗ;
			c: симв8;
		нач
			res :=  -1;
			text.AcquireRead;
			нов(r, text);
			нцДля i := 0 до text.GetLength() - 1 делай
				r.ReadCh(ch);

				если кодСимв32(ch) < aLowBound[KOI8U] то
					out.пСимв32_вЮ8(ch)
				аесли hashSearch(KOI8U, ложь, ch, c) то
					out.пСимв8(c)
				всё;

			кц;
			out.ПротолкниБуферВПоток;
			text.ReleaseRead;
			res := Codecs.ResOk
		кон WriteText;

	кон KOI8UEncoder;

	CP866Decoder = окласс(Codecs.TextDecoder)
	перем errors : булево;
		in : Потоки.Чтец;
		text : Texts.Text;

		проц Error(конст x : массив из симв8);
		нач
			ЛогЯдра.пСтроку8("CP-866 Decoder Error: ");
			ЛогЯдра.пСтроку8(x); ЛогЯдра.пВК_ПС;
			errors := истина
		кон Error;

		проц {перекрыта}Open*(in : Потоки.Чтец; перем res : целМЗ);
		перем i, m: размерМЗ;
			tempUCS32 : массив 1024 из Char32;
			ch, last : симв8;
		нач
			errors := ложь;
			res := Codecs.ResFailed;
			если in = НУЛЬ то Error("Input Stream is NIL"); возврат; всё;
			сам.in := in;

			нов(text);
			text.AcquireWrite;
			m := длинаМассива(tempUCS32) - 1;
			i := 0;
			нцДо
				in.чСимв8(ch);
				если i = m  то tempUCS32[i] := Texts.Симв32Нулевой; text.InsertUCS32(text.GetLength(), tempUCS32); i := 0 всё;
				если (last # CR) или (ch # LF) то
					если ch = CR то tempUCS32[i] := симв32ИзКода(кодСимв8(LF))
					иначе tempUCS32[i] := cp866[кодСимв8(ch)]
					всё;
					увел(i)
				всё;
				last := ch
			кцПри (in.кодВозвратаПоследнейОперации # Потоки.Успех);
			tempUCS32[i] := Texts.Симв32Нулевой; text.InsertUCS32(text.GetLength(), tempUCS32);
			res := Codecs.ResOk;
			text.ReleaseWrite
		кон Open;

		проц {перекрыта}GetText*() : Texts.Text;
		нач
			возврат text
		кон GetText;

	кон CP866Decoder;

	CP866Encoder = окласс(Codecs.TextEncoder)
	перем out: Потоки.Писарь;

		проц {перекрыта}Open*(out : Потоки.Писарь);
		нач
			если out = НУЛЬ то ЛогЯдра.пСтроку8("CP-866 Encoder Error: output stream is NIL")
			иначе сам.out := out
			всё;
		кон Open;

		проц {перекрыта}WriteText*(text : Texts.Text; перем res : целМЗ);
		перем r : Texts.TextReader; ch : Texts.Char32; i : размерМЗ;
			c: симв8;
		нач
			res :=  -1;
			text.AcquireRead;
			нов(r, text);
			нцДля i := 0 до text.GetLength() - 1 делай
				r.ReadCh(ch);

				если кодСимв32(ch) < aLowBound[CP866] то
					out.пСимв32_вЮ8(ch)
				аесли hashSearch(CP866, ложь, ch, c) то
					out.пСимв8(c)
				всё

			кц;
			out.ПротолкниБуферВПоток;
			text.ReleaseRead;
			res := Codecs.ResOk
		кон WriteText;

	кон CP866Encoder;

	ISO88595Decoder = окласс(Codecs.TextDecoder)
	перем errors : булево;
		in : Потоки.Чтец;
		text : Texts.Text;

		проц Error(конст x : массив из симв8);
		нач
			ЛогЯдра.пСтроку8("ISO-8859-5 Decoder Error: ");
			ЛогЯдра.пСтроку8(x); ЛогЯдра.пВК_ПС;
			errors := истина
		кон Error;

		проц {перекрыта}Open*(in : Потоки.Чтец; перем res : целМЗ);
		перем i, m: размерМЗ;
			tempUCS32 : массив 1024 из Char32;
			ch, last : симв8;
		нач
			errors := ложь;
			res := Codecs.ResFailed;
			если in = НУЛЬ то Error("Input Stream is NIL"); возврат; всё;
			сам.in := in;

			нов(text);
			text.AcquireWrite;
			m := длинаМассива(tempUCS32) - 1;
			i := 0;
			нцДо
				in.чСимв8(ch);
				если i = m  то tempUCS32[i] := Texts.Симв32Нулевой; text.InsertUCS32(text.GetLength(), tempUCS32); i := 0 всё;
				если (last # CR) или (ch # LF) то
					если ch = CR то tempUCS32[i] := симв32ИзКода(кодСимв8(LF))
					иначе tempUCS32[i] := iso88595[кодСимв8(ch)]
					всё;
					увел(i)
				всё;
				last := ch
			кцПри (in.кодВозвратаПоследнейОперации # Потоки.Успех);
			tempUCS32[i] := Texts.Симв32Нулевой; text.InsertUCS32(text.GetLength(), tempUCS32);
			res := Codecs.ResOk;
			text.ReleaseWrite
		кон Open;

		проц {перекрыта}GetText*() : Texts.Text;
		нач
			возврат text
		кон GetText;

	кон ISO88595Decoder;

	ISO88595Encoder = окласс(Codecs.TextEncoder)
	перем out: Потоки.Писарь;

		проц {перекрыта}Open*(out : Потоки.Писарь);
		нач
			если out = НУЛЬ то ЛогЯдра.пСтроку8("ISO-8859-5 Encoder Error: output stream is NIL")
			иначе сам.out := out
			всё
		кон Open;

		проц {перекрыта}WriteText*(text : Texts.Text; перем res : целМЗ);
		перем r : Texts.TextReader; ch : Texts.Char32; i : размерМЗ;
			c: симв8;
		нач
			res :=  -1;
			text.AcquireRead;
			нов(r, text);
			нцДля i := 0 до text.GetLength() - 1 делай
				r.ReadCh(ch);

				если кодСимв32(ch) < aLowBound[ISO88595] то
					out.пСимв32_вЮ8(ch)
				аесли hashSearch(ISO88595, ложь, ch, c) то
					out.пСимв8(c)
				всё;

			кц;
			out.ПротолкниБуферВПоток;
			text.ReleaseRead;
			res := Codecs.ResOk
		кон WriteText;

	кон ISO88595Encoder;

перем
	aLowBound: LowBound;
	koi8r, koi8u, cp1251, cp866, iso88595: StaticTable;
	hash: HashTable;
	bFirst: булево;
	setInitDone: мнвоНаБитахМЗ;
	nCollisions: размерМЗ;
	ucs32Min, ucs32Max: Char32;

	проц hashSearch(encoding: цел8; bAddAllowed: булево; ucs32: Char32; перем ch: симв8): булево;
	перем
		d: цел16;
		h: размерМЗ;
		bFound, bExit: булево;
	нач

		bExit := ложь;
		bFound := ложь;
		d := 1;
		h := кодСимв32(ucs32) остОтДеленияНа PRIME;

		если bAddAllowed то
			если bFirst то
				bFirst := ложь;
				ucs32Min := ucs32;
				ucs32Max := ucs32
			иначе
				ucs32Min := симв32ИзКода(матМинимум(кодСимв32(ucs32Min), кодСимв32(ucs32)));
				ucs32Max := симв32ИзКода(матМаксимум(кодСимв32(ucs32Max), кодСимв32(ucs32)))
			всё
		аесли (ucs32 < ucs32Min) или (ucs32 > ucs32Max) то
			bExit := истина
		всё;

		нцПока ~(bFound или bExit) делай
			если hash[h].ucs32 = ucs32 то (* match *)
				если encoding в hash[h].encodings то
					bFound := истина;
					ch := hash[h].ch[encoding]
				аесли bAddAllowed то (* add char in new encoding *)
					bExit := истина;
					hash[h].ch[encoding] := ch;
					hash[h].encodings := hash[h].encodings + мнвоНаБитахМЗ({encoding})
				иначе
					(* Code present in table, but not used in current encoding *)
					bExit := истина
				всё
			аесли hash[h].ucs32 = Texts.Симв32Нулевой то (* new entry *)
				bExit := истина;
				если bAddAllowed то
					hash[h].ucs32 := ucs32;
					hash[h].ch[encoding] := ch;
					hash[h].encodings := hash[h].encodings + мнвоНаБитахМЗ({encoding})
				всё
			иначе (* collision *)

				увел(nCollisions);

				h := h + d; d := d + 2;
				если h >= PRIME то h := h - PRIME всё;

				(* Table owerflow! *)
				если d = PRIME то
					bExit := истина;
					утв(d # PRIME)
				всё

			всё
		кц;

		возврат bFound

	кон hashSearch;

	проц koi8rInit;
	перем
		i: цел16; b: булево;
		c: симв8;
	нач

		если ~(KOI8R в setInitDone) то
			setInitDone := setInitDone + {KOI8R};

			нцДля i := 0 до aLowBound[KOI8R] - 1 делай
				koi8r[i] := симв32ИзКода(i)
			кц;

			koi8r[080H] := симв32ИзКода(2500H);  (* BOX DRAWINGS LIGHT HORIZONTAL *)
			koi8r[081H] := симв32ИзКода(2502H);  (* BOX DRAWINGS LIGHT VERTICAL *)
			koi8r[082H] := симв32ИзКода(250CH);  (* BOX DRAWINGS LIGHT DOWN AND RIGHT *)
			koi8r[083H] := симв32ИзКода(2510H);  (* BOX DRAWINGS LIGHT DOWN AND LEFT *)
			koi8r[084H] := симв32ИзКода(2514H);  (* BOX DRAWINGS LIGHT UP AND RIGHT *)
			koi8r[085H] := симв32ИзКода(2518H);  (* BOX DRAWINGS LIGHT UP AND LEFT *)
			koi8r[086H] := симв32ИзКода(251CH);  (* BOX DRAWINGS LIGHT VERTICAL AND RIGHT *)
			koi8r[087H] := симв32ИзКода(2524H);  (* BOX DRAWINGS LIGHT VERTICAL AND LEFT *)
			koi8r[088H] := симв32ИзКода(252CH);  (* BOX DRAWINGS LIGHT DOWN AND HORIZONTAL *)
			koi8r[089H] := симв32ИзКода(2534H);  (* BOX DRAWINGS LIGHT UP AND HORIZONTAL *)
			koi8r[08AH] := симв32ИзКода(253CH);  (* BOX DRAWINGS LIGHT VERTICAL AND HORIZONTAL *)
			koi8r[08BH] := симв32ИзКода(2580H);  (* UPPER HALF BLOCK *)
			koi8r[08CH] := симв32ИзКода(2584H);  (* LOWER HALF BLOCK *)
			koi8r[08DH] := симв32ИзКода(2588H);  (* FULL BLOCK *)
			koi8r[08EH] := симв32ИзКода(258CH);  (* LEFT HALF BLOCK *)
			koi8r[08FH] := симв32ИзКода(2590H);  (* RIGHT HALF BLOCK *)
			koi8r[090H] := симв32ИзКода(2591H);  (* LIGHT SHADE *)
			koi8r[091H] := симв32ИзКода(2592H);  (* MEDIUM SHADE *)
			koi8r[092H] := симв32ИзКода(2593H);  (* DARK SHADE *)
			koi8r[093H] := симв32ИзКода(2320H);  (* TOP HALF INTEGRAL *)
			koi8r[094H] := симв32ИзКода(25A0H);  (* BLACK SQUARE *)
			koi8r[095H] := симв32ИзКода(2022H);  (* BULLET *)
			koi8r[096H] := симв32ИзКода(221AH);  (* SQUARE ROOT *)
			koi8r[097H] := симв32ИзКода(2248H);  (* ALMOST EQUAL TO *)
			koi8r[098H] := симв32ИзКода(2264H);  (* LESS-THAN OR EQUAL TO *)
			koi8r[099H] := симв32ИзКода(2265H);  (* GREATER-THAN OR EQUAL TO *)
			koi8r[09AH] := симв32ИзКода(00A0H);  (* NO-BREAK SPACE *)
			koi8r[09BH] := симв32ИзКода(2321H);  (* BOTTOM HALF INTEGRAL *)
			koi8r[09CH] := симв32ИзКода(00B0H);  (* DEGREE SIGN *)
			koi8r[09DH] := симв32ИзКода(00B2H);  (* SUPERSCRIPT TWO *)
			koi8r[09EH] := симв32ИзКода(00B7H);  (* MIDDLE DOT *)
			koi8r[09FH] := симв32ИзКода(00F7H);  (* DIVISION SIGN *)
			koi8r[0A0H] := симв32ИзКода(2550H);  (* BOX DRAWINGS DOUBLE HORIZONTAL *)
			koi8r[0A1H] := симв32ИзКода(2551H);  (* BOX DRAWINGS DOUBLE VERTICAL *)
			koi8r[0A2H] := симв32ИзКода(2552H);  (* BOX DRAWINGS DOWN SINGLE AND RIGHT DOUBLE *)
			koi8r[0A3H] := симв32ИзКода(0451H);  (* CYRILLIC SMALL LETTER IO *)
			koi8r[0A4H] := симв32ИзКода(2553H);  (* BOX DRAWINGS DOWN DOUBLE AND RIGHT SINGLE *)
			koi8r[0A5H] := симв32ИзКода(2554H);  (* BOX DRAWINGS DOUBLE DOWN AND RIGHT *)
			koi8r[0A6H] := симв32ИзКода(2555H);  (* BOX DRAWINGS DOWN SINGLE AND LEFT DOUBLE *)
			koi8r[0A7H] := симв32ИзКода(2556H);  (* BOX DRAWINGS DOWN DOUBLE AND LEFT SINGLE *)
			koi8r[0A8H] := симв32ИзКода(2557H);  (* BOX DRAWINGS DOUBLE DOWN AND LEFT *)
			koi8r[0A9H] := симв32ИзКода(2558H);  (* BOX DRAWINGS UP SINGLE AND RIGHT DOUBLE *)
			koi8r[0AAH] := симв32ИзКода(2559H);  (* BOX DRAWINGS UP DOUBLE AND RIGHT SINGLE *)
			koi8r[0ABH] := симв32ИзКода(255AH);  (* BOX DRAWINGS DOUBLE UP AND RIGHT *)
			koi8r[0ACH] := симв32ИзКода(255BH);  (* BOX DRAWINGS UP SINGLE AND LEFT DOUBLE *)
			koi8r[0ADH] := симв32ИзКода(255CH);  (* BOX DRAWINGS UP DOUBLE AND LEFT SINGLE *)
			koi8r[0AEH] := симв32ИзКода(255DH);  (* BOX DRAWINGS DOUBLE UP AND LEFT *)
			koi8r[0AFH] := симв32ИзКода(255EH);  (* BOX DRAWINGS VERTICAL SINGLE AND RIGHT DOUBLE *)
			koi8r[0B0H] := симв32ИзКода(255FH);  (* BOX DRAWINGS VERTICAL DOUBLE AND RIGHT SINGLE *)
			koi8r[0B1H] := симв32ИзКода(2560H);  (* BOX DRAWINGS DOUBLE VERTICAL AND RIGHT *)
			koi8r[0B2H] := симв32ИзКода(2561H);  (* BOX DRAWINGS VERTICAL SINGLE AND LEFT DOUBLE *)
			koi8r[0B3H] := симв32ИзКода(0401H);  (* CYRILLIC CAPITAL LETTER IO *)
			koi8r[0B4H] := симв32ИзКода(2562H);  (* BOX DRAWINGS VERTICAL DOUBLE AND LEFT SINGLE *)
			koi8r[0B5H] := симв32ИзКода(2563H);  (* BOX DRAWINGS DOUBLE VERTICAL AND LEFT *)
			koi8r[0B6H] := симв32ИзКода(2564H);  (* BOX DRAWINGS DOWN SINGLE AND HORIZONTAL DOUBLE *)
			koi8r[0B7H] := симв32ИзКода(2565H);  (* BOX DRAWINGS DOWN DOUBLE AND HORIZONTAL SINGLE *)
			koi8r[0B8H] := симв32ИзКода(2566H);  (* BOX DRAWINGS DOUBLE DOWN AND HORIZONTAL *)
			koi8r[0B9H] := симв32ИзКода(2567H);  (* BOX DRAWINGS UP SINGLE AND HORIZONTAL DOUBLE *)
			koi8r[0BAH] := симв32ИзКода(2568H);  (* BOX DRAWINGS UP DOUBLE AND HORIZONTAL SINGLE *)
			koi8r[0BBH] := симв32ИзКода(2569H);  (* BOX DRAWINGS DOUBLE UP AND HORIZONTAL *)
			koi8r[0BCH] := симв32ИзКода(256AH);  (* BOX DRAWINGS VERTICAL SINGLE AND HORIZONTAL DOUBLE *)
			koi8r[0BDH] := симв32ИзКода(256BH);  (* BOX DRAWINGS VERTICAL DOUBLE AND HORIZONTAL SINGLE *)
			koi8r[0BEH] := симв32ИзКода(256CH);  (* BOX DRAWINGS DOUBLE VERTICAL AND HORIZONTAL *)
			koi8r[0BFH] := симв32ИзКода(00A9H);  (* COPYRIGHT SIGN *)
			koi8r[0C0H] := симв32ИзКода(044EH);  (* CYRILLIC SMALL LETTER YU *)
			koi8r[0C1H] := симв32ИзКода(0430H);  (* CYRILLIC SMALL LETTER A *)
			koi8r[0C2H] := симв32ИзКода(0431H);  (* CYRILLIC SMALL LETTER BE *)
			koi8r[0C3H] := симв32ИзКода(0446H);  (* CYRILLIC SMALL LETTER TSE *)
			koi8r[0C4H] := симв32ИзКода(0434H);  (* CYRILLIC SMALL LETTER DE *)
			koi8r[0C5H] := симв32ИзКода(0435H);  (* CYRILLIC SMALL LETTER IE *)
			koi8r[0C6H] := симв32ИзКода(0444H);  (* CYRILLIC SMALL LETTER EF *)
			koi8r[0C7H] := симв32ИзКода(0433H);  (* CYRILLIC SMALL LETTER GHE *)
			koi8r[0C8H] := симв32ИзКода(0445H);  (* CYRILLIC SMALL LETTER HA *)
			koi8r[0C9H] := симв32ИзКода(0438H);  (* CYRILLIC SMALL LETTER I *)
			koi8r[0CAH] := симв32ИзКода(0439H);  (* CYRILLIC SMALL LETTER SHORT I *)
			koi8r[0CBH] := симв32ИзКода(043AH);  (* CYRILLIC SMALL LETTER KA *)
			koi8r[0CCH] := симв32ИзКода(043BH);  (* CYRILLIC SMALL LETTER EL *)
			koi8r[0CDH] := симв32ИзКода(043CH);  (* CYRILLIC SMALL LETTER EM *)
			koi8r[0CEH] := симв32ИзКода(043DH);  (* CYRILLIC SMALL LETTER EN *)
			koi8r[0CFH] := симв32ИзКода(043EH);  (* CYRILLIC SMALL LETTER O *)
			koi8r[0D0H] := симв32ИзКода(043FH);  (* CYRILLIC SMALL LETTER PE *)
			koi8r[0D1H] := симв32ИзКода(044FH);  (* CYRILLIC SMALL LETTER YA *)
			koi8r[0D2H] := симв32ИзКода(0440H);  (* CYRILLIC SMALL LETTER ER *)
			koi8r[0D3H] := симв32ИзКода(0441H);  (* CYRILLIC SMALL LETTER ES *)
			koi8r[0D4H] := симв32ИзКода(0442H);  (* CYRILLIC SMALL LETTER TE *)
			koi8r[0D5H] := симв32ИзКода(0443H);  (* CYRILLIC SMALL LETTER U *)
			koi8r[0D6H] := симв32ИзКода(0436H);  (* CYRILLIC SMALL LETTER ZHE *)
			koi8r[0D7H] := симв32ИзКода(0432H);  (* CYRILLIC SMALL LETTER VE *)
			koi8r[0D8H] := симв32ИзКода(044CH);  (* CYRILLIC SMALL LETTER SOFT SIGN *)
			koi8r[0D9H] := симв32ИзКода(044BH);  (* CYRILLIC SMALL LETTER YERU *)
			koi8r[0DAH] := симв32ИзКода(0437H);  (* CYRILLIC SMALL LETTER ZE *)
			koi8r[0DBH] := симв32ИзКода(0448H);  (* CYRILLIC SMALL LETTER SHA *)
			koi8r[0DCH] := симв32ИзКода(044DH);  (* CYRILLIC SMALL LETTER E *)
			koi8r[0DDH] := симв32ИзКода(0449H);  (* CYRILLIC SMALL LETTER SHCHA *)
			koi8r[0DEH] := симв32ИзКода(0447H);  (* CYRILLIC SMALL LETTER CHE *)
			koi8r[0DFH] := симв32ИзКода(044AH);  (* CYRILLIC SMALL LETTER HARD SIGN *)
			koi8r[0E0H] := симв32ИзКода(042EH);  (* CYRILLIC CAPITAL LETTER YU *)
			koi8r[0E1H] := симв32ИзКода(0410H);  (* CYRILLIC CAPITAL LETTER A *)
			koi8r[0E2H] := симв32ИзКода(0411H);  (* CYRILLIC CAPITAL LETTER BE *)
			koi8r[0E3H] := симв32ИзКода(0426H);  (* CYRILLIC CAPITAL LETTER TSE *)
			koi8r[0E4H] := симв32ИзКода(0414H);  (* CYRILLIC CAPITAL LETTER DE *)
			koi8r[0E5H] := симв32ИзКода(0415H);  (* CYRILLIC CAPITAL LETTER IE *)
			koi8r[0E6H] := симв32ИзКода(0424H);  (* CYRILLIC CAPITAL LETTER EF *)
			koi8r[0E7H] := симв32ИзКода(0413H);  (* CYRILLIC CAPITAL LETTER GHE *)
			koi8r[0E8H] := симв32ИзКода(0425H);  (* CYRILLIC CAPITAL LETTER HA *)
			koi8r[0E9H] := симв32ИзКода(0418H);  (* CYRILLIC CAPITAL LETTER I *)
			koi8r[0EAH] := симв32ИзКода(0419H);  (* CYRILLIC CAPITAL LETTER SHORT I *)
			koi8r[0EBH] := симв32ИзКода(041AH);  (* CYRILLIC CAPITAL LETTER KA *)
			koi8r[0ECH] := симв32ИзКода(041BH);  (* CYRILLIC CAPITAL LETTER EL *)
			koi8r[0EDH] := симв32ИзКода(041CH);  (* CYRILLIC CAPITAL LETTER EM *)
			koi8r[0EEH] := симв32ИзКода(041DH);  (* CYRILLIC CAPITAL LETTER EN *)
			koi8r[0EFH] := симв32ИзКода(041EH);  (* CYRILLIC CAPITAL LETTER O *)
			koi8r[0F0H] := симв32ИзКода(041FH);  (* CYRILLIC CAPITAL LETTER PE *)
			koi8r[0F1H] := симв32ИзКода(042FH);  (* CYRILLIC CAPITAL LETTER YA *)
			koi8r[0F2H] := симв32ИзКода(0420H);  (* CYRILLIC CAPITAL LETTER ER *)
			koi8r[0F3H] := симв32ИзКода(0421H);  (* CYRILLIC CAPITAL LETTER ES *)
			koi8r[0F4H] := симв32ИзКода(0422H);  (* CYRILLIC CAPITAL LETTER TE *)
			koi8r[0F5H] := симв32ИзКода(0423H);  (* CYRILLIC CAPITAL LETTER U *)
			koi8r[0F6H] := симв32ИзКода(0416H);  (* CYRILLIC CAPITAL LETTER ZHE *)
			koi8r[0F7H] := симв32ИзКода(0412H);  (* CYRILLIC CAPITAL LETTER VE *)
			koi8r[0F8H] := симв32ИзКода(042CH);  (* CYRILLIC CAPITAL LETTER SOFT SIGN *)
			koi8r[0F9H] := симв32ИзКода(042BH);  (* CYRILLIC CAPITAL LETTER YERU *)
			koi8r[0FAH] := симв32ИзКода(0417H);  (* CYRILLIC CAPITAL LETTER ZE *)
			koi8r[0FBH] := симв32ИзКода(0428H);  (* CYRILLIC CAPITAL LETTER SHA *)
			koi8r[0FCH] := симв32ИзКода(042DH);  (* CYRILLIC CAPITAL LETTER E *)
			koi8r[0FDH] := симв32ИзКода(0429H);  (* CYRILLIC CAPITAL LETTER SHCHA *)
			koi8r[0FEH] := симв32ИзКода(0427H);  (* CYRILLIC CAPITAL LETTER CHE *)
			koi8r[0FFH] := симв32ИзКода(042AH);  (* CYRILLIC CAPITAL LETTER HARD SIGN *)

			нцДля i := aLowBound[KOI8R] до 255 делай
				c := симв8ИзКода(i);
				b := hashSearch(KOI8R, истина, koi8r[i], c)
			кц

		всё

	кон koi8rInit;

	проц koi8uInit;
	перем
		i: цел16; b: булево;
		c: симв8;
	нач

		если ~(KOI8U в setInitDone) то
			setInitDone := setInitDone + {KOI8U};

			нцДля i := 0 до aLowBound[KOI8U] - 1 делай
				koi8u[i] := симв32ИзКода(i)
			кц;

			koi8u[080H] := симв32ИзКода(2500H);  (* BOX DRAWINGS LIGHT HORIZONTAL *)
			koi8u[081H] := симв32ИзКода(2502H);  (* BOX DRAWINGS LIGHT VERTICAL *)
			koi8u[082H] := симв32ИзКода(250CH);  (* BOX DRAWINGS LIGHT DOWN AND RIGHT *)
			koi8u[083H] := симв32ИзКода(2510H);  (* BOX DRAWINGS LIGHT DOWN AND LEFT *)
			koi8u[084H] := симв32ИзКода(2514H);  (* BOX DRAWINGS LIGHT UP AND RIGHT *)
			koi8u[085H] := симв32ИзКода(2518H);  (* BOX DRAWINGS LIGHT UP AND LEFT *)
			koi8u[086H] := симв32ИзКода(251CH);  (* BOX DRAWINGS LIGHT VERTICAL AND RIGHT *)
			koi8u[087H] := симв32ИзКода(2524H);  (* BOX DRAWINGS LIGHT VERTICAL AND LEFT *)
			koi8u[088H] := симв32ИзКода(252CH);  (* BOX DRAWINGS LIGHT DOWN AND HORIZONTAL *)
			koi8u[089H] := симв32ИзКода(2534H);  (* BOX DRAWINGS LIGHT UP AND HORIZONTAL *)
			koi8u[08AH] := симв32ИзКода(253CH);  (* BOX DRAWINGS LIGHT VERTICAL AND HORIZONTAL *)
			koi8u[08BH] := симв32ИзКода(2580H);  (* UPPER HALF BLOCK *)
			koi8u[08CH] := симв32ИзКода(2584H);  (* LOWER HALF BLOCK *)
			koi8u[08DH] := симв32ИзКода(2588H);  (* FULL BLOCK *)
			koi8u[08EH] := симв32ИзКода(258CH);  (* LEFT HALF BLOCK *)
			koi8u[08FH] := симв32ИзКода(2590H);  (* RIGHT HALF BLOCK *)
			koi8u[090H] := симв32ИзКода(2591H);  (* LIGHT SHADE *)
			koi8u[091H] := симв32ИзКода(2592H);  (* MEDIUM SHADE *)
			koi8u[092H] := симв32ИзКода(2593H);  (* DARK SHADE *)
			koi8u[093H] := симв32ИзКода(2320H);  (* TOP HALF INTEGRAL *)
			koi8u[094H] := симв32ИзКода(25A0H);  (* BLACK SQUARE *)
			koi8u[095H] := симв32ИзКода(2022H);  (* BULLET *)
			koi8u[096H] := симв32ИзКода(221AH);  (* SQUARE ROOT *)
			koi8u[097H] := симв32ИзКода(2248H);  (* ALMOST EQUAL TO *)
			koi8u[098H] := симв32ИзКода(2264H);  (* LESS-THAN OR EQUAL TO *)
			koi8u[099H] := симв32ИзКода(2265H);  (* GREATER-THAN OR EQUAL TO *)
			koi8u[09AH] := симв32ИзКода(00A0H);  (* NO-BREAK SPACE *)
			koi8u[09BH] := симв32ИзКода(2321H);  (* BOTTOM HALF INTEGRAL *)
			koi8u[09CH] := симв32ИзКода(00B0H);  (* DEGREE SIGN *)
			koi8u[09DH] := симв32ИзКода(00B2H);  (* SUPERSCRIPT TWO *)
			koi8u[09EH] := симв32ИзКода(00B7H);  (* MIDDLE DOT *)
			koi8u[09FH] := симв32ИзКода(00F7H);  (* DIVISION SIGN *)
			koi8u[0A0H] := симв32ИзКода(2550H);  (* BOX DRAWINGS DOUBLE HORIZONTAL *)
			koi8u[0A1H] := симв32ИзКода(2551H);  (* BOX DRAWINGS DOUBLE VERTICAL *)
			koi8u[0A2H] := симв32ИзКода(2552H);  (* BOX DRAWINGS DOWN SINGLE AND RIGHT DOUBLE *)
			koi8u[0A3H] := симв32ИзКода(0451H);  (* CYRILLIC SMALL LETTER IO *)
			koi8u[0A4H] := симв32ИзКода(0454H);  (* CYRILLIC SMALL LETTER UKRAINIAN IE *)
			koi8u[0A5H] := симв32ИзКода(2554H);  (* BOX DRAWINGS DOUBLE DOWN AND RIGHT *)
			koi8u[0A6H] := симв32ИзКода(0456H);  (* CYRILLIC SMALL LETTER BYELORUSSIAN-UKRAINIAN I *)
			koi8u[0A7H] := симв32ИзКода(0457H);  (* CYRILLIC SMALL LETTER YI *)
			koi8u[0A8H] := симв32ИзКода(2557H);  (* BOX DRAWINGS DOUBLE DOWN AND LEFT *)
			koi8u[0A9H] := симв32ИзКода(2558H);  (* BOX DRAWINGS UP SINGLE AND RIGHT DOUBLE *)
			koi8u[0AAH] := симв32ИзКода(2559H);  (* BOX DRAWINGS UP DOUBLE AND RIGHT SINGLE *)
			koi8u[0ABH] := симв32ИзКода(255AH);  (* BOX DRAWINGS DOUBLE UP AND RIGHT *)
			koi8u[0ACH] := симв32ИзКода(255BH);  (* BOX DRAWINGS UP SINGLE AND LEFT DOUBLE *)
			koi8u[0ADH] := симв32ИзКода(0491H);  (* CYRILLIC SMALL LETTER GHE WITH UPTURN *)
			koi8u[0AEH] := симв32ИзКода(255DH);  (* BOX DRAWINGS DOUBLE UP AND LEFT *)
			koi8u[0AFH] := симв32ИзКода(255EH);  (* BOX DRAWINGS VERTICAL SINGLE AND RIGHT DOUBLE *)
			koi8u[0B0H] := симв32ИзКода(255FH);  (* BOX DRAWINGS VERTICAL DOUBLE AND RIGHT SINGLE *)
			koi8u[0B1H] := симв32ИзКода(2560H);  (* BOX DRAWINGS DOUBLE VERTICAL AND RIGHT *)
			koi8u[0B2H] := симв32ИзКода(2561H);  (* BOX DRAWINGS VERTICAL SINGLE AND LEFT DOUBLE *)
			koi8u[0B3H] := симв32ИзКода(0401H);  (* CYRILLIC CAPITAL LETTER IO *)
			koi8u[0B4H] := симв32ИзКода(0404H);  (* CYRILLIC CAPITAL LETTER UKRAINIAN IE *)
			koi8u[0B5H] := симв32ИзКода(2563H);  (* BOX DRAWINGS DOUBLE VERTICAL AND LEFT *)
			koi8u[0B6H] := симв32ИзКода(0406H);  (* CYRILLIC CAPITAL LETTER BYELORUSSIAN-UKRAINIAN I *)
			koi8u[0B7H] := симв32ИзКода(0407H);  (* CYRILLIC CAPITAL LETTER YI *)
			koi8u[0B8H] := симв32ИзКода(2566H);  (* BOX DRAWINGS DOUBLE DOWN AND HORIZONTAL *)
			koi8u[0B9H] := симв32ИзКода(2567H);  (* BOX DRAWINGS UP SINGLE AND HORIZONTAL DOUBLE *)
			koi8u[0BAH] := симв32ИзКода(2568H);  (* BOX DRAWINGS UP DOUBLE AND HORIZONTAL SINGLE *)
			koi8u[0BBH] := симв32ИзКода(2569H);  (* BOX DRAWINGS DOUBLE UP AND HORIZONTAL *)
			koi8u[0BCH] := симв32ИзКода(256AH);  (* BOX DRAWINGS VERTICAL SINGLE AND HORIZONTAL DOUBLE *)
			koi8u[0BDH] := симв32ИзКода(0490H);  (* CYRILLIC CAPITAL LETTER GHE WITH UPTURN *)
			koi8u[0BEH] := симв32ИзКода(256CH);  (* BOX DRAWINGS DOUBLE VERTICAL AND HORIZONTAL *)
			koi8u[0BFH] := симв32ИзКода(00A9H);  (* COPYRIGHT SIGN *)
			koi8u[0C0H] := симв32ИзКода(044EH);  (* CYRILLIC SMALL LETTER YU *)
			koi8u[0C1H] := симв32ИзКода(0430H);  (* CYRILLIC SMALL LETTER A *)
			koi8u[0C2H] := симв32ИзКода(0431H);  (* CYRILLIC SMALL LETTER BE *)
			koi8u[0C3H] := симв32ИзКода(0446H);  (* CYRILLIC SMALL LETTER TSE *)
			koi8u[0C4H] := симв32ИзКода(0434H);  (* CYRILLIC SMALL LETTER DE *)
			koi8u[0C5H] := симв32ИзКода(0435H);  (* CYRILLIC SMALL LETTER IE *)
			koi8u[0C6H] := симв32ИзКода(0444H);  (* CYRILLIC SMALL LETTER EF *)
			koi8u[0C7H] := симв32ИзКода(0433H);  (* CYRILLIC SMALL LETTER GHE *)
			koi8u[0C8H] := симв32ИзКода(0445H);  (* CYRILLIC SMALL LETTER HA *)
			koi8u[0C9H] := симв32ИзКода(0438H);  (* CYRILLIC SMALL LETTER I *)
			koi8u[0CAH] := симв32ИзКода(0439H);  (* CYRILLIC SMALL LETTER SHORT I *)
			koi8u[0CBH] := симв32ИзКода(043AH);  (* CYRILLIC SMALL LETTER KA *)
			koi8u[0CCH] := симв32ИзКода(043BH);  (* CYRILLIC SMALL LETTER EL *)
			koi8u[0CDH] := симв32ИзКода(043CH);  (* CYRILLIC SMALL LETTER EM *)
			koi8u[0CEH] := симв32ИзКода(043DH);  (* CYRILLIC SMALL LETTER EN *)
			koi8u[0CFH] := симв32ИзКода(043EH);  (* CYRILLIC SMALL LETTER O *)
			koi8u[0D0H] := симв32ИзКода(043FH);  (* CYRILLIC SMALL LETTER PE *)
			koi8u[0D1H] := симв32ИзКода(044FH);  (* CYRILLIC SMALL LETTER YA *)
			koi8u[0D2H] := симв32ИзКода(0440H);  (* CYRILLIC SMALL LETTER ER *)
			koi8u[0D3H] := симв32ИзКода(0441H);  (* CYRILLIC SMALL LETTER ES *)
			koi8u[0D4H] := симв32ИзКода(0442H);  (* CYRILLIC SMALL LETTER TE *)
			koi8u[0D5H] := симв32ИзКода(0443H);  (* CYRILLIC SMALL LETTER U *)
			koi8u[0D6H] := симв32ИзКода(0436H);  (* CYRILLIC SMALL LETTER ZHE *)
			koi8u[0D7H] := симв32ИзКода(0432H);  (* CYRILLIC SMALL LETTER VE *)
			koi8u[0D8H] := симв32ИзКода(044CH);  (* CYRILLIC SMALL LETTER SOFT SIGN *)
			koi8u[0D9H] := симв32ИзКода(044BH);  (* CYRILLIC SMALL LETTER YERU *)
			koi8u[0DAH] := симв32ИзКода(0437H);  (* CYRILLIC SMALL LETTER ZE *)
			koi8u[0DBH] := симв32ИзКода(0448H);  (* CYRILLIC SMALL LETTER SHA *)
			koi8u[0DCH] := симв32ИзКода(044DH);  (* CYRILLIC SMALL LETTER E *)
			koi8u[0DDH] := симв32ИзКода(0449H);  (* CYRILLIC SMALL LETTER SHCHA *)
			koi8u[0DEH] := симв32ИзКода(0447H);  (* CYRILLIC SMALL LETTER CHE *)
			koi8u[0DFH] := симв32ИзКода(044AH);  (* CYRILLIC SMALL LETTER HARD SIGN *)
			koi8u[0E0H] := симв32ИзКода(042EH);  (* CYRILLIC CAPITAL LETTER YU *)
			koi8u[0E1H] := симв32ИзКода(0410H);  (* CYRILLIC CAPITAL LETTER A *)
			koi8u[0E2H] := симв32ИзКода(0411H);  (* CYRILLIC CAPITAL LETTER BE *)
			koi8u[0E3H] := симв32ИзКода(0426H);  (* CYRILLIC CAPITAL LETTER TSE *)
			koi8u[0E4H] := симв32ИзКода(0414H);  (* CYRILLIC CAPITAL LETTER DE *)
			koi8u[0E5H] := симв32ИзКода(0415H);  (* CYRILLIC CAPITAL LETTER IE *)
			koi8u[0E6H] := симв32ИзКода(0424H);  (* CYRILLIC CAPITAL LETTER EF *)
			koi8u[0E7H] := симв32ИзКода(0413H);  (* CYRILLIC CAPITAL LETTER GHE *)
			koi8u[0E8H] := симв32ИзКода(0425H);  (* CYRILLIC CAPITAL LETTER HA *)
			koi8u[0E9H] := симв32ИзКода(0418H);  (* CYRILLIC CAPITAL LETTER I *)
			koi8u[0EAH] := симв32ИзКода(0419H);  (* CYRILLIC CAPITAL LETTER SHORT I *)
			koi8u[0EBH] := симв32ИзКода(041AH);  (* CYRILLIC CAPITAL LETTER KA *)
			koi8u[0ECH] := симв32ИзКода(041BH);  (* CYRILLIC CAPITAL LETTER EL *)
			koi8u[0EDH] := симв32ИзКода(041CH);  (* CYRILLIC CAPITAL LETTER EM *)
			koi8u[0EEH] := симв32ИзКода(041DH);  (* CYRILLIC CAPITAL LETTER EN *)
			koi8u[0EFH] := симв32ИзКода(041EH);  (* CYRILLIC CAPITAL LETTER O *)
			koi8u[0F0H] := симв32ИзКода(041FH);  (* CYRILLIC CAPITAL LETTER PE *)
			koi8u[0F1H] := симв32ИзКода(042FH);  (* CYRILLIC CAPITAL LETTER YA *)
			koi8u[0F2H] := симв32ИзКода(0420H);  (* CYRILLIC CAPITAL LETTER ER *)
			koi8u[0F3H] := симв32ИзКода(0421H);  (* CYRILLIC CAPITAL LETTER ES *)
			koi8u[0F4H] := симв32ИзКода(0422H);  (* CYRILLIC CAPITAL LETTER TE *)
			koi8u[0F5H] := симв32ИзКода(0423H);  (* CYRILLIC CAPITAL LETTER U *)
			koi8u[0F6H] := симв32ИзКода(0416H);  (* CYRILLIC CAPITAL LETTER ZHE *)
			koi8u[0F7H] := симв32ИзКода(0412H);  (* CYRILLIC CAPITAL LETTER VE *)
			koi8u[0F8H] := симв32ИзКода(042CH);  (* CYRILLIC CAPITAL LETTER SOFT SIGN *)
			koi8u[0F9H] := симв32ИзКода(042BH);  (* CYRILLIC CAPITAL LETTER YERU *)
			koi8u[0FAH] := симв32ИзКода(0417H);  (* CYRILLIC CAPITAL LETTER ZE *)
			koi8u[0FBH] := симв32ИзКода(0428H);  (* CYRILLIC CAPITAL LETTER SHA *)
			koi8u[0FCH] := симв32ИзКода(042DH);  (* CYRILLIC CAPITAL LETTER E *)
			koi8u[0FDH] := симв32ИзКода(0429H);  (* CYRILLIC CAPITAL LETTER SHCHA *)
			koi8u[0FEH] := симв32ИзКода(0427H);  (* CYRILLIC CAPITAL LETTER CHE *)
			koi8u[0FFH] := симв32ИзКода(042AH);  (* CYRILLIC CAPITAL LETTER HARD SIGN *)

			нцДля i := aLowBound[KOI8U] до 255 делай
				c := симв8ИзКода(i);
				b := hashSearch(KOI8U, истина, koi8u[i], c)
			кц

		всё

	кон koi8uInit;

	проц cp1251Init;
	перем
		i: цел16; b: булево;
		c: симв8;
	нач

		если ~(CP1251 в setInitDone) то
			setInitDone := setInitDone + {CP1251};

			нцДля i := 0 до aLowBound[CP1251] - 1 делай
				cp1251[i] := симв32ИзКода(i)
			кц;

			cp1251[080H] := симв32ИзКода(0402H);  (* CYRILLIC CAPITAL LETTER DJE *)
			cp1251[081H] := симв32ИзКода(0403H);  (* CYRILLIC CAPITAL LETTER GJE *)
			cp1251[082H] := симв32ИзКода(201AH);  (* SINGLE LOW-9 QUOTATION MARK *)
			cp1251[083H] := симв32ИзКода(0453H);  (* CYRILLIC SMALL LETTER GJE *)
			cp1251[084H] := симв32ИзКода(201EH);  (* DOUBLE LOW-9 QUOTATION MARK *)
			cp1251[085H] := симв32ИзКода(2026H);  (* HORIZONTAL ELLIPSIS *)
			cp1251[086H] := симв32ИзКода(2020H);  (* DAGGER *)
			cp1251[087H] := симв32ИзКода(2021H);  (* DOUBLE DAGGER *)
			cp1251[088H] := симв32ИзКода(20ACH);  (* EURO SIGN *)
			cp1251[089H] := симв32ИзКода(2030H);  (* PER MILLE SIGN *)
			cp1251[08AH] := симв32ИзКода(0409H);  (* CYRILLIC CAPITAL LETTER LJE *)
			cp1251[08BH] := симв32ИзКода(2039H);  (* SINGLE LEFT-POINTING ANGLE QUOTATION MARK *)
			cp1251[08CH] := симв32ИзКода(040AH);  (* CYRILLIC CAPITAL LETTER NJE *)
			cp1251[08DH] := симв32ИзКода(040CH);  (* CYRILLIC CAPITAL LETTER KJE *)
			cp1251[08EH] := симв32ИзКода(040BH);  (* CYRILLIC CAPITAL LETTER TSHE *)
			cp1251[08FH] := симв32ИзКода(040FH);  (* CYRILLIC CAPITAL LETTER DZHE *)
			cp1251[090H] := симв32ИзКода(0452H);  (* CYRILLIC SMALL LETTER DJE *)
			cp1251[091H] := симв32ИзКода(2018H);  (* LEFT SINGLE QUOTATION MARK *)
			cp1251[092H] := симв32ИзКода(2019H);  (* RIGHT SINGLE QUOTATION MARK *)
			cp1251[093H] := симв32ИзКода(201CH);  (* LEFT DOUBLE QUOTATION MARK *)
			cp1251[094H] := симв32ИзКода(201DH);  (* RIGHT DOUBLE QUOTATION MARK *)
			cp1251[095H] := симв32ИзКода(2022H);  (* BULLET *)
			cp1251[096H] := симв32ИзКода(2013H);  (* EN DASH *)
			cp1251[097H] := симв32ИзКода(2014H);  (* EM DASH *)
			cp1251[098H] := симв32ИзКода(98H);
			cp1251[099H] := симв32ИзКода(2122H);  (* TRADE MARK SIGN *)
			cp1251[09AH] := симв32ИзКода(0459H);  (* CYRILLIC SMALL LETTER LJE *)
			cp1251[09BH] := симв32ИзКода(203AH);  (* SINGLE RIGHT-POINTING ANGLE QUOTATION MARK *)
			cp1251[09CH] := симв32ИзКода(045AH);  (* CYRILLIC SMALL LETTER NJE *)
			cp1251[09DH] := симв32ИзКода(045CH);  (* CYRILLIC SMALL LETTER KJE *)
			cp1251[09EH] := симв32ИзКода(045BH);  (* CYRILLIC SMALL LETTER TSHE *)
			cp1251[09FH] := симв32ИзКода(045FH);  (* CYRILLIC SMALL LETTER DZHE *)
			cp1251[0A0H] := симв32ИзКода(00A0H);  (* NO-BREAK SPACE *)
			cp1251[0A1H] := симв32ИзКода(040EH);  (* CYRILLIC CAPITAL LETTER SHORT U *)
			cp1251[0A2H] := симв32ИзКода(045EH);  (* CYRILLIC SMALL LETTER SHORT U *)
			cp1251[0A3H] := симв32ИзКода(0408H);  (* CYRILLIC CAPITAL LETTER JE *)
			cp1251[0A4H] := симв32ИзКода(00A4H);  (* CURRENCY SIGN *)
			cp1251[0A5H] := симв32ИзКода(0490H);  (* CYRILLIC CAPITAL LETTER GHE WITH UPTURN *)
			cp1251[0A6H] := симв32ИзКода(00A6H);  (* BROKEN BAR *)
			cp1251[0A7H] := симв32ИзКода(00A7H);  (* SECTION SIGN *)
			cp1251[0A8H] := симв32ИзКода(0401H);  (* CYRILLIC CAPITAL LETTER IO *)
			cp1251[0A9H] := симв32ИзКода(00A9H);  (* COPYRIGHT SIGN *)
			cp1251[0AAH] := симв32ИзКода(0404H);  (* CYRILLIC CAPITAL LETTER UKRAINIAN IE *)
			cp1251[0ABH] := симв32ИзКода(00ABH);  (* LEFT-POINTING DOUBLE ANGLE QUOTATION MARK *)
			cp1251[0ACH] := симв32ИзКода(00ACH);  (* NOT SIGN *)
			cp1251[0ADH] := симв32ИзКода(00ADH);  (* SOFT HYPHEN *)
			cp1251[0AEH] := симв32ИзКода(00AEH);  (* REGISTERED SIGN *)
			cp1251[0AFH] := симв32ИзКода(0407H);  (* CYRILLIC CAPITAL LETTER YI *)
			cp1251[0B0H] := симв32ИзКода(00B0H);  (* DEGREE SIGN *)
			cp1251[0B1H] := симв32ИзКода(00B1H);  (* PLUS-MINUS SIGN *)
			cp1251[0B2H] := симв32ИзКода(0406H);  (* CYRILLIC CAPITAL LETTER BYELORUSSIAN-UKRAINIAN I *)
			cp1251[0B3H] := симв32ИзКода(0456H);  (* CYRILLIC SMALL LETTER BYELORUSSIAN-UKRAINIAN I *)
			cp1251[0B4H] := симв32ИзКода(0491H);  (* CYRILLIC SMALL LETTER GHE WITH UPTURN *)
			cp1251[0B5H] := симв32ИзКода(00B5H);  (* MICRO SIGN *)
			cp1251[0B6H] := симв32ИзКода(00B6H);  (* PILCROW SIGN *)
			cp1251[0B7H] := симв32ИзКода(00B7H);  (* MIDDLE DOT *)
			cp1251[0B8H] := симв32ИзКода(0451H);  (* CYRILLIC SMALL LETTER IO *)
			cp1251[0B9H] := симв32ИзКода(2116H);  (* NUMERO SIGN *)
			cp1251[0BAH] := симв32ИзКода(0454H);  (* CYRILLIC SMALL LETTER UKRAINIAN IE *)
			cp1251[0BBH] := симв32ИзКода(00BBH);  (* RIGHT-POINTING DOUBLE ANGLE QUOTATION MARK *)
			cp1251[0BCH] := симв32ИзКода(0458H);  (* CYRILLIC SMALL LETTER JE *)
			cp1251[0BDH] := симв32ИзКода(0405H);  (* CYRILLIC CAPITAL LETTER DZE *)
			cp1251[0BEH] := симв32ИзКода(0455H);  (* CYRILLIC SMALL LETTER DZE *)
			cp1251[0BFH] := симв32ИзКода(0457H);  (* CYRILLIC SMALL LETTER YI *)
			cp1251[0C0H] := симв32ИзКода(0410H);  (* CYRILLIC CAPITAL LETTER A *)
			cp1251[0C1H] := симв32ИзКода(0411H);  (* CYRILLIC CAPITAL LETTER BE *)
			cp1251[0C2H] := симв32ИзКода(0412H);  (* CYRILLIC CAPITAL LETTER VE *)
			cp1251[0C3H] := симв32ИзКода(0413H);  (* CYRILLIC CAPITAL LETTER GHE *)
			cp1251[0C4H] := симв32ИзКода(0414H);  (* CYRILLIC CAPITAL LETTER DE *)
			cp1251[0C5H] := симв32ИзКода(0415H);  (* CYRILLIC CAPITAL LETTER IE *)
			cp1251[0C6H] := симв32ИзКода(0416H);  (* CYRILLIC CAPITAL LETTER ZHE *)
			cp1251[0C7H] := симв32ИзКода(0417H);  (* CYRILLIC CAPITAL LETTER ZE *)
			cp1251[0C8H] := симв32ИзКода(0418H);  (* CYRILLIC CAPITAL LETTER I *)
			cp1251[0C9H] := симв32ИзКода(0419H);  (* CYRILLIC CAPITAL LETTER SHORT I *)
			cp1251[0CAH] := симв32ИзКода(041AH);  (* CYRILLIC CAPITAL LETTER KA *)
			cp1251[0CBH] := симв32ИзКода(041BH);  (* CYRILLIC CAPITAL LETTER EL *)
			cp1251[0CCH] := симв32ИзКода(041CH);  (* CYRILLIC CAPITAL LETTER EM *)
			cp1251[0CDH] := симв32ИзКода(041DH);  (* CYRILLIC CAPITAL LETTER EN *)
			cp1251[0CEH] := симв32ИзКода(041EH);  (* CYRILLIC CAPITAL LETTER O *)
			cp1251[0CFH] := симв32ИзКода(041FH);  (* CYRILLIC CAPITAL LETTER PE *)
			cp1251[0D0H] := симв32ИзКода(0420H);  (* CYRILLIC CAPITAL LETTER ER *)
			cp1251[0D1H] := симв32ИзКода(0421H);  (* CYRILLIC CAPITAL LETTER ES *)
			cp1251[0D2H] := симв32ИзКода(0422H);  (* CYRILLIC CAPITAL LETTER TE *)
			cp1251[0D3H] := симв32ИзКода(0423H);  (* CYRILLIC CAPITAL LETTER U *)
			cp1251[0D4H] := симв32ИзКода(0424H);  (* CYRILLIC CAPITAL LETTER EF *)
			cp1251[0D5H] := симв32ИзКода(0425H);  (* CYRILLIC CAPITAL LETTER HA *)
			cp1251[0D6H] := симв32ИзКода(0426H);  (* CYRILLIC CAPITAL LETTER TSE *)
			cp1251[0D7H] := симв32ИзКода(0427H);  (* CYRILLIC CAPITAL LETTER CHE *)
			cp1251[0D8H] := симв32ИзКода(0428H);  (* CYRILLIC CAPITAL LETTER SHA *)
			cp1251[0D9H] := симв32ИзКода(0429H);  (* CYRILLIC CAPITAL LETTER SHCHA *)
			cp1251[0DAH] := симв32ИзКода(042AH);  (* CYRILLIC CAPITAL LETTER HARD SIGN *)
			cp1251[0DBH] := симв32ИзКода(042BH);  (* CYRILLIC CAPITAL LETTER YERU *)
			cp1251[0DCH] := симв32ИзКода(042CH);  (* CYRILLIC CAPITAL LETTER SOFT SIGN *)
			cp1251[0DDH] := симв32ИзКода(042DH);  (* CYRILLIC CAPITAL LETTER E *)
			cp1251[0DEH] := симв32ИзКода(042EH);  (* CYRILLIC CAPITAL LETTER YU *)
			cp1251[0DFH] := симв32ИзКода(042FH);  (* CYRILLIC CAPITAL LETTER YA *)
			cp1251[0E0H] := симв32ИзКода(0430H);  (* CYRILLIC SMALL LETTER A *)
			cp1251[0E1H] := симв32ИзКода(0431H);  (* CYRILLIC SMALL LETTER BE *)
			cp1251[0E2H] := симв32ИзКода(0432H);  (* CYRILLIC SMALL LETTER VE *)
			cp1251[0E3H] := симв32ИзКода(0433H);  (* CYRILLIC SMALL LETTER GHE *)
			cp1251[0E4H] := симв32ИзКода(0434H);  (* CYRILLIC SMALL LETTER DE *)
			cp1251[0E5H] := симв32ИзКода(0435H);  (* CYRILLIC SMALL LETTER IE *)
			cp1251[0E6H] := симв32ИзКода(0436H);  (* CYRILLIC SMALL LETTER ZHE *)
			cp1251[0E7H] := симв32ИзКода(0437H);  (* CYRILLIC SMALL LETTER ZE *)
			cp1251[0E8H] := симв32ИзКода(0438H);  (* CYRILLIC SMALL LETTER I *)
			cp1251[0E9H] := симв32ИзКода(0439H);  (* CYRILLIC SMALL LETTER SHORT I *)
			cp1251[0EAH] := симв32ИзКода(043AH);  (* CYRILLIC SMALL LETTER KA *)
			cp1251[0EBH] := симв32ИзКода(043BH);  (* CYRILLIC SMALL LETTER EL *)
			cp1251[0ECH] := симв32ИзКода(043CH);  (* CYRILLIC SMALL LETTER EM *)
			cp1251[0EDH] := симв32ИзКода(043DH);  (* CYRILLIC SMALL LETTER EN *)
			cp1251[0EEH] := симв32ИзКода(043EH);  (* CYRILLIC SMALL LETTER O *)
			cp1251[0EFH] := симв32ИзКода(043FH);  (* CYRILLIC SMALL LETTER PE *)
			cp1251[0F0H] := симв32ИзКода(0440H);  (* CYRILLIC SMALL LETTER ER *)
			cp1251[0F1H] := симв32ИзКода(0441H);  (* CYRILLIC SMALL LETTER ES *)
			cp1251[0F2H] := симв32ИзКода(0442H);  (* CYRILLIC SMALL LETTER TE *)
			cp1251[0F3H] := симв32ИзКода(0443H);  (* CYRILLIC SMALL LETTER U *)
			cp1251[0F4H] := симв32ИзКода(0444H);  (* CYRILLIC SMALL LETTER EF *)
			cp1251[0F5H] := симв32ИзКода(0445H);  (* CYRILLIC SMALL LETTER HA *)
			cp1251[0F6H] := симв32ИзКода(0446H);  (* CYRILLIC SMALL LETTER TSE *)
			cp1251[0F7H] := симв32ИзКода(0447H);  (* CYRILLIC SMALL LETTER CHE *)
			cp1251[0F8H] := симв32ИзКода(0448H);  (* CYRILLIC SMALL LETTER SHA *)
			cp1251[0F9H] := симв32ИзКода(0449H);  (* CYRILLIC SMALL LETTER SHCHA *)
			cp1251[0FAH] := симв32ИзКода(044AH);  (* CYRILLIC SMALL LETTER HARD SIGN *)
			cp1251[0FBH] := симв32ИзКода(044BH);  (* CYRILLIC SMALL LETTER YERU *)
			cp1251[0FCH] := симв32ИзКода(044CH);  (* CYRILLIC SMALL LETTER SOFT SIGN *)
			cp1251[0FDH] := симв32ИзКода(044DH);  (* CYRILLIC SMALL LETTER E *)
			cp1251[0FEH] := симв32ИзКода(044EH);  (* CYRILLIC SMALL LETTER YU *)
			cp1251[0FFH] := симв32ИзКода(044FH);  (* CYRILLIC SMALL LETTER YA *)

			нцДля i := aLowBound[CP1251] до 255 делай
				c := симв8ИзКода(i);
				b := hashSearch(CP1251, истина, cp1251[i], c)
			кц

		всё

	кон cp1251Init;

	проц cp866Init;
	перем
		i: цел16; b: булево;
		c: симв8;
	нач

		если ~(CP866 в setInitDone) то
			setInitDone := setInitDone + {CP866};

			нцДля i := 0 до aLowBound[CP866] - 1 делай
				cp866[i] := симв32ИзКода(i)
			кц;

			cp866[080H] := симв32ИзКода(0410H);  (* CYRILLIC CAPITAL LETTER A *)
			cp866[081H] := симв32ИзКода(0411H);  (* CYRILLIC CAPITAL LETTER BE *)
			cp866[082H] := симв32ИзКода(0412H);  (* CYRILLIC CAPITAL LETTER VE *)
			cp866[083H] := симв32ИзКода(0413H);  (* CYRILLIC CAPITAL LETTER GHE *)
			cp866[084H] := симв32ИзКода(0414H);  (* CYRILLIC CAPITAL LETTER DE *)
			cp866[085H] := симв32ИзКода(0415H);  (* CYRILLIC CAPITAL LETTER IE *)
			cp866[086H] := симв32ИзКода(0416H);  (* CYRILLIC CAPITAL LETTER ZHE *)
			cp866[087H] := симв32ИзКода(0417H);  (* CYRILLIC CAPITAL LETTER ZE *)
			cp866[088H] := симв32ИзКода(0418H);  (* CYRILLIC CAPITAL LETTER I *)
			cp866[089H] := симв32ИзКода(0419H);  (* CYRILLIC CAPITAL LETTER SHORT I *)
			cp866[08AH] := симв32ИзКода(041AH);  (* CYRILLIC CAPITAL LETTER KA *)
			cp866[08BH] := симв32ИзКода(041BH);  (* CYRILLIC CAPITAL LETTER EL *)
			cp866[08CH] := симв32ИзКода(041CH);  (* CYRILLIC CAPITAL LETTER EM *)
			cp866[08DH] := симв32ИзКода(041DH);  (* CYRILLIC CAPITAL LETTER EN *)
			cp866[08EH] := симв32ИзКода(041EH);  (* CYRILLIC CAPITAL LETTER O *)
			cp866[08FH] := симв32ИзКода(041FH);  (* CYRILLIC CAPITAL LETTER PE *)
			cp866[090H] := симв32ИзКода(0420H);  (* CYRILLIC CAPITAL LETTER ER *)
			cp866[091H] := симв32ИзКода(0421H);  (* CYRILLIC CAPITAL LETTER ES *)
			cp866[092H] := симв32ИзКода(0422H);  (* CYRILLIC CAPITAL LETTER TE *)
			cp866[093H] := симв32ИзКода(0423H);  (* CYRILLIC CAPITAL LETTER U *)
			cp866[094H] := симв32ИзКода(0424H);  (* CYRILLIC CAPITAL LETTER EF *)
			cp866[095H] := симв32ИзКода(0425H);  (* CYRILLIC CAPITAL LETTER HA *)
			cp866[096H] := симв32ИзКода(0426H);  (* CYRILLIC CAPITAL LETTER TSE *)
			cp866[097H] := симв32ИзКода(0427H);  (* CYRILLIC CAPITAL LETTER CHE *)
			cp866[098H] := симв32ИзКода(0428H);  (* CYRILLIC CAPITAL LETTER SHA *)
			cp866[099H] := симв32ИзКода(0429H);  (* CYRILLIC CAPITAL LETTER SHCHA *)
			cp866[09AH] := симв32ИзКода(042AH);  (* CYRILLIC CAPITAL LETTER HARD SIGN *)
			cp866[09BH] := симв32ИзКода(042BH);  (* CYRILLIC CAPITAL LETTER YERU *)
			cp866[09CH] := симв32ИзКода(042CH);  (* CYRILLIC CAPITAL LETTER SOFT SIGN *)
			cp866[09DH] := симв32ИзКода(042DH);  (* CYRILLIC CAPITAL LETTER E *)
			cp866[09EH] := симв32ИзКода(042EH);  (* CYRILLIC CAPITAL LETTER YU *)
			cp866[09FH] := симв32ИзКода(042FH);  (* CYRILLIC CAPITAL LETTER YA *)
			cp866[0A0H] := симв32ИзКода(0430H);  (* CYRILLIC SMALL LETTER A *)
			cp866[0A1H] := симв32ИзКода(0431H);  (* CYRILLIC SMALL LETTER BE *)
			cp866[0A2H] := симв32ИзКода(0432H);  (* CYRILLIC SMALL LETTER VE *)
			cp866[0A3H] := симв32ИзКода(0433H);  (* CYRILLIC SMALL LETTER GHE *)
			cp866[0A4H] := симв32ИзКода(0434H);  (* CYRILLIC SMALL LETTER DE *)
			cp866[0A5H] := симв32ИзКода(0435H);  (* CYRILLIC SMALL LETTER IE *)
			cp866[0A6H] := симв32ИзКода(0436H);  (* CYRILLIC SMALL LETTER ZHE *)
			cp866[0A7H] := симв32ИзКода(0437H);  (* CYRILLIC SMALL LETTER ZE *)
			cp866[0A8H] := симв32ИзКода(0438H);  (* CYRILLIC SMALL LETTER I *)
			cp866[0A9H] := симв32ИзКода(0439H);  (* CYRILLIC SMALL LETTER SHORT I *)
			cp866[0AAH] := симв32ИзКода(043AH);  (* CYRILLIC SMALL LETTER KA *)
			cp866[0ABH] := симв32ИзКода(043BH);  (* CYRILLIC SMALL LETTER EL *)
			cp866[0ACH] := симв32ИзКода(043CH);  (* CYRILLIC SMALL LETTER EM *)
			cp866[0ADH] := симв32ИзКода(043DH);  (* CYRILLIC SMALL LETTER EN *)
			cp866[0AEH] := симв32ИзКода(043EH);  (* CYRILLIC SMALL LETTER O *)
			cp866[0AFH] := симв32ИзКода(043FH);  (* CYRILLIC SMALL LETTER PE *)
			cp866[0B0H] := симв32ИзКода(2591H);  (* LIGHT SHADE *)
			cp866[0B1H] := симв32ИзКода(2592H);  (* MEDIUM SHADE *)
			cp866[0B2H] := симв32ИзКода(2593H);  (* DARK SHADE *)
			cp866[0B3H] := симв32ИзКода(2502H);  (* BOX DRAWINGS LIGHT VERTICAL *)
			cp866[0B4H] := симв32ИзКода(2524H);  (* BOX DRAWINGS LIGHT VERTICAL AND LEFT *)
			cp866[0B5H] := симв32ИзКода(2561H);  (* BOX DRAWINGS VERTICAL SINGLE AND LEFT DOUBLE *)
			cp866[0B6H] := симв32ИзКода(2562H);  (* BOX DRAWINGS VERTICAL DOUBLE AND LEFT SINGLE *)
			cp866[0B7H] := симв32ИзКода(2556H);  (* BOX DRAWINGS DOWN DOUBLE AND LEFT SINGLE *)
			cp866[0B8H] := симв32ИзКода(2555H);  (* BOX DRAWINGS DOWN SINGLE AND LEFT DOUBLE *)
			cp866[0B9H] := симв32ИзКода(2563H);  (* BOX DRAWINGS DOUBLE VERTICAL AND LEFT *)
			cp866[0BAH] := симв32ИзКода(2551H);  (* BOX DRAWINGS DOUBLE VERTICAL *)
			cp866[0BBH] := симв32ИзКода(2557H);  (* BOX DRAWINGS DOUBLE DOWN AND LEFT *)
			cp866[0BCH] := симв32ИзКода(255DH);  (* BOX DRAWINGS DOUBLE UP AND LEFT *)
			cp866[0BDH] := симв32ИзКода(255CH);  (* BOX DRAWINGS UP DOUBLE AND LEFT SINGLE *)
			cp866[0BEH] := симв32ИзКода(255BH);  (* BOX DRAWINGS UP SINGLE AND LEFT DOUBLE *)
			cp866[0BFH] := симв32ИзКода(2510H);  (* BOX DRAWINGS LIGHT DOWN AND LEFT *)
			cp866[0C0H] := симв32ИзКода(2514H);  (* BOX DRAWINGS LIGHT UP AND RIGHT *)
			cp866[0C1H] := симв32ИзКода(2534H);  (* BOX DRAWINGS LIGHT UP AND HORIZONTAL *)
			cp866[0C2H] := симв32ИзКода(252CH);  (* BOX DRAWINGS LIGHT DOWN AND HORIZONTAL *)
			cp866[0C3H] := симв32ИзКода(251CH);  (* BOX DRAWINGS LIGHT VERTICAL AND RIGHT *)
			cp866[0C4H] := симв32ИзКода(2500H);  (* BOX DRAWINGS LIGHT HORIZONTAL *)
			cp866[0C5H] := симв32ИзКода(253CH);  (* BOX DRAWINGS LIGHT VERTICAL AND HORIZONTAL *)
			cp866[0C6H] := симв32ИзКода(255EH);  (* BOX DRAWINGS VERTICAL SINGLE AND RIGHT DOUBLE *)
			cp866[0C7H] := симв32ИзКода(255FH);  (* BOX DRAWINGS VERTICAL DOUBLE AND RIGHT SINGLE *)
			cp866[0C8H] := симв32ИзКода(255AH);  (* BOX DRAWINGS DOUBLE UP AND RIGHT *)
			cp866[0C9H] := симв32ИзКода(2554H);  (* BOX DRAWINGS DOUBLE DOWN AND RIGHT *)
			cp866[0CAH] := симв32ИзКода(2569H);  (* BOX DRAWINGS DOUBLE UP AND HORIZONTAL *)
			cp866[0CBH] := симв32ИзКода(2566H);  (* BOX DRAWINGS DOUBLE DOWN AND HORIZONTAL *)
			cp866[0CCH] := симв32ИзКода(2560H);  (* BOX DRAWINGS DOUBLE VERTICAL AND RIGHT *)
			cp866[0CDH] := симв32ИзКода(2550H);  (* BOX DRAWINGS DOUBLE HORIZONTAL *)
			cp866[0CEH] := симв32ИзКода(256CH);  (* BOX DRAWINGS DOUBLE VERTICAL AND HORIZONTAL *)
			cp866[0CFH] := симв32ИзКода(2567H);  (* BOX DRAWINGS UP SINGLE AND HORIZONTAL DOUBLE *)
			cp866[0D0H] := симв32ИзКода(2568H);  (* BOX DRAWINGS UP DOUBLE AND HORIZONTAL SINGLE *)
			cp866[0D1H] := симв32ИзКода(2564H);  (* BOX DRAWINGS DOWN SINGLE AND HORIZONTAL DOUBLE *)
			cp866[0D2H] := симв32ИзКода(2565H);  (* BOX DRAWINGS DOWN DOUBLE AND HORIZONTAL SINGLE *)
			cp866[0D3H] := симв32ИзКода(2559H);  (* BOX DRAWINGS UP DOUBLE AND RIGHT SINGLE *)
			cp866[0D4H] := симв32ИзКода(2558H);  (* BOX DRAWINGS UP SINGLE AND RIGHT DOUBLE *)
			cp866[0D5H] := симв32ИзКода(2552H);  (* BOX DRAWINGS DOWN SINGLE AND RIGHT DOUBLE *)
			cp866[0D6H] := симв32ИзКода(2553H);  (* BOX DRAWINGS DOWN DOUBLE AND RIGHT SINGLE *)
			cp866[0D7H] := симв32ИзКода(256BH);  (* BOX DRAWINGS VERTICAL DOUBLE AND HORIZONTAL SINGLE *)
			cp866[0D8H] := симв32ИзКода(256AH);  (* BOX DRAWINGS VERTICAL SINGLE AND HORIZONTAL DOUBLE *)
			cp866[0D9H] := симв32ИзКода(2518H);  (* BOX DRAWINGS LIGHT UP AND LEFT *)
			cp866[0DAH] := симв32ИзКода(250CH);  (* BOX DRAWINGS LIGHT DOWN AND RIGHT *)
			cp866[0DBH] := симв32ИзКода(2588H);  (* FULL BLOCK *)
			cp866[0DCH] := симв32ИзКода(2584H);  (* LOWER HALF BLOCK *)
			cp866[0DDH] := симв32ИзКода(258CH);  (* LEFT HALF BLOCK *)
			cp866[0DEH] := симв32ИзКода(2590H);  (* RIGHT HALF BLOCK *)
			cp866[0DFH] := симв32ИзКода(2580H);  (* UPPER HALF BLOCK *)
			cp866[0E0H] := симв32ИзКода(0440H);  (* CYRILLIC SMALL LETTER ER *)
			cp866[0E1H] := симв32ИзКода(0441H);  (* CYRILLIC SMALL LETTER ES *)
			cp866[0E2H] := симв32ИзКода(0442H);  (* CYRILLIC SMALL LETTER TE *)
			cp866[0E3H] := симв32ИзКода(0443H);  (* CYRILLIC SMALL LETTER U *)
			cp866[0E4H] := симв32ИзКода(0444H);  (* CYRILLIC SMALL LETTER EF *)
			cp866[0E5H] := симв32ИзКода(0445H);  (* CYRILLIC SMALL LETTER HA *)
			cp866[0E6H] := симв32ИзКода(0446H);  (* CYRILLIC SMALL LETTER TSE *)
			cp866[0E7H] := симв32ИзКода(0447H);  (* CYRILLIC SMALL LETTER CHE *)
			cp866[0E8H] := симв32ИзКода(0448H);  (* CYRILLIC SMALL LETTER SHA *)
			cp866[0E9H] := симв32ИзКода(0449H);  (* CYRILLIC SMALL LETTER SHCHA *)
			cp866[0EAH] := симв32ИзКода(044AH);  (* CYRILLIC SMALL LETTER HARD SIGN *)
			cp866[0EBH] := симв32ИзКода(044BH);  (* CYRILLIC SMALL LETTER YERU *)
			cp866[0ECH] := симв32ИзКода(044CH);  (* CYRILLIC SMALL LETTER SOFT SIGN *)
			cp866[0EDH] := симв32ИзКода(044DH);  (* CYRILLIC SMALL LETTER E *)
			cp866[0EEH] := симв32ИзКода(044EH);  (* CYRILLIC SMALL LETTER YU *)
			cp866[0EFH] := симв32ИзКода(044FH);  (* CYRILLIC SMALL LETTER YA *)
			cp866[0F0H] := симв32ИзКода(0401H);  (* CYRILLIC CAPITAL LETTER IO *)
			cp866[0F1H] := симв32ИзКода(0451H);  (* CYRILLIC SMALL LETTER IO *)
			cp866[0F2H] := симв32ИзКода(0404H);  (* CYRILLIC CAPITAL LETTER UKRAINIAN IE *)
			cp866[0F3H] := симв32ИзКода(0454H);  (* CYRILLIC SMALL LETTER UKRAINIAN IE *)
			cp866[0F4H] := симв32ИзКода(0407H);  (* CYRILLIC CAPITAL LETTER YI *)
			cp866[0F5H] := симв32ИзКода(0457H);  (* CYRILLIC SMALL LETTER YI *)
			cp866[0F6H] := симв32ИзКода(040EH);  (* CYRILLIC CAPITAL LETTER SHORT U *)
			cp866[0F7H] := симв32ИзКода(045EH);  (* CYRILLIC SMALL LETTER SHORT U *)
			cp866[0F8H] := симв32ИзКода(00B0H);  (* DEGREE SIGN *)
			cp866[0F9H] := симв32ИзКода(2022H);  (* BULLET *)
			cp866[0FAH] := симв32ИзКода(00B7H);  (* MIDDLE DOT *)
			cp866[0FBH] := симв32ИзКода(221AH);  (* SQUARE ROOT *)
			cp866[0FCH] := симв32ИзКода(2116H);  (* NUMERO SIGN *)
			cp866[0FDH] := симв32ИзКода(00A4H);  (* CURRENCY SIGN *)
			cp866[0FEH] := симв32ИзКода(25A0H);  (* BLACK SQUARE *)
			cp866[0FFH] := симв32ИзКода(00A0H);  (* NO-BREAK SPACE *)

			нцДля i := aLowBound[CP866] до 255 делай
				c := симв8ИзКода(i);
				b := hashSearch(CP866, истина, cp866[i], c)
			кц

		всё
	кон cp866Init;

	проц iso88595Init;
	перем
		i: цел16; b: булево;
		c: симв8;
	нач

		если ~(ISO88595 в setInitDone) то
			setInitDone := setInitDone + {ISO88595};

			нцДля i := 0 до aLowBound[ISO88595] - 1 делай
				iso88595[i] := симв32ИзКода(i)
			кц;

			iso88595[0A0H] := симв32ИзКода(00A0H);  (* NO-BREAK SPACE *)
			iso88595[0A1H] := симв32ИзКода(0401H);  (* CYRILLIC CAPITAL LETTER IO *)
			iso88595[0A2H] := симв32ИзКода(0402H);  (* CYRILLIC CAPITAL LETTER DJE *)
			iso88595[0A3H] := симв32ИзКода(0403H);  (* CYRILLIC CAPITAL LETTER GJE *)
			iso88595[0A4H] := симв32ИзКода(0404H);  (* CYRILLIC CAPITAL LETTER UKRAINIAN IE *)
			iso88595[0A5H] := симв32ИзКода(0405H);  (* CYRILLIC CAPITAL LETTER DZE *)
			iso88595[0A6H] := симв32ИзКода(0406H);  (* CYRILLIC CAPITAL LETTER BYELORUSSIAN-UKRAINIAN I *)
			iso88595[0A7H] := симв32ИзКода(0407H);  (* CYRILLIC CAPITAL LETTER YI *)
			iso88595[0A8H] := симв32ИзКода(0408H);  (* CYRILLIC CAPITAL LETTER JE *)
			iso88595[0A9H] := симв32ИзКода(0409H);  (* CYRILLIC CAPITAL LETTER LJE *)
			iso88595[0AAH] := симв32ИзКода(040AH);  (* CYRILLIC CAPITAL LETTER NJE *)
			iso88595[0ABH] := симв32ИзКода(040BH);  (* CYRILLIC CAPITAL LETTER TSHE *)
			iso88595[0ACH] := симв32ИзКода(040CH);  (* CYRILLIC CAPITAL LETTER KJE *)
			iso88595[0ADH] := симв32ИзКода(00ADH);  (* SOFT HYPHEN *)
			iso88595[0AEH] := симв32ИзКода(040EH);  (* CYRILLIC CAPITAL LETTER SHORT U *)
			iso88595[0AFH] := симв32ИзКода(040FH);  (* CYRILLIC CAPITAL LETTER DZHE *)
			iso88595[0B0H] := симв32ИзКода(0410H);  (* CYRILLIC CAPITAL LETTER A *)
			iso88595[0B1H] := симв32ИзКода(0411H);  (* CYRILLIC CAPITAL LETTER BE *)
			iso88595[0B2H] := симв32ИзКода(0412H);  (* CYRILLIC CAPITAL LETTER VE *)
			iso88595[0B3H] := симв32ИзКода(0413H);  (* CYRILLIC CAPITAL LETTER GHE *)
			iso88595[0B4H] := симв32ИзКода(0414H);  (* CYRILLIC CAPITAL LETTER DE *)
			iso88595[0B5H] := симв32ИзКода(0415H);  (* CYRILLIC CAPITAL LETTER IE *)
			iso88595[0B6H] := симв32ИзКода(0416H);  (* CYRILLIC CAPITAL LETTER ZHE *)
			iso88595[0B7H] := симв32ИзКода(0417H);  (* CYRILLIC CAPITAL LETTER ZE *)
			iso88595[0B8H] := симв32ИзКода(0418H);  (* CYRILLIC CAPITAL LETTER I *)
			iso88595[0B9H] := симв32ИзКода(0419H);  (* CYRILLIC CAPITAL LETTER SHORT I *)
			iso88595[0BAH] := симв32ИзКода(041AH);  (* CYRILLIC CAPITAL LETTER KA *)
			iso88595[0BBH] := симв32ИзКода(041BH);  (* CYRILLIC CAPITAL LETTER EL *)
			iso88595[0BCH] := симв32ИзКода(041CH);  (* CYRILLIC CAPITAL LETTER EM *)
			iso88595[0BDH] := симв32ИзКода(041DH);  (* CYRILLIC CAPITAL LETTER EN *)
			iso88595[0BEH] := симв32ИзКода(041EH);  (* CYRILLIC CAPITAL LETTER O *)
			iso88595[0BFH] := симв32ИзКода(041FH);  (* CYRILLIC CAPITAL LETTER PE *)
			iso88595[0C0H] := симв32ИзКода(0420H);  (* CYRILLIC CAPITAL LETTER ER *)
			iso88595[0C1H] := симв32ИзКода(0421H);  (* CYRILLIC CAPITAL LETTER ES *)
			iso88595[0C2H] := симв32ИзКода(0422H);  (* CYRILLIC CAPITAL LETTER TE *)
			iso88595[0C3H] := симв32ИзКода(0423H);  (* CYRILLIC CAPITAL LETTER U *)
			iso88595[0C4H] := симв32ИзКода(0424H);  (* CYRILLIC CAPITAL LETTER EF *)
			iso88595[0C5H] := симв32ИзКода(0425H);  (* CYRILLIC CAPITAL LETTER HA *)
			iso88595[0C6H] := симв32ИзКода(0426H);  (* CYRILLIC CAPITAL LETTER TSE *)
			iso88595[0C7H] := симв32ИзКода(0427H);  (* CYRILLIC CAPITAL LETTER CHE *)
			iso88595[0C8H] := симв32ИзКода(0428H);  (* CYRILLIC CAPITAL LETTER SHA *)
			iso88595[0C9H] := симв32ИзКода(0429H);  (* CYRILLIC CAPITAL LETTER SHCHA *)
			iso88595[0CAH] := симв32ИзКода(042AH);  (* CYRILLIC CAPITAL LETTER HARD SIGN *)
			iso88595[0CBH] := симв32ИзКода(042BH);  (* CYRILLIC CAPITAL LETTER YERU *)
			iso88595[0CCH] := симв32ИзКода(042CH);  (* CYRILLIC CAPITAL LETTER SOFT SIGN *)
			iso88595[0CDH] := симв32ИзКода(042DH);  (* CYRILLIC CAPITAL LETTER E *)
			iso88595[0CEH] := симв32ИзКода(042EH);  (* CYRILLIC CAPITAL LETTER YU *)
			iso88595[0CFH] := симв32ИзКода(042FH);  (* CYRILLIC CAPITAL LETTER YA *)
			iso88595[0D0H] := симв32ИзКода(0430H);  (* CYRILLIC SMALL LETTER A *)
			iso88595[0D1H] := симв32ИзКода(0431H);  (* CYRILLIC SMALL LETTER BE *)
			iso88595[0D2H] := симв32ИзКода(0432H);  (* CYRILLIC SMALL LETTER VE *)
			iso88595[0D3H] := симв32ИзКода(0433H);  (* CYRILLIC SMALL LETTER GHE *)
			iso88595[0D4H] := симв32ИзКода(0434H);  (* CYRILLIC SMALL LETTER DE *)
			iso88595[0D5H] := симв32ИзКода(0435H);  (* CYRILLIC SMALL LETTER IE *)
			iso88595[0D6H] := симв32ИзКода(0436H);  (* CYRILLIC SMALL LETTER ZHE *)
			iso88595[0D7H] := симв32ИзКода(0437H);  (* CYRILLIC SMALL LETTER ZE *)
			iso88595[0D8H] := симв32ИзКода(0438H);  (* CYRILLIC SMALL LETTER I *)
			iso88595[0D9H] := симв32ИзКода(0439H);  (* CYRILLIC SMALL LETTER SHORT I *)
			iso88595[0DAH] := симв32ИзКода(043AH);  (* CYRILLIC SMALL LETTER KA *)
			iso88595[0DBH] := симв32ИзКода(043BH);  (* CYRILLIC SMALL LETTER EL *)
			iso88595[0DCH] := симв32ИзКода(043CH);  (* CYRILLIC SMALL LETTER EM *)
			iso88595[0DDH] := симв32ИзКода(043DH);  (* CYRILLIC SMALL LETTER EN *)
			iso88595[0DEH] := симв32ИзКода(043EH);  (* CYRILLIC SMALL LETTER O *)
			iso88595[0DFH] := симв32ИзКода(043FH);  (* CYRILLIC SMALL LETTER PE *)
			iso88595[0E0H] := симв32ИзКода(0440H);  (* CYRILLIC SMALL LETTER ER *)
			iso88595[0E1H] := симв32ИзКода(0441H);  (* CYRILLIC SMALL LETTER ES *)
			iso88595[0E2H] := симв32ИзКода(0442H);  (* CYRILLIC SMALL LETTER TE *)
			iso88595[0E3H] := симв32ИзКода(0443H);  (* CYRILLIC SMALL LETTER U *)
			iso88595[0E4H] := симв32ИзКода(0444H);  (* CYRILLIC SMALL LETTER EF *)
			iso88595[0E5H] := симв32ИзКода(0445H);  (* CYRILLIC SMALL LETTER HA *)
			iso88595[0E6H] := симв32ИзКода(0446H);  (* CYRILLIC SMALL LETTER TSE *)
			iso88595[0E7H] := симв32ИзКода(0447H);  (* CYRILLIC SMALL LETTER CHE *)
			iso88595[0E8H] := симв32ИзКода(0448H);  (* CYRILLIC SMALL LETTER SHA *)
			iso88595[0E9H] := симв32ИзКода(0449H);  (* CYRILLIC SMALL LETTER SHCHA *)
			iso88595[0EAH] := симв32ИзКода(044AH);  (* CYRILLIC SMALL LETTER HARD SIGN *)
			iso88595[0EBH] := симв32ИзКода(044BH);  (* CYRILLIC SMALL LETTER YERU *)
			iso88595[0ECH] := симв32ИзКода(044CH);  (* CYRILLIC SMALL LETTER SOFT SIGN *)
			iso88595[0EDH] := симв32ИзКода(044DH);  (* CYRILLIC SMALL LETTER E *)
			iso88595[0EEH] := симв32ИзКода(044EH);  (* CYRILLIC SMALL LETTER YU *)
			iso88595[0EFH] := симв32ИзКода(044FH);  (* CYRILLIC SMALL LETTER YA *)
			iso88595[0F0H] := симв32ИзКода(2116H);  (* NUMERO SIGN *)
			iso88595[0F1H] := симв32ИзКода(0451H);  (* CYRILLIC SMALL LETTER IO *)
			iso88595[0F2H] := симв32ИзКода(0452H);  (* CYRILLIC SMALL LETTER DJE *)
			iso88595[0F3H] := симв32ИзКода(0453H);  (* CYRILLIC SMALL LETTER GJE *)
			iso88595[0F4H] := симв32ИзКода(0454H);  (* CYRILLIC SMALL LETTER UKRAINIAN IE *)
			iso88595[0F5H] := симв32ИзКода(0455H);  (* CYRILLIC SMALL LETTER DZE *)
			iso88595[0F6H] := симв32ИзКода(0456H);  (* CYRILLIC SMALL LETTER BYELORUSSIAN-UKRAINIAN I *)
			iso88595[0F7H] := симв32ИзКода(0457H);  (* CYRILLIC SMALL LETTER YI *)
			iso88595[0F8H] := симв32ИзКода(0458H);  (* CYRILLIC SMALL LETTER JE *)
			iso88595[0F9H] := симв32ИзКода(0459H);  (* CYRILLIC SMALL LETTER LJE *)
			iso88595[0FAH] := симв32ИзКода(045AH);  (* CYRILLIC SMALL LETTER NJE *)
			iso88595[0FBH] := симв32ИзКода(045BH);  (* CYRILLIC SMALL LETTER TSHE *)
			iso88595[0FCH] := симв32ИзКода(045CH);  (* CYRILLIC SMALL LETTER KJE *)
			iso88595[0FDH] := симв32ИзКода(00A7H);  (* SECTION SIGN *)
			iso88595[0FEH] := симв32ИзКода(045EH);  (* CYRILLIC SMALL LETTER SHORT U *)
			iso88595[0FFH] := симв32ИзКода(045FH);  (* CYRILLIC SMALL LETTER DZHE U *)

			нцДля i := aLowBound[ISO88595] до 255 делай
				c := симв8ИзКода(i);
				b := hashSearch(ISO88595, истина, iso88595[i], c)
			кц

		всё
	кон iso88595Init;

(* CP1251 File Format *)
проц CP1251DecoderFactory*(): Codecs.TextDecoder;
перем p: CP1251Decoder;
нач
	cp1251Init;
	нов(p);
	возврат p
кон CP1251DecoderFactory;

проц CP1251EncoderFactory*(): Codecs.TextEncoder;
перем p: CP1251Encoder;
нач
	cp1251Init;
	нов(p);
	возврат p
кон CP1251EncoderFactory;

(* KOI8R File Format *)
проц KOI8RDecoderFactory*(): Codecs.TextDecoder;
перем p: KOI8RDecoder;
нач
	koi8rInit;
	нов(p);
	возврат p
кон KOI8RDecoderFactory;

проц KOI8REncoderFactory*(): Codecs.TextEncoder;
перем p: KOI8REncoder;
нач
	koi8rInit;
	нов(p);
	возврат p
кон KOI8REncoderFactory;

(* KOI8U File Format *)
проц KOI8UDecoderFactory*(): Codecs.TextDecoder;
перем p: KOI8UDecoder;
нач
	koi8uInit;
	нов(p);
	возврат p
кон KOI8UDecoderFactory;

проц KOI8UEncoderFactory*(): Codecs.TextEncoder;
перем p: KOI8UEncoder;
нач
	koi8uInit;
	нов(p);
	возврат p
кон KOI8UEncoderFactory;

(* CP866 File Format *)
проц CP866DecoderFactory*(): Codecs.TextDecoder;
перем p: CP866Decoder;
нач
	cp866Init;
	нов(p);
	возврат p
кон CP866DecoderFactory;

проц CP866EncoderFactory*(): Codecs.TextEncoder;
перем p : CP866Encoder;
нач
	cp866Init;
	нов(p);
	возврат p
кон CP866EncoderFactory;

(* ISO-8859-5 File Format *)
проц ISO88595DecoderFactory*(): Codecs.TextDecoder;
перем p: ISO88595Decoder;
нач
	iso88595Init;
	нов(p);
	возврат p
кон ISO88595DecoderFactory;

проц ISO88595EncoderFactory*(): Codecs.TextEncoder;
перем p: ISO88595Encoder;
нач
	iso88595Init;
	нов(p);
	возврат p
кон ISO88595EncoderFactory;

проц Init;
перем
	i: цел16;
нач
	нцДля i := 0 до PRIME - 1 делай
		hash[i].ucs32 := Texts.Симв32Нулевой;
		hash[i].encodings := {}
	кц;
	aLowBound[CP1251] := 080H;
	aLowBound[KOI8R] := 080H;
	aLowBound[KOI8U] := 080H;
	aLowBound[CP866] := 080H;
	aLowBound[ISO88595] := 0A0H;
	setInitDone := {};
	nCollisions := 0;
	bFirst := истина;
кон Init;

проц HashStat*(context: Commands.Context);
перем
	i, n: цел16;
нач
	n := 0;
	нцДля i := 0 до PRIME - 1 делай
		если hash[i].ucs32 # Texts.Симв32Нулевой то
			увел(n)
		всё
	кц;
	если n = 0 то
		context.out.пВК_ПС;
		context.out.пСтроку8("Hash table not yet initialized.");
		context.out.пВК_ПС
	иначе
		context.out.пВК_ПС;
		context.out.пЦел64(n, 1);
		context.out.пСтроку8(" of ");
		context.out.пЦел64(PRIME, 1);
		context.out.пСтроку8(" hash table cells used. Ratio: ");
		context.out.пВещ64(n / PRIME, 20);
		context.out.пВК_ПС;
		context.out.пСтроку8("Number of collisions: ");
		context.out.пЦел64(nCollisions, 1);
		context.out.пВК_ПС
	всё
кон HashStat;

нач
	Init
кон CyrillicUtilities.

System.Free CyrillicUtilities~
CyrillicUtilities.HashStat ~
