модуль FoxCodeGenerators; (** AUTHOR ""; PURPOSE ""; *)

использует Diagnostics, Sections := FoxSections, Потоки, BinaryCode := FoxBinaryCode, IntermediateCode := FoxIntermediateCode,
		IntermediateBackend := FoxIntermediateBackend, SyntaxTree := FoxSyntaxTree, Basic := FoxBasic, Global := FoxGlobal,
		StringPool, Strings, D := Debugging;

конст
		None=IntermediateCode.None;
		OptimizeRegisterTransfer*=0;
тип
	(* ----------------------------------- register allocation ------------------------------------- *)

	AllocationArray=укль на массив из запись
		first, last: размерМЗ;
	кон;

	RegisterAllocation*=окласс
	перем
		table: AllocationArray;

		проц &Init;
		перем i: размерМЗ;
		нач
			если table = НУЛЬ то нов(table,64) всё;
			нцДля i := 0 до длинаМассива(table)-1 делай
				table[i].first := матМаксимум(цел32);
				table[i].last := матМинимум(цел32);
			кц;
		кон Init;

		проц Grow;
		перем new: AllocationArray; i: размерМЗ;
		нач
			нов(new,длинаМассива(table)*2);
			нцДля i := 0 до длинаМассива(table)-1 делай
				new[i] := table[i]
			кц;
			нцДля i := длинаМассива(table) до длинаМассива(new)-1 делай
				new[i].first := матМаксимум(цел32);
				new[i].last := матМинимум(цел32);
			кц;
			table := new;
		кон Grow;

		проц Use(register: размерМЗ; pc: размерМЗ);
		нач
			если длинаМассива(table) <= register то Grow всё;
			если table[register].first >pc то table[register].first := pc всё;
			если table[register].last <pc то table[register].last := pc всё;
		кон Use;

	кон RegisterAllocation;

	RegisterEntry* = укль на запись
		prev,next: RegisterEntry;
		register: размерМЗ;
		registerClass: IntermediateCode.RegisterClass;
		type: IntermediateCode.Type;
	кон;

	LiveRegisters*= окласс
	перем first, last, cache: RegisterEntry;

		проц &Init;
		нач first := НУЛЬ; last := НУЛЬ; cache := НУЛЬ;
		кон Init;

		проц AddRegisterEntry(register: размерМЗ; class: IntermediateCode.RegisterClass; type: IntermediateCode.Type);
		перем new: RegisterEntry;
		нач
			(* allocate *)
			если cache # НУЛЬ то new := cache; cache := cache.next; иначе нов(new) всё;
			new.next := НУЛЬ; new.prev := НУЛЬ;
			(* set *)
			new.register := register; new.registerClass := class; new.type := type;
			(* enter *)
			если first = НУЛЬ то
				first := new; last:= new;
			иначе
				new.next := first;
				first.prev := new;
				first := new
			всё;
		кон AddRegisterEntry;

		проц RemoveRegisterEntry(register: размерМЗ);
		перем this: RegisterEntry;
		нач
			(* search *)
			this := first;
			нцПока (this # НУЛЬ) и (this.register # register) делай
				this := this.next;
			кц;
			(* remove *)
			если this = НУЛЬ то возврат всё;
			если this = first то first := first.next всё;
			если this = last то last := last.prev всё;
			если this.prev # НУЛЬ то this.prev.next := this.next всё;
			если this.next # НУЛЬ то this.next.prev := this.prev всё;
			(* dispose *)
			this.next := cache; cache := this;
		кон RemoveRegisterEntry;

	кон LiveRegisters;

	GenericCodeGenerator*= окласс
	перем
		diagnostics-: Diagnostics.Diagnostics; (* error stream *)
		module-: Sections.Module;
		dump*: Потоки.Писарь;
		in-: IntermediateCode.Section; out-: BinaryCode.Section;
		inPC-, outPC-: размерМЗ;

		error* : булево;
		allocation: RegisterAllocation;
		liveRegisters: LiveRegisters;
		inEmulation-: булево;
		optimize: мнвоНаБитахМЗ;

		(* generic *)
		проц & InitGenerator*(l0diagnostics: Diagnostics.Diagnostics; l1optimize: булево);
		нач
			сам.module := НУЛЬ;
			сам.diagnostics := l0diagnostics;
			error := ложь;
			нов(allocation); нов(liveRegisters);
			если l1optimize то сам.optimize := {0..31} иначе сам.optimize := {} всё;
		кон InitGenerator;

		проц SetModule*(l2module: Sections.Module); (* needed for inline code for symbol reference *)
		нач
			сам.module := l2module;
		кон SetModule;

		проц Error*(position: Basic.Position; конст message: массив из симв8);
		перем string:Basic.MessageString;
		нач
			если diagnostics # НУЛЬ то
				Basic.SegmentedNameToString(in.name, string);
				Basic.Error(diagnostics,string, position, message)
			всё;
			если dump # НУЛЬ то (* to see error in trace output also *)
				dump.пСтроку8("Error: "); dump.пСтроку8(message); dump.пВК_ПС; dump.ПротолкниБуферВПоток;
			всё;
			error := истина;
		кон Error;

		(* generic *)
		проц Section*(l3in: IntermediateCode.Section; l4out: BinaryCode.Section);
		перем pc: размерМЗ; name: Basic.SectionName; instruction: IntermediateCode.Instruction;
			moduleName, procedureName: SyntaxTree.СтрокаИдентификатора;

			проц ResolveLocalFixups;
			перем fixup, next: BinaryCode.Fixup; dest: размерМЗ; msg,string: Basic.MessageString; number: массив 32 из симв8;
			нач
				fixup := l4out.fixupList.firstFixup;
				l4out.fixupList.InitFixupList;
				нцПока fixup # НУЛЬ делай
					next := fixup.nextFixup;
					если (fixup.symbol.name = l3in.name) и (fixup.mode = BinaryCode.Relative) то (* local relative fixup *)
						если dump # НУЛЬ то
							dump.пСтроку8("local fixup "); dump.пЦел64(fixup.offset,1); dump.пСтроку8(" <-- ");
							fixup.Dump(dump); dump.пВК_ПС; (*dump.Update;*)

						всё;
						если fixup.symbolOffset # 0 то
							dest := fixup.symbolOffset;
							dest := l3in.instructions[dest].pc;
						иначе
							dest := 0;
						всё;
						fixup.SetSymbol(fixup.symbol.name, fixup.symbol.fingerprint, 0, dest+fixup.displacement);
						если dump # НУЛЬ то
							dump.пСтроку8("local fixup resolved: ");
							dump.пЦел64(fixup.offset,1); dump.пСтроку8(" <-- ");
							fixup.Dump(dump);
							dump.пВК_ПС; (*dump.Update;*)
						всё;
						если ~l4out.ApplyFixup(fixup) то
							копируйСтрокуДо0("fixup out of range: ", msg);
							string := fixup.symbol.name;
							Strings.Append(msg, string);
							Strings.Append(msg, ":");
							Strings.IntToStr(fixup.offset, number);
							Strings.Append(msg, number);
							Error(Basic.invalidPosition,msg)
						всё
					иначе
						l4out.fixupList.AddFixup(fixup);
					всё;
					fixup := next;
				кц;
			кон ResolveLocalFixups;

			проц GetRegisterAllocation;
			перем l5pc: размерМЗ;

				проц Use(конст operand: IntermediateCode.Operand);
				нач
					если operand.register > 0 то
						allocation.Use(operand.register,inPC);
					всё;
				кон Use;

				проц RegisterUsage(конст l6instruction: IntermediateCode.Instruction);
				нач
					Use(l6instruction.op1);
					Use(l6instruction.op2);
					Use(l6instruction.op3);
				кон RegisterUsage;

			нач
				allocation.Init;
				нцДля l5pc := 0 до l3in.pc-1 делай
					inPC := l5pc;
					RegisterUsage(l3in.instructions[l5pc]);
				кц;
			кон GetRegisterAllocation;

			проц Optimize;
			тип
				Entry= укль на запись src, dest: размерМЗ; next: Entry кон;
			перем
				l7pc: размерМЗ;
				first: Entry;

				проц AddMap(src, dest: размерМЗ);
				перем entry: Entry;
				нач
					нов(entry); entry.src := src; entry.dest := dest;
					entry.next := first;
					first := entry;
				кон AddMap;

				проц CheckMapped(перем l8instruction: IntermediateCode.Instruction);
				перем op1, op2, op3: IntermediateCode.Operand;

					проц Map(конст op: IntermediateCode.Operand): IntermediateCode.Operand;
					перем entry: Entry; res: IntermediateCode.Operand;
					нач
						res := op;
						entry := first;
						нцПока entry # НУЛЬ делай
							если op.register = entry.src то
								IntermediateCode.SetRegister(res, entry.dest);
							всё;
							entry := entry.next;
						кц;
						возврат res
					кон Map;

				нач
					op1 := Map(l8instruction.op1);
					op2 := Map(l8instruction.op2);
					op3 := Map(l8instruction.op3);
					IntermediateCode.InitInstruction(l8instruction, l8instruction.textPosition, l8instruction.opcode, op1, op2, op3);
				кон CheckMapped;

				проц CheckMov(перем l9instruction: IntermediateCode.Instruction);
				перем srcReg, destReg: размерМЗ;
				нач
					если (l9instruction.opcode = IntermediateCode.mov) и (l9instruction.op1.mode = IntermediateCode.ModeRegister)
						и (l9instruction.op2.mode = IntermediateCode.ModeRegister) и IntermediateCode.TypeEquals(l9instruction.op1.type, l9instruction.op2.type) то
						destReg := l9instruction.op1.register;
						srcReg := l9instruction.op2.register;
						если (destReg >= 0) и (allocation.table[destReg].first = l7pc) и (srcReg >= 0) и (allocation.table[srcReg].last = l7pc)  то
							AddMap(destReg, srcReg);
							allocation.table[srcReg].last := allocation.table[destReg].last;
							IntermediateCode.InitInstruction0(l9instruction, l9instruction.textPosition, IntermediateCode.nop);
						всё;
					всё;
				кон CheckMov;

			нач

				first := НУЛЬ;
				нцДля l7pc := 0 до l3in.pc-1 делай
					если OptimizeRegisterTransfer в optimize то
						CheckMapped(l3in.instructions[l7pc]);
						CheckMov(l3in.instructions[l7pc]);
					всё;
				кц;
			кон Optimize;

			проц DumpInstruction(конст l10instruction: IntermediateCode.Instruction);
				проц Use(конст operand: IntermediateCode.Operand);
				нач
					если FirstUse(operand.register)=inPC то
						dump.пСтроку8(" ; +"); IntermediateCode.DumpRegister(dump,operand.register,operand.registerClass);
					всё;
					если LastUse(operand.register)=inPC то
						dump.пСтроку8(" ; -"); IntermediateCode.DumpRegister(dump,operand.register, operand.registerClass);
					всё;
				кон Use;
			нач
				dump.пЦел64(pc, 1); dump.пСтроку8(": "); IntermediateCode.DumpInstruction(dump, l10instruction);
				Use(l10instruction.op1);
				Use(l10instruction.op2);
				Use(l10instruction.op3);
			кон DumpInstruction;

			проц Emulate(перем x: IntermediateCode.Instruction; конст l11moduleName,l12procedureName: SyntaxTree.СтрокаИдентификатора);
			перем
				parSize: размерМЗ; sectionName: Basic.SegmentedName; op: IntermediateCode.Operand;
				symbol: SyntaxTree.ОбъявлениеИменованнойСущности; fp: Basic.Fingerprint;
				hasDestination: булево;

				проц Emit(l13instruction: IntermediateCode.Instruction; конст str: массив из симв8);
				нач
					если dump # НУЛЬ то
						dump.пЦел64(pc, 1); dump.пСтроку8(" (emulation ");dump.пСтроку8(str); dump.пСтроку8(") : "); IntermediateCode.DumpInstruction(dump, l13instruction); dump.пВК_ПС;
					всё;
					Generate(l13instruction);
				кон Emit;

				проц SaveRegisters;
				перем l14op: IntermediateCode.Operand; entry: RegisterEntry;
				нач
					entry := liveRegisters.first;
					нцПока  entry # НУЛЬ делай
						если (FirstUse(entry.register) # pc) и (entry.register # x.op1.register) то
							IntermediateCode.InitRegister(l14op, entry.type,entry.registerClass, entry.register);
							Emit(IntermediateBackend.Push(x.textPosition,l14op),"save");
						всё;
						entry := entry.next;
					кц;
				кон SaveRegisters;

				проц RestoreRegisters;
				перем l15op: IntermediateCode.Operand; entry: RegisterEntry;
				нач
					entry := liveRegisters.last;
					нцПока  entry # НУЛЬ делай
						если (FirstUse(entry.register) # pc)  и (entry.register # x.op1.register)  то
							IntermediateCode.InitRegister(l15op, entry.type,entry.registerClass, entry.register);
							Emit(IntermediateBackend.Pop(x.textPosition,l15op),"restore");
						всё;
						entry := entry.prev;
					кц;
				кон RestoreRegisters;

			нач
				inEmulation := истина;
				hasDestination := (IntermediateCode.Op1IsDestination в IntermediateCode.instructionFormat[x.opcode].flags);
				утв(x.op1.mode # IntermediateCode.Undefined);

				(*	add import to import list -- raw insert, no check.
					checks will be performed by loader or linker -- we assume that a low-level runtime system programmer knows what he is doing
				*)
				SaveRegisters;
				если ~module.imports.ContainsName(l11moduleName) то module.imports.AddName(l11moduleName) всё;
				parSize := 0;
				если (x.op1.mode # IntermediateCode.Undefined) и ~hasDestination то
					Emit(IntermediateBackend.Push(x.textPosition,x.op1),"par");
					увел(parSize, x.op1.type.sizeInBits);
					Basic.Align(parSize, module.system.addressSize);
				всё;
				если x.op2.mode # IntermediateCode.Undefined то
					Emit(IntermediateBackend.Push(x.textPosition,x.op2),"par");
					увел(parSize, x.op2.type.sizeInBits);
					Basic.Align(parSize, module.system.addressSize);
				всё;
				если x.op3.mode # IntermediateCode.Undefined то
					Emit(IntermediateBackend.Push(x.textPosition,x.op3),"par");
					увел(parSize, x.op3.type.sizeInBits);
					Basic.Align(parSize, module.system.addressSize);
				всё;
				Basic.InitSegmentedName(sectionName);
				Basic.SuffixSegmentedName(sectionName, StringPool.GetIndex1(l11moduleName));
				Basic.SuffixSegmentedName(sectionName, StringPool.GetIndex1(l12procedureName));
				если module.module # НУЛЬ то
					symbol := IntermediateBackend.GetSymbol(module.module.внутренняяОбластьВидимостиМодуля, l11moduleName, l12procedureName);
				иначе
					symbol := НУЛЬ
				всё;
				если symbol # НУЛЬ то fp := symbol.контрольнаяСумма.Мелкая иначе fp := 0 всё;
				IntermediateCode.InitAddress(op, IntermediateCode.GetType(module.system,module.system.addressType), sectionName , fp, 0);
				Emit(IntermediateBackend.Call(x.textPosition,op,IntermediateBackend.ToMemoryUnits(module.system,parSize)),"");
				если hasDestination то
					Emit(IntermediateBackend.Result(x.textPosition,x.op1),"");
				всё;
				RestoreRegisters;
				inEmulation := ложь;
			кон Emulate;

			проц SetLiveness(конст x: IntermediateCode.Instruction);
			(* currently only used to save registers in instruction emulation *)
				проц CheckOperand(конст operand: IntermediateCode.Operand);
				нач
					если (operand.register >= 0) то
						если FirstUse(operand.register) = pc то
							liveRegisters.AddRegisterEntry(operand.register, operand.registerClass, operand.type);
						всё;
						если LastUse(operand.register) = pc то
							liveRegisters.RemoveRegisterEntry(operand.register);
						всё;
					всё;
				кон CheckOperand;

			нач
				CheckOperand(x.op1);
				если (x.op2.register # x.op1.register) то
					CheckOperand(x.op2);
				всё;
				если (x.op3.register # x.op1.register) и (x.op3.register # x.op2.register) то
					CheckOperand(x.op3);
				всё;
			кон SetLiveness;

		нач
			inEmulation := ложь;
			Basic.SegmentedNameToString(l3in.name, name);
			сам.in := l3in; сам.out := l4out;
			dump := l4out.comments;

			GetRegisterAllocation;
			если optimize # {} то Optimize всё;
			Prepare;

			нцДля pc := 0 до l3in.pc-1 делай
				inPC := pc; outPC := l4out.pc;
				l3in.SetPC(pc, outPC);
				если pc = l3in.finally то l4out.SetFinally(l4out.pc) всё;
				instruction := l3in.instructions[pc];
				SetLiveness(instruction);
				если dump # НУЛЬ то DumpInstruction(instruction); dump.пВК_ПС всё;
				просей instruction.opcode из
					IntermediateCode.data: EmitData(instruction);
					|IntermediateCode.reserve: EmitReserve(instruction);
					|IntermediateCode.label: EmitLabel(instruction);
				иначе
					если Supported(instruction, moduleName, procedureName) то
						Generate(instruction);
						PostGenerate(instruction);
					иначе
						Emulate(instruction, moduleName, procedureName);
						PostGenerate(instruction);
					всё
				всё;
			кц;

			(*CheckRegistersFree();*)
			ResolveLocalFixups;
		кон Section;

		проц FirstUse*(virtualRegister: размерМЗ): размерМЗ;
		нач
			если (virtualRegister > 0)  то возврат allocation.table[virtualRegister].first иначе возврат None всё;
		кон FirstUse;

		проц LastUse*(virtualRegister: размерМЗ): размерМЗ;
		нач
			если (virtualRegister > 0)  то возврат allocation.table[virtualRegister].last иначе возврат None всё;
		кон LastUse;

		(*-------------------  procedures that must be overwritten by implementers  ----------------------*)

		(* supported instruction - provision for instruction emulation *)
		проц Supported*(конст instr: IntermediateCode.Instruction; перем moduleName,procedureName: массив из симв8): булево;
		нач
			moduleName := ""; procedureName := "";
			возврат истина
		кон Supported;

		(* generate procedure - is called for any instruction that cannot be output directly by the generic code generator *)
		проц Generate*(перем instr: IntermediateCode.Instruction);
		нач (*HALT(100); *) (* abstract *)
		кон Generate;

		проц PostGenerate*(конст instr: IntermediateCode.Instruction);
		нач
		кон PostGenerate;

		(* ---------------------- generically available code emission ------------------------- *)

		проц GetDataSection*(): IntermediateCode.Section;
		перем name: Basic.SegmentedName; section: IntermediateCode.Section;
		нач
			Global.GetModuleSegmentedName(module.module, name);
			Basic.SuffixSegmentedName(name,Basic.MakeString("@Immediates"));
			section := IntermediateCode.NewSection(module.allSections, Sections.ConstSection, name,НУЛЬ,истина);
			возврат section
		кон GetDataSection;

		проц EmitData(конст instruction: IntermediateCode.Instruction);
			перем type: IntermediateCode.Type; fixup: BinaryCode.Fixup; pc: размерМЗ;fixupFormat: BinaryCode.FixupPatterns;
		нач
			type := instruction.op1.type;
			pc := out.pc;
			если type.form в IntermediateCode.Integer то
				out.PutBytes(instruction.op1.intValue,устарПреобразуйКБолееУзкомуЦел(type.sizeInBits DIV 8));
			иначе
				если type.sizeInBits = IntermediateCode.Bits32 то
					out.PutReal(устарПреобразуйКБолееУзкомуЦел(instruction.op1.floatValue));
				аесли type.sizeInBits = IntermediateCode.Bits64 то
					out.PutLongreal(instruction.op1.floatValue);
				иначе Assert(ложь,"no floats other than 32 or 64 bit")
				всё;
			всё;
			если instruction.op1.symbol.name # "" то
				нов(fixupFormat,1);
				fixupFormat[0].offset := 0;
				fixupFormat[0].bits := type.sizeInBits;
				fixup := BinaryCode.NewFixup(BinaryCode.Absolute,pc,instruction.op1.symbol,instruction.op1.symbolOffset,instruction.op1.offset,0,fixupFormat);
				out.fixupList.AddFixup(fixup);
			всё;
		кон EmitData;

		проц EmitReserve(конст instruction: IntermediateCode.Instruction);
		перем sizeInUnits,i: цел32;
		нач
			sizeInUnits := устарПреобразуйКБолееУзкомуЦел(instruction.op1.intValue);
			утв(sizeInUnits >= 0); (* size is initialized to MIN(SIZE), this checks if size field has been visited *)
			нцДля i := 0 до sizeInUnits-1 делай
				out.PutBits(0,out.os.unit);
			кц;
		кон EmitReserve;

		проц EmitLabel(конст instruction: IntermediateCode.Instruction);
		нач
			out.AddLabel(instruction.textPosition);
		кон EmitLabel;

		проц Prepare*;
		нач

		кон Prepare;

	кон GenericCodeGenerator;

	(* ----------------------- ticket based register allocation ------------------------------------- *)

		(* register mapping scheme
			virtual register number	--> register mapping   =		part(0)		-->	ticket	<-->	physical register
																											spill offset

																	part(n)		-->	ticket	<-->	physical register
																											spill offset
		*)

	Ticket*=укль на запись
		next-: Ticket;
		type-: IntermediateCode.Type;
		class-: IntermediateCode.RegisterClass;
		lastuse-: размерМЗ;
		spilled*, spillable*: булево;
		register*, offset*: цел32;
		parts-: размерМЗ;
	кон;

	Tickets*=окласс
	перем
		live-: Ticket;
		free: Ticket	;

		проц &Init*;
		нач
			live := НУЛЬ; free := НУЛЬ
		кон Init;

		(* enter a new ticket into the list of live tickets, sorted by lastuse *)
		проц Enter*(конст class: IntermediateCode.RegisterClass; конст type: IntermediateCode.Type; register: цел32; spillable, spilled: булево; offset: цел32; lastuse: размерМЗ): Ticket;
		перем ticket,link: Ticket;
		нач
			утв(~spilled и (register # None) или spilled и (offset # None));
			утв(spillable или ~spilled);
			если free # НУЛЬ то ticket := free; free := free.next; ticket.next := НУЛЬ;
			иначе нов(ticket)
			всё;
			ticket.type := type;	ticket.class := class; ticket.register := register; ticket.spillable := spillable; ticket.spilled := spilled;	ticket.offset := offset; ticket.lastuse := lastuse; ticket.parts := 0;
			если (live = НУЛЬ) или (live.lastuse > ticket.lastuse) то
				ticket.next := live; live := ticket
			иначе
				link := live;
				нцПока (link.next # НУЛЬ) и (link.next.lastuse < ticket.lastuse) делай
					утв((link.register # ticket.register) или ticket.spilled);
					link := link.next;
				кц;
				если (link.register=ticket.register) и (~ticket.spilled и ~link.spilled) то Dump(D.Log); D.Update; всё;
				утв((link.register # ticket.register) или ticket.spilled или link.spilled);
				ticket.next := link.next; link.next := ticket;
			всё;
			возврат ticket
		кон Enter;

		(* remove ticket from live list *)
		проц Remove*(ticket: Ticket);
		перем link: Ticket;
		нач
			если live=ticket то
				live := live.next;
			иначе
				link := live;
				нцПока (link.next # НУЛЬ) и (link.next # ticket) делай
					link := link.next
				кц;
				утв(link.next=ticket);
				link.next := ticket.next;
			всё;
			ticket.next := free; free := ticket
		кон Remove;

		проц Dump*(w: Потоки.Писарь);
		перем ticket: Ticket;
		нач
			w.пСтроку8("---- tickets.live ----- "); w.пВК_ПС;
			ticket := live;
			нцПока ticket # НУЛЬ делай
				DumpTicket(w,ticket);
				w.пВК_ПС;
				ticket := ticket.next;
			кц;
		кон Dump;

	кон Tickets;

	VirtualRegisterMappings=укль на массив из Ticket;

	VirtualRegisters*=окласс
	перем
		tickets: VirtualRegisterMappings;
		parts: размерМЗ;

		firstMapped-, lastMapped-: размерМЗ;

		проц &Init*(l16parts: размерМЗ);
		перем i: размерМЗ;
		нач
			сам.parts := l16parts;
			если tickets = НУЛЬ то нов(tickets,64*l16parts) всё;
			нцДля i := 0 до длинаМассива(tickets)-1 делай
				tickets[i]:=НУЛЬ;
			кц;
			firstMapped := матМаксимум(размерМЗ); lastMapped := -1;
		кон Init;

		проц Grow;
		перем new: VirtualRegisterMappings; i: размерМЗ;
		нач
			нов(new,длинаМассива(tickets)*2);
			нцДля i := 0 до длинаМассива(tickets)-1 делай
				new[i] := tickets[i];
			кц;
			нцДля i := длинаМассива(tickets) до длинаМассива(new)-1 делай
				new[i]:=НУЛЬ;
			кц;
			tickets := new;
		кон Grow;

		проц Mapped*(register: размерМЗ; part: размерМЗ): Ticket;
		нач
			утв((part >=0) и (part < parts));
			если (register > 0 ) и (register*parts < длинаМассива(tickets)) то возврат tickets[register * parts + part] иначе возврат НУЛЬ всё;
		кон Mapped;

		проц SetMapped*(register: размерМЗ; part: размерМЗ; ticket: Ticket);
		нач
			если lastMapped < register то lastMapped := register всё;
			если firstMapped > register то firstMapped := register всё;

			утв((part >=0) и (part < parts));
			нцПока (register*parts >= длинаМассива(tickets)) делай Grow кц;
			tickets[register*parts+part] := ticket;
			увел(ticket.parts);
		кон SetMapped;

		проц Unmap*(register: размерМЗ);
		перем i: размерМЗ;
		нач
			если (register > 0) и (register*parts < длинаМассива(tickets)) то
				нцДля i := 0 до parts-1 делай
					tickets[register*parts+i] := НУЛЬ;
				кц;
				если firstMapped = register то
					нцПока (firstMapped * parts < длинаМассива(tickets)) и (firstMapped <= lastMapped) и (Mapped(firstMapped,0)=НУЛЬ) делай
						увел(firstMapped);
					кц;
				всё;
				если lastMapped = register то
					нцПока (lastMapped >= 0) и (lastMapped >= firstMapped) и (Mapped(lastMapped,0) = НУЛЬ) делай
						умень(lastMapped)
					кц;
				всё;
				если lastMapped < firstMapped то firstMapped := матМаксимум(цел32); lastMapped := -1 всё;
			всё;
		кон Unmap;

		проц Parts*(): размерМЗ;
		нач возврат parts
		кон Parts;

		проц Dump*(w: Потоки.Писарь);
		перем register,part: размерМЗ; ticket: Ticket;
		нач
			w.пСтроку8("---- virtual register mapping ----- "); w.пВК_ПС;
			register := 0;
			нцПока register*parts < длинаМассива(tickets) делай
				нцДля part := 0 до parts-1 делай
					ticket := tickets[register*parts+part];
					если ticket # НУЛЬ то
						w.пСтроку8("register.part "); w.пЦел64(register,1); w.пСтроку8("."); w.пЦел64(part,1); w.пСтроку8(": ");
						DumpTicket(w,ticket); w.пВК_ПС;
					всё;
				кц;
				увел(register);
			кц;
		кон Dump;

	кон VirtualRegisters;

	PhysicalRegisters*=окласс
	перем
		проц &InitPhysicalRegisters;
		кон InitPhysicalRegisters;

		проц Allocate*(index: цел32; virtualRegister: Ticket);
		кон Allocate;

		проц Mapped*(physical: цел32): Ticket;
		кон Mapped;

		проц Free*(index: цел32);
		кон Free;

		проц NextFree*(конст type: IntermediateCode.Type): цел32;
		кон NextFree;

		(* give a hint for the next register to return by NextFree *)
		проц AllocationHint*(index: цел32);
		кон AllocationHint;

		проц SetReserved*(index: цел32; res: булево);
		нач
		кон SetReserved;

		проц Reserved*(index: цел32): булево;
		нач
		кон Reserved;

		проц Dump*(w: Потоки.Писарь);
		нач
		кон Dump;

		проц NumberRegisters*(): цел32;
		нач
		кон NumberRegisters;

	кон PhysicalRegisters;

	конст MaxSpilledRegisters=64;

	тип
	SpillStack*=окласс
	перем
		spillStack: массив MaxSpilledRegisters из Ticket; (* registers of spill stack position to virtual register, none if unused *)
		spillStackSize,maxSpillStackSize: цел32;

		проц &Init*;
		перем i: цел32;
		нач
			spillStackSize := 0; maxSpillStackSize := 0;
			нцДля i := 0 до длинаМассива(spillStack)-1 делай
				spillStack[i] := НУЛЬ;
			кц;
		кон Init;

		(* return next free spill offset in stack *)
		проц NextFree*(): цел32;
		перем i: цел32; index: Ticket;
		нач
			i := 0;
			index := spillStack[i];
			нцПока (index # НУЛЬ) делай
				увел(i); index := spillStack[i];
			кц;
			возврат i
		кон NextFree;

		проц Allocate*(offset: цел32; ticket: Ticket);
		нач
			spillStack[ticket.offset] := ticket;
			если spillStackSize <= ticket.offset то spillStackSize := ticket.offset+1 всё;
			если maxSpillStackSize < spillStackSize то maxSpillStackSize := spillStackSize всё;
		кон Allocate;

		проц Free*(offset: цел32);
		нач
			spillStack[offset] := НУЛЬ;
			если offset+1 = spillStackSize то (* rewind spillstack *)
				нцПока (offset >= 0) и (spillStack[offset]= НУЛЬ) делай
					умень(offset);
				кц;
				spillStackSize := offset+1;
			всё;
		кон Free;

		проц Size*(): цел32;
		нач возврат spillStackSize
		кон Size;

		проц MaxSize*(): цел32;
		нач возврат maxSpillStackSize
		кон MaxSize;

		проц Dump*(w: Потоки.Писарь);
		перем i: цел32;
		нач
			w.пСтроку8("---- spillstack -----");w.пВК_ПС;
			w.пСтроку8("spillStackSize = "); w.пЦел64(spillStackSize,1); w.пВК_ПС;
			w.пСтроку8("maxSpillStackSze = "); w.пЦел64(maxSpillStackSize,1); w.пВК_ПС;
			нцДля i := 0 до spillStackSize-1 делай
				если spillStack[i]# НУЛЬ то DumpTicket(w,spillStack[i]);всё
			кц;
		кон Dump;

	кон SpillStack;

	GeneratorWithTickets*= окласс (GenericCodeGenerator)
	перем
		physicalRegisters-: PhysicalRegisters; (* physical registers <-> tickets *)
		virtualRegisters-: VirtualRegisters; (* virtual registers --> tickets *)
		tickets-: Tickets;  (* tickets <-> physical registers *)
		spillStack-: SpillStack; (* spill stack offset <-> ticket *)

		(* generic *)
		проц & InitTicketGenerator*(l17diagnostics: Diagnostics.Diagnostics; l18optimize: булево; numberRegisterParts: цел32; l19physicalRegisters: PhysicalRegisters);
		нач
			InitGenerator(l17diagnostics, l18optimize);
			нов(tickets);
			нов(virtualRegisters,numberRegisterParts);
			нов(spillStack);
			сам.physicalRegisters := l19physicalRegisters;
		кон InitTicketGenerator;

		проц {перекрыта}Section*(l20in: IntermediateCode.Section; l21out: BinaryCode.Section);
		нач
			virtualRegisters.Init(virtualRegisters.parts);
			Section^(l20in,l21out);
		кон Section;

		(*-------------------  procedures that must be overwritten by implementers  ----------------------*)

		(* input: type (such as that of an intermediate operand), output: type part *)
		проц GetPartType*(конст type: IntermediateCode.Type; part: цел32; перем typePart: IntermediateCode.Type);
		нач СТОП(100); (* abstract *)
		кон GetPartType;

		проц ToSpillStack*(ticket: Ticket);
		нач СТОП(100) (* abstract *)
		кон ToSpillStack;

		проц AllocateSpillStack*(size: цел32);
		нач СТОП(100) (* abstract *)
		кон AllocateSpillStack;

		проц ToRegister*(ticket: Ticket);
		нач СТОП(100) (* abstract *)
		кон ToRegister;

		проц ExchangeTickets*(ticket1,ticket2: Ticket);
		нач СТОП(100) (* abstract *)
		кон ExchangeTickets;

		(*---------------------------- ticket handling and register allocation ----------------------------*)

		(* Spill register of a ticket, if any *)
		проц Spill*(ticket: Ticket);
		перем register,offset,size: цел32;
		нач
			если (ticket = НУЛЬ) или ~ticket.spillable или ticket.spilled то возврат всё;
			register := ticket.register;
			offset := spillStack.NextFree();
			ticket.offset := offset;
			size := spillStack.Size();
			если dump# НУЛЬ то dump.пСтроку8("spillstack allocate (1) "); dump.пЦел64(offset,1); dump.пВК_ПС; всё;
			spillStack.Allocate(offset,ticket);
			size := spillStack.Size()-size;
			утв(size>=0);
			если size>0 то AllocateSpillStack(size) всё;

			ToSpillStack(ticket);
			ticket.offset := offset;
			physicalRegisters.Free(register);
			ticket.spilled := истина;
		кон Spill;

		(* Make sure a ticket reprents a physical register *)
		проц UnSpill*(ticket: Ticket);
		перем mapped:Ticket; register: цел32;

			проц ExchangeSpill(ticket1, ticket2: Ticket): булево;
			нач
				если ticket1.spilled то утв(~ticket2.spilled); возврат ExchangeSpill(ticket2,ticket1) всё;
				если (ticket1.type.sizeInBits # ticket2.type.sizeInBits)
					или ~(ticket1.type.form в IntermediateCode.Integer) или ~(ticket2.type.form в IntermediateCode.Integer)
					или ticket1.spilled то
					возврат ложь
				всё;

				утв(~ticket1.spilled); утв(ticket1.register # None);
				утв(ticket2.spilled); утв((ticket2.register = ticket1.register) или (ticket2.register = None));

				ExchangeTickets(ticket1,ticket2);

				physicalRegisters.Free(ticket1.register);
				spillStack.Free(ticket2.offset);
				ticket2.register := ticket1.register;
				ticket1.offset := ticket2.offset;
				ticket1.spilled := истина;
				ticket2.spilled := ложь;
				physicalRegisters.Allocate(ticket2.register,ticket2);
				если dump# НУЛЬ то dump.пСтроку8("spillstack allocate (2) "); dump.пЦел64(ticket1.offset,1); dump.пВК_ПС; всё;
				spillStack.Allocate(ticket1.offset,ticket1);
				возврат истина
			кон ExchangeSpill;

			проц SpillToRegister(l22ticket: Ticket; l23register: цел32);
			перем size: цел32;
			нач
				утв(~physicalRegisters.Reserved(l22ticket.register) или (l23register = l22ticket.register));
				l22ticket.register := l23register;
				если dump # НУЛЬ то
					dump.пСтроку8(" allocate register : index="); dump.пЦел64(l22ticket.register,1); dump.пВК_ПС;
				всё;
				ToRegister(l22ticket);
				size := spillStack.Size();
				spillStack.Free(l22ticket.offset);
				l22ticket.spilled := ложь;
				l22ticket.offset := 0;
				physicalRegisters.Allocate(l23register,l22ticket);
				size := spillStack.Size()-size;
				утв(size<=0);
				если size<0 то AllocateSpillStack(size) всё;
			кон SpillToRegister;

		нач
			если (ticket = НУЛЬ) или ~ticket.spilled то возврат всё;

			register := ticket.register;
			если register = None то
				register := physicalRegisters.NextFree(ticket.type);
				если register # None то (* free register found rightaway*)
					SpillToRegister(ticket, register)
				иначе
					mapped := GetPreferredSpill(ticket.type);
					если ~ExchangeSpill(mapped, ticket) то
						register := ForceFreeRegister(ticket.type);
						SpillToRegister(ticket, register);
					всё;
				всё;
			иначе
				mapped := physicalRegisters.Mapped(register);
				если mapped = НУЛЬ то
					SpillToRegister(ticket, register)
				аесли ~ExchangeSpill(mapped, ticket) то
					нцПока mapped # НУЛЬ делай
						Spill(mapped);
						mapped := physicalRegisters.Mapped(ticket.register);
					кц;
					SpillToRegister(ticket, register)
				всё;
			всё;
		кон UnSpill;

		проц GetPreferredSpill*(конст type: IntermediateCode.Type): Ticket;
		перем ticket,spill: Ticket;
			проц Spillable(l24ticket: Ticket; best:булево): булево;
			нач
				возврат
					~l24ticket.spilled и l24ticket.spillable и (l24ticket.register # None)
					и ((l24ticket.type.form = IntermediateCode.Float) = (type.form = IntermediateCode.Float)) (* don't spill float when int is needed *)
					и (~best или (l24ticket.type.sizeInBits = type.sizeInBits))
					и (~physicalRegisters.Reserved(l24ticket.register))
					(*! check that register is not in use in current instruction*)
			кон Spillable;
		нач
			ticket := tickets.live;
			нцПока ticket # НУЛЬ делай
				если Spillable(ticket,истина) то spill := ticket всё;
				ticket := ticket.next
			кц;
			если ticket = НУЛЬ то
				ticket := tickets.live;
				нцПока ticket # НУЛЬ делай
					если Spillable(ticket,ложь) то spill := ticket всё;
					ticket := ticket.next
				кц;
			всё;
			утв(spill # НУЛЬ);
			возврат spill
		кон GetPreferredSpill;

		проц ForceFreeRegister*(конст type:IntermediateCode.Type): цел32;
		перем tempReg: цел32; ticket: Ticket;
		нач
			tempReg := physicalRegisters.NextFree(type);
			нцПока tempReg = None делай
				ticket := GetPreferredSpill(type);
				Spill(ticket);
				tempReg := physicalRegisters.NextFree(type);
			кц;
			возврат tempReg
		кон ForceFreeRegister;

		проц ReservePhysicalRegister*(конст class: IntermediateCode.RegisterClass; конст type: IntermediateCode.Type; register: цел32; lastUse: размерМЗ): Ticket;
		перем ticket: Ticket;
		нач
			ticket := tickets.Enter(class, type,register,истина, ложь,None,lastUse);
			если dump # НУЛЬ то
				dump.пСтроку8(" allocate register : index="); dump.пЦел64(register,1); dump.пВК_ПС;
			всё;
			physicalRegisters.Allocate(register, ticket);
			возврат ticket
		кон ReservePhysicalRegister;

		проц TemporaryTicket*(конст class: IntermediateCode.RegisterClass; конст type: IntermediateCode.Type): Ticket;
		перем register: цел32; ticket: Ticket;
		нач
			если type.form > IntermediateCode.Undefined то
				register := ForceFreeRegister(type);
				ticket := ReservePhysicalRegister(class,type,register,inPC);
				ticket.parts := 1;
			иначе
				ticket := НУЛЬ
			всё;
			возврат ticket
		кон TemporaryTicket;

		(*-------------------  register mapping  ----------------------*)

		проц MapVirtualRegister*(virtualRegister: размерМЗ; class: IntermediateCode.RegisterClass; type: IntermediateCode.Type; part: цел32);
		перем partType: IntermediateCode.Type; lastuse:размерМЗ;

			проц MapTicket(конст l25type: IntermediateCode.Type; l26lastuse:размерМЗ);
			перем index,offset,size: цел32; ticket: Ticket;
			нач
				index := physicalRegisters.NextFree(l25type);
				если index # None то
					ticket := tickets.Enter(class,l25type,index,истина, ложь,0,l26lastuse);
					если dump # НУЛЬ то
						dump.пСтроку8(" allocate register : index="); dump.пЦел64(index,1); dump.пВК_ПС;
					всё;
					physicalRegisters.Allocate(index,ticket);
					physicalRegisters.SetReserved(index,истина);
				иначе (* spill new ticket rightaway, no phyiscal register assigned yet *)
					offset := spillStack.NextFree();
					ticket := tickets.Enter(class,l25type,index,истина, истина,offset,l26lastuse);
					size := spillStack.Size();
					ticket.offset := offset;
					если dump# НУЛЬ то dump.пСтроку8("spillstack allocate (3) "); dump.пЦел64(offset,1);dump.пВК_ПС; всё;
					spillStack.Allocate(offset,ticket);
					size := spillStack.Size()-size;
					утв(size>=0);
					если size>0 то AllocateSpillStack(size) всё;
				всё;
				virtualRegisters.SetMapped(virtualRegister,part,ticket);
			кон MapTicket;

			проц AllocateThis(index: цел32);
			перем ticket: Ticket;
			нач
				ticket :=  physicalRegisters.Mapped(index);
				если ticket # НУЛЬ то Spill(ticket) всё;
				ticket := tickets.Enter(class, type, index, истина, ложь,0,lastuse);
				если dump # НУЛЬ то
					dump.пСтроку8(" allocate register : index="); dump.пЦел64(index,1); dump.пВК_ПС;
				всё;
				physicalRegisters.Allocate(index,ticket);
				physicalRegisters.SetReserved(index, истина);
				virtualRegisters.SetMapped(virtualRegister,part,ticket);
			кон AllocateThis;

		нач
			если virtualRegisters.Mapped(virtualRegister,part)=НУЛЬ то
				lastuse := LastUse(virtualRegister);
				GetPartType(type,part,partType);
				если partType.form # IntermediateCode.Undefined то
					если class.class = IntermediateCode.Parameter то
						AllocateThis(class.number);
					иначе
						MapTicket(partType,lastuse)
					всё;
				всё;
			всё;
		кон MapVirtualRegister;

		проц ResetTicket(ticket: Ticket);
		нач
			ticket.offset := 0;
			ticket.spilled := ложь;
			ticket.register := None;
			ticket.parts := 0;
		кон ResetTicket;

		проц FreeTicket(ticket: Ticket);
		перем size: цел32;
		нач
			если ticket.spilled то
				если dump # НУЛЬ то
					dump.пСтроку8(" free spilled register : ofs="); dump.пЦел64(ticket.offset,1); dump.пВК_ПС;
				всё;
				size := spillStack.Size();
				spillStack.Free(ticket.offset);
				size := spillStack.Size()-size;
				утв(size<=0);
				если size<0 то AllocateSpillStack(size) всё;
			аесли ticket.register # None то
				если dump # НУЛЬ то
					dump.пСтроку8("free register: index="); dump.пЦел64(ticket.register,1);  dump.пВК_ПС;
				всё;
				physicalRegisters.SetReserved(ticket.register,ложь);
				physicalRegisters.Free(ticket.register);
				утв(~physicalRegisters.Reserved(ticket.register));
			всё;
		кон FreeTicket;

		(* unmap ticket: free  register or spill stack position and remove ticket from list of live tickets *)
		проц UnmapTicket*(ticket: Ticket);
		нач
			если ticket = НУЛЬ то возврат всё;
			FreeTicket(ticket);
			tickets.Remove(ticket);
			ResetTicket(ticket);
		кон UnmapTicket;

		проц TryAllocate*(конст operand: IntermediateCode.Operand; part: цел32);
		нач
			если (FirstUse(operand.register) = inPC) и (virtualRegisters.Mapped(operand.register,part)=НУЛЬ)  то
				если operand.mode = IntermediateCode.ModeMemory то
					MapVirtualRegister(operand.register,operand.registerClass,IntermediateCode.GetType(module.system,module.system.addressType),part);
				иначе
					MapVirtualRegister(operand.register,operand.registerClass, operand.type,part);
				всё;
				утв(virtualRegisters.Mapped(operand.register,part)#НУЛЬ);
			всё;
		кон TryAllocate;

		проц TryUnmap*(конст operand: IntermediateCode.Operand);
		перем ticket: Ticket; part: цел32;
		нач
			если (operand.register >=0) и (LastUse(operand.register) = inPC) то
				part := 0;
				нцПока (part<virtualRegisters.Parts()) делай
					ticket := virtualRegisters.Mapped(operand.register,part);
					если (ticket # НУЛЬ) то
						virtualRegisters.Unmap(operand.register)
					всё;
					увел(part);
				кц;
			всё;
		кон TryUnmap;

		проц ReleaseHint*(register: цел32);
		перем ticket: Ticket;
		нач
			если register >=0 то
				ticket := physicalRegisters.Mapped(register);
				если (ticket # НУЛЬ) и (ticket.lastuse <= inPC) то
					умень(ticket.parts); (* to avoid freeing a register that is used at several parts of an operand *)
					если ticket.parts=0 то
						physicalRegisters.SetReserved(register,ложь);
						UnmapTicket(ticket);
						physicalRegisters.AllocationHint(register);
					всё;
				всё;
			всё;
		кон ReleaseHint;

		(* increase usage counter of register mapped by ticket - allocated or not *)
		проц ReserveTicketRegister*(ticket: Ticket; reserved: булево);
		нач
			если (ticket#НУЛЬ) и (ticket.register # None) то
				physicalRegisters.SetReserved(ticket.register,reserved)
			всё;
		кон ReserveTicketRegister;

		проц ReserveOperandRegisters*(конст operand: IntermediateCode.Operand; reserved: булево);
		перем i: размерМЗ; ticket: Ticket;
		нач
			нцДля i := 0 до virtualRegisters.Parts()-1 делай
				ticket := virtualRegisters.Mapped(operand.register,i);
				если ticket # НУЛЬ то
					ReserveTicketRegister(ticket,reserved);
					если operand.mode = IntermediateCode.ModeMemory то
						ticket.parts := virtualRegisters.Parts()
					иначе
						ticket.parts := 1
					всё;
				всё;
			кц;
		кон ReserveOperandRegisters;

	кон GeneratorWithTickets;

	проц Assert(cond: булево; конст reason: массив из симв8);
	нач утв(cond);
	кон Assert;

	проц DumpTicket*(w: Потоки.Писарь; ticket: Ticket);
	нач
		w.пСтроку8("register "); w.пЦел64(ticket.register,1);
		w.пСтроку8(" with type ");
		IntermediateCode.DumpType(w,ticket.type);
		если ticket.spilled то w.пСтроку8(" spilled at "); w.пЦел64(ticket.offset,1) всё;
		w.пСтроку8(" parts "); w.пЦел64(ticket.parts,1);
		w.пСтроку8(" last use "); w.пЦел64(ticket.lastuse,1);
	кон DumpTicket;

кон FoxCodeGenerators.

