модуль FoxIntermediateLinker;
использует
	Strings, Diagnostics, D := Debugging, SyntaxTree := FoxSyntaxTree, Sections := FoxSections,
	IntermediateCode := FoxIntermediateCode, Basic := FoxBasic, Потоки, Files, Backend := FoxBackend,
	Global := FoxGlobal, Formats := FoxFormats,
	ObjectFile, BinaryCode := FoxBinaryCode, Commands, Options, IRObjectFile := FoxIntermediateObjectFile,
	GenericLinker, StaticLinker := Linker;

конст
	DefaultBackend = "AMD";

тип
	SectionName* = ObjectFile.SectionName; (*ARRAY 256 OF CHAR; (*! move *)*)

	(** the assemblinker **)
	Linker* = окласс
	конст
		Trace = ложь;
		RequireSortedSections = ложь; (* whether the sections in the generated modules are sorted w.r.t. their fixed positions *)
	тип
		ArrangementRestriction = запись
			fixed: булево;
			positionOrAlignment: размерМЗ;
		кон;
	перем
		backend-: Backend.Backend;
		diagnostics: Diagnostics.Diagnostics;
		platformName: SyntaxTree.СтрокаИдентификатора;
		importList, loadedModules: Sections.NameList;
		allSections: Sections.SectionList;
		isSorted, alreadyPrearrangedSinceLastSort: булево;
		originalRestrictions: укль на массив из ArrangementRestriction;
		objectFile-: IRObjectFile.ObjectFileFormat;

		проц & Init*(l0diagnostics: Diagnostics.Diagnostics; defaultBackend: Backend.Backend);
		нач
			если l0diagnostics = НУЛЬ то
				сам.diagnostics := Basic.GetDefaultDiagnostics()
			иначе
				сам.diagnostics := l0diagnostics;
			всё;
			backend := defaultBackend;
			defaultBackend.GetDescription(platformName);

			нов(allSections);
			нов(importList, 128);
			нов(loadedModules, 128);
			нов(objectFile); objectFile.Initialize(l0diagnostics);
			isSorted := ложь
		кон Init;

		проц PatchStackSize*(конст typeName: SectionName; size: размерМЗ);
		перем sectionName: SectionName; section: Sections.Section; pooledName: Basic.SegmentedName; op1, op2, op3: IntermediateCode.Operand; instruction: IntermediateCode.Instruction;
		нач
			трассируй(size);
			копируйСтрокуДо0(typeName, sectionName);
			Strings.Append(sectionName,".@StackAllocation");
			Basic.ToSegmentedName(sectionName, pooledName);
			section := allSections.FindByName(pooledName);
			instruction := section(IntermediateCode.Section).instructions[0];
			op1 := instruction.op1;
			op2 := instruction.op2;
			op3 := instruction.op3;
			IntermediateCode.SetIntValue(op2, size);
			section(IntermediateCode.Section).PatchOperands(0, op1, op2, op3);
		кон PatchStackSize;

		проц EmitAt(section: IntermediateCode.Section; index: размерМЗ; конст instruction: IntermediateCode.Instruction);
		перем reserve: IntermediateCode.Instruction; op: IntermediateCode.Operand;
		нач
			если index = section.pc то
				section.Emit(instruction)
			аесли index < section.pc то
				section.EmitAt(index, instruction)
			иначе
				IntermediateCode.InitImmediate(op, instruction.op1.type, 1);
				IntermediateCode.InitInstruction1(reserve,Basic.invalidPosition, IntermediateCode.reserve, op);
				нцПока (section.pc < index) делай
					section.Emit(reserve);
				кц;
				section.Emit(instruction);
			всё
		кон EmitAt;

		проц PatchIntegerValue*(конст sectionName: массив из симв8; index: размерМЗ; value: цел64; type: SyntaxTree.Выражениеˉтип): булево;
		перем instruction: IntermediateCode.Instruction; section: Sections.Section; op1: IntermediateCode.Operand;
			pooledName: Basic.SegmentedName; itype: IntermediateCode.Type;
		нач
			Basic.ToSegmentedName(sectionName, pooledName);
			section := allSections.FindByName(pooledName);
			если section = НУЛЬ то
				трассируй(sectionName);
				возврат ложь
			всё; (* nothing to patch *)
			itype := IntermediateCode.GetType(backend.system, type);
			IntermediateCode.InitImmediate(op1,itype, value);
			IntermediateCode.InitInstruction1(instruction, Basic.invalidPosition,  IntermediateCode.data, op1);
			EmitAt(section(IntermediateCode.Section),index, instruction);
			возврат истина;
		кон PatchIntegerValue;

		проц PatchBooleanValue*(конст sectionName: массив из симв8;index: размерМЗ; value: булево): булево;
		перем instruction: IntermediateCode.Instruction; section: Sections.Section; op1: IntermediateCode.Operand;
			pooledName: Basic.SegmentedName; type: IntermediateCode.Type;
		нач
			Basic.ToSegmentedName(sectionName, pooledName);
			section := allSections.FindByName(pooledName);
			если section = НУЛЬ то возврат ложь всё; (* nothing to patch *)

			type := IntermediateCode.GetType(backend.system, backend.system.booleanType);

			если value то
				IntermediateCode.InitImmediate(op1, type, 1);
			иначе
				IntermediateCode.InitImmediate(op1, type, 0);
			всё;
			IntermediateCode.InitInstruction1(instruction, Basic.invalidPosition,  IntermediateCode.data, op1);
			EmitAt(section(IntermediateCode.Section), index, instruction);
			возврат истина;
		кон PatchBooleanValue;

		проц PatchStringValue*(конст sectionName: массив из симв8; конст value: массив из симв8): булево;
		перем instruction: IntermediateCode.Instruction; section: Sections.Section; op1: IntermediateCode.Operand;
			pooledName: Basic.SegmentedName; type: IntermediateCode.Type;
			char: симв8; i: размерМЗ;
		нач
			Basic.ToSegmentedName(sectionName, pooledName);
			section := allSections.FindByName(pooledName);
			если section = НУЛЬ то возврат ложь всё; (* nothing to patch *)
			section(IntermediateCode.Section).Reset;
			type := IntermediateCode.GetType(backend.system, backend.system.characterType);
			i := 0;
			нцДо
				char := value[i];
				IntermediateCode.InitImmediate(op1, type, кодСимв8(char));
				IntermediateCode.InitInstruction1(instruction, Basic.invalidPosition,  IntermediateCode.data, op1);
				section(IntermediateCode.Section).Emit(instruction);
				увел(i);
			кцПри char = 0X;
			возврат истина;
		кон PatchStringValue;

		проц LoadModule*(конст moduleFileName: массив из симв8; recursive: булево): булево;
		перем
			filename, moduleName: SyntaxTree.СтрокаИдентификатора;
			msg: массив 128 из симв8;
			i: размерМЗ;
			module: Sections.Module;
			name: SyntaxTree.СтрокаИдентификатора;
		нач
			FileNameToModuleName(moduleFileName, moduleName);
			(* check if the module has already been incorporated *)
			если loadedModules.ContainsName(moduleName) то
				если Trace то D.String(">>> module "); D.String(moduleName); D.String(" has already been loaded"); D.Ln всё;
				возврат истина
			иначе
				если (moduleName=Global.StringSystemModule)  или (moduleName=Global.StringsystemModule) то
					(* nothing to do *)
				иначе
					(* open corresponding intermediate code file *)
					module := objectFile.Import(moduleName, backend.GetSystem());
					если module = НУЛЬ то
						msg := "failed to import IR file ";
						Strings.Append(msg, moduleFileName);
						Basic.Error(diagnostics, filename, Basic.invalidPosition, msg);
						возврат ложь
					иначе
						loadedModules.AddName(moduleName); (* to avoid recursive reloading this must be done before parsing *)
						если recursive то
							нцДля i := 0 до module.imports.Length()-1 делай
								name := module.imports.GetName(i);
								если  ~LoadModule(name, recursive) то
									msg := "failed to import ";
									Strings.Append(msg, name);
									Basic.Error(diagnostics, filename, Basic.invalidPosition, msg);
									возврат ложь
								всё;
							кц;
						всё;
						CopySections(module.allSections, allSections);

						если Trace то
							D.String(">>> IR file successfully parsed: "); D.String(filename); D.Ln;
							DumpSections(D.Log, allSections);
						всё;
						isSorted := ложь; (* sections are not sorted anymore *)

						возврат истина
					всё
				всё;
				возврат истина
			всё
		кон LoadModule;

		проц LinkPrefixed*(конст sectionPrefix: массив из симв8): булево;
		перем segmentedName: Basic.SegmentedName; filename: Files.FileName;
		нач
			SectionNameToFileName(sectionPrefix, filename);
			MarkReachabilityOfAll(ложь);
			если LoadModule(filename, истина) то
				segmentedName := sectionPrefix;
				MarkAsReachableStartingWith(segmentedName, {Sections.InitCodeSection, Sections.EntryCodeSection, Sections.ExitCodeSection, Sections.BodyCodeSection});

				возврат истина;
			иначе
				возврат ложь;
			всё;
		кон LinkPrefixed;

		(** mark a section with a certain name as reachable **)
		проц MarkAsReachableByName*(конст name: массив из симв8);
		перем
			section: Sections.Section;
			pooledName: Basic.SegmentedName;
		нач
			Basic.ToSegmentedName(name, pooledName);
			section:= allSections.FindByName(pooledName);
			утв(section # НУЛЬ);
			MarkAsReachable(section)
		кон MarkAsReachableByName;

		(** mark all sections whose names start with a certain prefix as reachable **)
		проц MarkAsReachableStartingWith*(конст prefix: Basic.SegmentedName; allowedSections: мнвоНаБитахМЗ);
		перем
			section: Sections.Section; name: Basic.SegmentedName;
			i: размерМЗ;
		нач
			(* TODO: could or should one make this faster using a hash table? *)
			(* go through all sections *)
			нцДля i := 0 до allSections.Length() - 1 делай
				section := allSections.GetSection(i);
				если section.type в allowedSections то
					если Basic.IsPrefix(prefix, section.name) то
						name := section.name;
						Basic.RemoveSuffix(name);
						если prefix = name то
							MarkAsReachable(section)
						всё
					всё
				всё;
			кц
		кон MarkAsReachableStartingWith;

	(*
		PROCEDURE ModuleIsReachable(CONST name: Basic.String): BOOLEAN;
		VAR i: SIZE; section: Sections.Section;
		BEGIN
			FOR i := 0 TO allSections.Length()-1 DO
				section := allSections.GetSection(i);
				IF (section.name[0] = name) & section.isReachable THEN
					RETURN TRUE
				END;
			END;
			RETURN FALSE
		END ModuleIsReachable;
		*)

		проц OperandSection(конст operand: IntermediateCode.Operand): Sections.Section;
		перем section: Sections.Section;
		нач
			section := allSections.FindByName(operand.symbol.name);
			если section = НУЛЬ то D.String("not found section: "); Basic.WriteSegmentedName(D.Log, operand.symbol.name); D.Ln всё;
			возврат allSections.FindByName(operand.symbol.name);
		кон OperandSection;

		(** mark a section as reachable and do the same recursively for all referenced sections **)
		проц MarkAsReachable*(section: Sections.Section);
		перем
			intermediateCodeSection: IntermediateCode.Section;
			i: размерМЗ;
			procedureName, moduleName: SyntaxTree.СтрокаИдентификатора;
			prefix: Basic.SegmentedName;
		нач
			если ~section.isReachable то
				если Trace то D.String(">>> MarkAsReachable "); Basic.WriteSegmentedName(D.Log, section.name); D.Ln всё;
				section.SetReachability(истина);
				prefix := section.name; Basic.RemoveSuffix(prefix);
				MarkAsReachableStartingWith(prefix, {Sections.InitCodeSection});
				утв(section суть IntermediateCode.Section);
				intermediateCodeSection := section(IntermediateCode.Section);
				(* go through all instructions in the section *)
				нцДля i := 0 до intermediateCodeSection.pc - 1 делай
					если  ~backend(IntermediateCode.IntermediateBackend).SupportedInstruction(intermediateCodeSection.instructions[i], moduleName, procedureName) то
						Strings.Append(moduleName,".");
						Strings.Append(moduleName, procedureName);
						MarkAsReachableByName(moduleName);
					всё;
					если intermediateCodeSection.instructions[i].op1.symbol.name # "" то MarkAsReachable(OperandSection(intermediateCodeSection.instructions[i].op1)) всё;
					если intermediateCodeSection.instructions[i].op2.symbol.name # "" то MarkAsReachable(OperandSection(intermediateCodeSection.instructions[i].op2)) всё;
					если intermediateCodeSection.instructions[i].op3.symbol.name # "" то MarkAsReachable(OperandSection(intermediateCodeSection.instructions[i].op3)) всё
				кц
			всё
		кон MarkAsReachable;

		(** mark all sections as either reachable or unreachable **)
		проц MarkReachabilityOfAll*(isReachable: булево);
		перем
			section: Sections.Section;
			i: размерМЗ;
		нач
			если Trace то D.String(">>> MarkReachabilityOfAll "); если isReachable то D.String("TRUE") иначе D.String("FALSE") всё; D.Ln всё;
			нцДля i := 0 до allSections.Length() - 1 делай
				section := allSections.GetSection(i);
				section.SetReachability(isReachable)
			кц
		кон MarkReachabilityOfAll;

		(** dump all sections (both reachable and not) **)
		проц DumpSections*(writer: Потоки.Писарь; sections: Sections.SectionList);
		перем
			section: Sections.Section;
			i: размерМЗ;
		нач
			нцДля i := 0 до sections.Length() - 1 делай
				section := sections.GetSection(i);
				если section.isReachable то
					writer.пСтроку8("REACHABLE ")
				иначе
					writer.пСтроку8("unreachable ")
				всё;
				section.Dump(writer)
			кц;
			writer.ПротолкниБуферВПоток
		кон DumpSections;

		(** store the original arrangment restrictions of all sections **)
		проц StoreOriginalRestrictions;
		перем
			section: Sections.Section;
			i: размерМЗ;
		нач
			нов(originalRestrictions, allSections.Length());
			нцДля i := 0 до allSections.Length() - 1 делай
				section := allSections.GetSection(i);
				originalRestrictions[i].fixed := section.fixed;
				originalRestrictions[i].positionOrAlignment := section.positionOrAlignment
			кц
		кон StoreOriginalRestrictions;

		(** restore the original arrangment restrictions of all sections **)
		проц RestoreOriginalRestrictions;
		перем
			section: Sections.Section;
			i: размерМЗ;
		нач
			утв(длинаМассива(originalRestrictions) = allSections.Length());
			нцДля i := 0 до allSections.Length() - 1 делай
				section := allSections.GetSection(i);
				section.SetPositionOrAlignment(originalRestrictions[i].fixed, originalRestrictions[i].positionOrAlignment)
			кц
		кон RestoreOriginalRestrictions;

		проц PrearrangeReachableDataSections*;
		перем
			fixedDataSections, flexibleDataSections: Sections.SectionList;
			section, fixedDataSection, flexibleDataSection: Sections.Section;
			i, fixedDataSectionIndex, nextOccupiedAddress, currentAddress, flexibleDataSectionIndex, startAddress, endAddress: размерМЗ;
			done: булево;
		нач
			(* sort sections if necessary *)
			если ~isSorted то
				если Trace то D.String("++++++++++ before sorting ++++++++++"); DumpSections(D.Log, allSections) всё;
				нцДля i:= 0 до allSections.Length() - 1 делай
					allSections.GetSection(i).SetOffset(i)
				кц;
				allSections.Sort(SectionPositionAndSizeComparison);
				если Trace то D.String("++++++++++ after sorting ++++++++++"); DumpSections(D.Log, allSections) всё;
				isSorted := истина;
				alreadyPrearrangedSinceLastSort := ложь
			всё;
			утв(isSorted);
			если alreadyPrearrangedSinceLastSort то RestoreOriginalRestrictions иначе StoreOriginalRestrictions всё;

			если Trace то D.String("before prearrangement"); D.Ln; DumpSections(D.Log, allSections); D.Ln всё;

			(* create new lists for reachable data sections that are fixed or flexible, respectively *)
			нов(fixedDataSections);
			нов(flexibleDataSections);

			(* go through all reachable data sections, and put them into one of two lists *)
			нцДля i:= 0 до allSections.Length() - 1 делай
				section := allSections.GetSection(i);
				если section.isReachable и ((section.type = Sections.ConstSection) или (section.type = Sections.VarSection)) то
					если section.fixed то
						fixedDataSections.AddSection(section)
					иначе
						flexibleDataSections.AddSection(section)
					всё
				всё
			кц;

			если Trace то
				D.String("++++++++++ reachable fixed data sections ++++++++++"); fixedDataSections.Dump(D.Log); D.Ln;
				D.String("++++++++++ reachable flexible data sections ++++++++++"); flexibleDataSections.Dump(D.Log); D.Ln;
			всё;

			(* arrange the sections (i.e. set the fixed attribute) such that the given fixed-positions and alignments are respected *)
			currentAddress := 0;
			flexibleDataSectionIndex := 0;
			(* go through all fixed data sections of the cell *)
			нцДля fixedDataSectionIndex := 0 до fixedDataSections.Length() делай (* note: the index may be out-of-bounds! *)
				если fixedDataSectionIndex < fixedDataSections.Length() то
					fixedDataSection := fixedDataSections.GetSection(fixedDataSectionIndex);
					утв(fixedDataSection.fixed);
					nextOccupiedAddress := fixedDataSection.positionOrAlignment
				иначе
					(* there is no more fixed data section *)
					nextOccupiedAddress := матМаксимум(размерМЗ)
				всё;

				done := ложь;
				нцПока ~done делай
					если flexibleDataSectionIndex < flexibleDataSections.Length() то
						flexibleDataSection := flexibleDataSections.GetSection(flexibleDataSectionIndex);

						(* determine start-address of the next section (respect alignment) *)
						если flexibleDataSection.IsAligned() и ((currentAddress остОтДеленияНа flexibleDataSection.positionOrAlignment) # 0) то
							startAddress := currentAddress + flexibleDataSection.positionOrAlignment - (currentAddress остОтДеленияНа flexibleDataSection.positionOrAlignment)
						иначе
							startAddress := currentAddress
						всё;

						(* determine end-address fo the next section *)
						endAddress := startAddress + flexibleDataSection.GetSize();

						если endAddress <= nextOccupiedAddress то
							(* there is enough space for the section *)
							flexibleDataSection.SetPositionOrAlignment(истина, startAddress); (* position is set for section *)
							увел(flexibleDataSectionIndex);
							currentAddress := endAddress
						иначе
							(* there is no more space for sections *)
							done := истина
						всё
					иначе
						(* there are no more flexible data sections *)
						done := истина
					всё
				кц;

				если fixedDataSectionIndex < fixedDataSections.Length() то
					утв(fixedDataSection.GetSize() # Sections.UnknownSize);
					currentAddress := fixedDataSection.positionOrAlignment + fixedDataSection.GetSize()
				всё
			кц;

			alreadyPrearrangedSinceLastSort := истина;

			если Trace то D.String("after prearrangement"); D.Ln; DumpSections(D.Log, allSections); D.Ln всё;
		кон PrearrangeReachableDataSections;

		проц PatchValueInSection*(конст sectionName: Basic.SegmentedName; syntaxTreeValue: SyntaxTree.Значение˛известноеВоВремяКомпиляции);
		перем
			section: Sections.Section;
			emptyOperand, dataOperand: IntermediateCode.Operand;
			dataInstruction: IntermediateCode.Instruction;
			hugeintValue: цел64;
		нач
			section := allSections.FindByName(sectionName);
			утв(section # НУЛЬ);

			если syntaxTreeValue суть SyntaxTree.Значение˛известноеВоВремяКомпиляции˛булево то
				(* BOOLEAN *)
				если syntaxTreeValue(SyntaxTree.Значение˛известноеВоВремяКомпиляции˛булево).значение то hugeintValue := 1 иначе hugeintValue := 0 всё
			аесли syntaxTreeValue суть SyntaxTree.Значение˛известноеВоВремяКомпиляции˛целое то
				(* SIGNED16 *)
				hugeintValue := syntaxTreeValue(SyntaxTree.Значение˛известноеВоВремяКомпиляции˛целое).значение;
			иначе
				СТОП(100)
			всё;

			IntermediateCode.InitImmediate(dataOperand, IntermediateCode.GetType(backend.GetSystem(), syntaxTreeValue.типОсмысленный.резОсмысления), hugeintValue);
			IntermediateCode.InitOperand(emptyOperand);
			IntermediateCode.InitInstruction(dataInstruction, Basic.invalidPosition, IntermediateCode.data, dataOperand, emptyOperand, emptyOperand);

			утв(section суть IntermediateCode.Section);
			section(IntermediateCode.Section).EmitAt(0, dataInstruction)
		кон PatchValueInSection;

		(** get all reachable sections in the form of an intermediate code module with a certain name **)
		проц ExtractModuleWithName(конст desiredName: массив из симв8): Sections.Module;
		перем
			result: Sections.Module;
			section: Sections.Section;
			i: размерМЗ;
		нач
			нов(result, НУЛЬ, backend.GetSystem()); (* note: there is no syntax tree *)
			result.SetModuleName(desiredName);
			result.SetPlatformName(platformName);
			result.SetImports(importList);

			(* add all of the reachable sections from the cumulative section list into the resulting module's section list *)
			нцДля i := 0 до allSections.Length() - 1 делай
				section := allSections.GetSection(i);

				(* remove any previously generated code *)
				утв(section суть IntermediateCode.Section);
				section(IntermediateCode.Section).SetResolved(НУЛЬ);

				если section.isReachable то result.allSections.AddSection(section) всё
			кц;

			если RequireSortedSections то result.allSections.Sort(SectionPositionComparison) всё;

			если Trace то D.String("+++++++++ intermediate code module ++++++++++"); D.Ln; result.Dump(D.Log); D.Ln; всё;

			возврат result
		кон ExtractModuleWithName;

		проц SectionPositionComparison(leftObject, rightObject: динамическиТипизированныйУкль): булево;
		перем
			leftSection, rightSection: Sections.Section;
			leftPosition, rightPosition: размерМЗ;
		нач
			утв((leftObject суть Sections.Section) и (rightObject суть Sections.Section));
			leftSection := leftObject(Sections.Section);
			rightSection := rightObject(Sections.Section);

			если leftSection.fixed то
				leftPosition := leftSection.positionOrAlignment
			иначе
				leftPosition := матМаксимум(размерМЗ)
			всё;
			если rightSection.fixed то
				rightPosition := rightSection.positionOrAlignment
			иначе
				rightPosition := матМаксимум(размерМЗ)
			всё;
			если leftSection.IsCode() и rightSection.IsCode() то возврат ложь всё;
			возврат leftPosition < rightPosition
		кон SectionPositionComparison;

		(** whether a section should appear before another one in an assembly (used for sorting)
			- 1st priority: when sections have fixed positions, the ones with smaller addresses come first
			- 2nd priority: smaller sections come first
		**)
		проц SectionPositionAndSizeComparison(leftObject, rightObject: динамическиТипизированныйУкль): булево;
		перем
			leftSection, rightSection: Sections.Section;
			leftPosition, rightPosition, leftSize, rightSize: размерМЗ;
		нач
			утв((leftObject суть Sections.Section) и (rightObject суть Sections.Section));
			leftSection := leftObject(Sections.Section);
			rightSection := rightObject(Sections.Section);

			если leftSection.fixed то
				leftPosition := leftSection.positionOrAlignment
			иначе
				leftPosition := матМаксимум(размерМЗ)
			всё;
			если rightSection.fixed то
				rightPosition := rightSection.positionOrAlignment
			иначе
				rightPosition := матМаксимум(размерМЗ)
			всё;

			если ~leftSection.IsCode() и rightSection.IsCode() то (* data sections first *)
				возврат истина
			аесли leftSection.IsCode() и ~rightSection.IsCode() то (* data sections first *)
				возврат ложь
			аесли leftSection.IsCode() и rightSection.IsCode() то (* code sections: sorted by linking preference, stable w.r.t. loading order *)
				если GetPriority(leftSection) < GetPriority(rightSection) то
					возврат истина
				аесли GetPriority(leftSection) = GetPriority(rightSection) то
					возврат (leftSection.offset < rightSection.offset) (* must keep order as provided by loader *)
				иначе
					возврат ложь
				всё
			аесли leftPosition < rightPosition то (* data sections sorted by position *)
				возврат истина
			аесли leftPosition > rightPosition то (* data sections sorted by position *)
				возврат ложь
			иначе (* data section sorted by size, if no position provided *)
				утв(leftPosition = rightPosition); (* note: this is the case for sections without fixed positions *)
				leftSize := leftSection.GetSize();
				rightSize := rightSection.GetSize();
				если (leftSize = Sections.UnknownSize) или (leftSize = 0) то leftSize := матМаксимум(размерМЗ) всё;
				если (rightSize = Sections.UnknownSize) или (rightSize = 0) то rightSize := матМаксимум(размерМЗ) всё;
				если leftSize = rightSize то
					возврат leftSection.offset < rightSection.offset (* keeping order as provided by loader, cosmetic *)
				иначе
					возврат leftSize < rightSize
				всё
			всё
		кон SectionPositionAndSizeComparison;

		(* set address of sections to a fixed position after compilation *)
		проц FixSections(binaryModule: Sections.Module; перем sizes: массив из BinaryCode.Unit);
		перем adr: BinaryCode.Unit; i: размерМЗ; section: Sections.Section; is: BinaryCode.Section;
		нач
			adr := 0;
			нцДля i := 0 до binaryModule.allSections.Length()-1 делай
				section := binaryModule.allSections.GetSection(i);
				is := section(IntermediateCode.Section).resolved;
				если (is # НУЛЬ) и section.IsCode() то
					(*
					Basic.WriteSegmentedName(D.Log,section.name);
					D.String(" @ "); D.Int(adr,1); D.Ln;
					*)
					backend.CheckCodeAddress(adr);
					is.SetAlignment(истина, adr);
					если is.pc > sizes[i] то sizes[i] := is.pc всё;
					adr := adr + sizes[i];
				всё;
				is.Reset; (* enable recompilation *)
			кц;
		кон FixSections;

		(* check if any of the addresses of sections have changed during last compilation *)
		проц Conflict(binaryModule: Sections.Module; перем sizes: массив из BinaryCode.Unit): булево;
		перем i: размерМЗ; section: Sections.Section;is: BinaryCode.Section;
		нач
			нцДля i := 0 до binaryModule.allSections.Length()-1 делай
				section := binaryModule.allSections.GetSection(i);
				is := section(IntermediateCode.Section).resolved;
				если (is # НУЛЬ) и section.IsCode() то
					если is.pc > sizes[i] то возврат истина
					(*
					not necessary, the linker places correctly.
					ELSIF is.pc < sizes[i] THEN is.SetPC(sizes[i]) (* set section size to maximal observed size *)
					*)
					всё;
				всё;
			кц;
			возврат ложь
		кон Conflict;

		(* generate binary code and write an object file with a desired module name *)
		проц GenerateObjectFile*(objectFileFormat: Formats.ObjectFileFormat; log: Потоки.Писарь; конст desiredName: массив из симв8): булево;
		перем
			count: размерМЗ;
			intermediateCodeModule: Sections.Module;
			binaryModule: Formats.GeneratedModule;
			result: булево;
			sizes: укль на массив из BinaryCode.Unit; i: размерМЗ;
			objectFileExtension: массив 32 из симв8; objectFileName: Files.FileName;
		нач
			intermediateCodeModule := ExtractModuleWithName(desiredName);
			result := истина;

			(* generate binary code *)
			backend.Initialize(diagnostics, log, {}, НУЛЬ, backend.GetSystem());
			binaryModule := backend.ProcessIntermediateCodeModule(intermediateCodeModule); count := 0;

			(* iterative compilation until all sections remain fixed at their position *)
			нов(sizes, binaryModule(Sections.Module).allSections.Length());
			нцДля i := 0 до длинаМассива(sizes)-1 делай sizes[i] := 0 кц;
			нцДо
				увел(count);
				(* fix all section addresses *)
				FixSections(binaryModule(Sections.Module),sizes^);
				(* compile *)
				binaryModule := backend.ProcessIntermediateCodeModule(intermediateCodeModule);
				(* and repeat if any of the section addresses have to be adapted *)
			кцПри ~Conflict(binaryModule(Sections.Module),sizes^) или (count > 10) ;
			утв(count <=10);

			если binaryModule = НУЛЬ то
				Basic.Error(diagnostics, desiredName,Basic.invalidPosition, "the specified backend cannot process intermediate code");
				result := ложь
			аесли backend.error то
				Basic.Error(diagnostics, desiredName, Basic.invalidPosition, "binary code could not be generated (backend error)");
				result := ложь
			иначе
				если Trace то D.String(">>> binary code successfully generated"); D.Ln всё;
				если objectFileFormat = НУЛЬ то
					Basic.Error(diagnostics, desiredName, Basic.invalidPosition, "no object file format specified");
					result := ложь
				иначе
					(* write the generated code into an object file *)
					objectFileFormat.Initialize(diagnostics);
					если objectFileFormat.Export(binaryModule, НУЛЬ) то
						если log # НУЛЬ то
							log.пСтроку8("assembled "); log.пСтроку8(desiredName); log.пСтроку8(" => ");
							objectFileFormat.GetExtension(objectFileExtension);
							Files.JoinExtension(desiredName, objectFileExtension, objectFileName);
							log.пСтроку8(objectFileName); log.пВК_ПС;
						всё;
						если Trace то D.String(">>> object file successfully written"); D.Ln всё;
					иначе
						Basic.Error(diagnostics, desiredName, Basic.invalidPosition, "object file could not be written");
						result := ложь
					всё
				всё
			всё;
			возврат result
		кон GenerateObjectFile;

	кон Linker;

тип
	(*
	CellLinker = OBJECT
	VAR
		backend: Backend.Backend;
		irLinker: Linker;

		outputFormat: Formats.ObjectFileFormat;

		system: Global.System;
		diagnostics: Diagnostics.Diagnostics;
		error: BOOLEAN;

		typeName: SectionName;

		PROCEDURE &Init(b: Backend.Backend; output: Formats.ObjectFileFormat; CONST inExtension: ARRAY OF CHAR; d: Diagnostics.Diagnostics);
		BEGIN
			error := FALSE;
			SELF.backend := b;
			SELF.diagnostics := d;
			IF diagnostics = NIL THEN diagnostics := Basic.GetDefaultDiagnostics() END;
			SELF.outputFormat := output;
			NEW(irLinker, diagnostics, backend, ""); (* TODO: pass an optional path as third parameter *)
			IF (inExtension # "") THEN irLinker.objectFile.SetExtension(inExtension) END;
			IF ~irLinker.LoadModule(backend(IntermediateCode.IntermediateBackend).builtinsModuleName, TRUE) THEN
				error := TRUE;
				Basic.Error(diagnostics, backend(IntermediateCode.IntermediateBackend).builtinsModuleName,Streams.Invalid, "could not load ir file");
			END;
			backend := irLinker.backend;
			system := backend.system;
		END Init;

		PROCEDURE SetInstance*(CONST type: ARRAY OF CHAR): BOOLEAN;
		VAR segmentedName: Basic.SegmentedName; filename: Files.FileName;
		BEGIN
			COPY(type, typeName);
			SectionNameToFileName(type, filename);
			irLinker.MarkReachabilityOfAll(FALSE);
			IF irLinker.LoadModule(filename, TRUE) THEN
				segmentedName := type;
				irLinker.MarkAsReachableStartingWith(segmentedName, {Sections.InitCodeSection, Sections.BodyCodeSection});
				RETURN TRUE;
			ELSE
				RETURN FALSE;
			END;
		END SetInstance;

		PROCEDURE Generate(CONST instanceName: ARRAY OF CHAR): BOOLEAN;
		BEGIN
			irLinker.PrearrangeReachableDataSections;
			IF irLinker.GenerateObjectFile(outputFormat, NIL, instanceName) THEN
				Basic.Information(diagnostics, instanceName, Streams.Invalid, "generated.");
				RETURN TRUE
			ELSE
				RETURN FALSE
			END;
		END Generate;

		(*PROCEDURE LinkInstance(CONST typeName, instanceName: ARRAY OF CHAR): BOOLEAN;
		VAR
			codeFileName, dataFileName: Files.FileName;
			typeName, instanceName, linkRoot: SectionName;
			code, data: Linker.Arrangement; linker: GenericLinker.Linker;
			i: SIZE;
			logFile: Files.File; linkerLog: Files.Writer;
			type: ActiveCells.Type;
			msg: MessageString;
			objectFileExtension: ARRAY 32 OF CHAR;
			instructionMemorySize, dataMemorySize: SIZE;
			parameter: ActiveCells.Parameter;
			value: SyntaxTree.Value;
			pooledName: Basic.SegmentedName;
			device: ActiveCells.Device;
			error : BOOLEAN;
		CONST MinimalStackSize=64;
		BEGIN
			error := FALSE;
			type := instance.instanceType;
			type.GetFullName(typeName,NIL);
			instance.GetFullName(instanceName,NIL);
			IF TraceLinking THEN
				D.String("assembling instance "); D.String(instanceName); D.String(" of type "); D.String(typeName); D.Ln;
			END;
			IF instance.IsEngine() THEN
				IF TraceLinking THEN
					D.String("instance "); D.String(instanceName); D.String(" is engine "); D.Ln;
				END;
				RETURN TRUE;
			END;

			backend.SetCapabilities(instance.capabilities);
			irLinker.MarkReachabilityOfAll(FALSE);
			COPY(typeName, linkRoot);
			Strings.Append(linkRoot,".@BodyStub");
			irLinker.MarkAsReachableByName(linkRoot);
			irLinker.PatchStackSize(typeName, instance.dataMemorySize);

			FOR i := 0 TO instance.parameters.Length()-1 DO
				parameter := instance.parameters.GetParameter(i);
				IF parameter.parameterType = 0 THEN (* Boolean *)
					value := SyntaxTree.NewBooleanValue(-1, parameter.boolean); value.SetType(system.booleanType);
				ELSE
					value := SyntaxTree.NewIntegerValue(-1, parameter.integer); value.SetType(Global.Signed16);
				END;
				Basic.ToSegmentedName(parameter.name, pooledName);
				irLinker.PatchValueInSection(pooledName,value);
			END;

			FOR i := 0 TO type.specification.supportedDevices.Length()-1 DO
				device := type.specification.supportedDevices.GetDevice(i);
				IF instance.instanceType.devices.ByName(device.name) = NIL THEN
					IF irLinker.ModuleIsReachable(Basic.MakeString(device.name)) THEN
						msg := "Missing device capability ";
						Strings.Append(msg, device.name);
						Strings.Append(msg," in cell ");
						instance.AppendToMsg(msg);
						Basic.Error(diagnostics, specification.name,Streams.Invalid, msg);
						error := TRUE;
					END;
				ELSE
					IF ~irLinker.ModuleIsReachable(Basic.MakeString(device.name)) THEN
						msg := "Unused device ";
						Strings.Append(msg, device.name);
						Strings.Append(msg," in cell ");
						instance.AppendToMsg(msg);
						Basic.Warning(diagnostics, specification.name,Streams.Invalid,msg);
					END;
				END;
			END;

			IF error THEN RETURN FALSE END;

			objectFileFormat.GetExtension(objectFileExtension);
			irLinker.PrearrangeReachableDataSections;
			IF ~irLinker.GenerateObjectFile(objectFileFormat, specification.log, instanceName) THEN
				Basic.Error(diagnostics, specification.name,Streams.Invalid, "could not generate object file");
				RETURN FALSE
			END;

			IF TraceLinking THEN
				D.String("assembling instance done. "); D.Ln;
			END;

			NEW (code, 0); NEW (data, 0);
			COPY(instanceName, msg); Strings.Append(msg,".log");	logFile := Files.New(msg);
			IF logFile # NIL THEN NEW(linkerLog,logFile,0) ELSE logFile := NIL END;
			NEW (linker, specification.diagnostics, linkerLog, GenericLinker.UseInitCode, code, data);

			linker.SetLinkRoot("" (* linkRoot *)); (* take all initcode sections *)
			Linker.ReadObjectFile(instanceName, "",objectFileExtension,linker);

			(* do linking after having read in all blocks to account for potential constraints *)
			IF ~linker.error THEN linker.Link; END;

			system := backend.GetSystem();

			instructionMemorySize := instance.instructionMemorySize;
			dataMemorySize := instance.dataMemorySize;

			IF instructionMemorySize = 0 THEN
				instructionMemorySize := type.instructionMemorySize
			END;
			IF dataMemorySize = 0 THEN
				dataMemorySize := type.dataMemorySize
			END;

			IF (instructionMemorySize > 0) & (instructionMemorySize < code.SizeInBits() DIV system.codeUnit) THEN
				Basic.Error(diagnostics, instanceName,Streams.Invalid, "specified instruction memory size too small");
				error := TRUE;
			ELSIF instructionMemorySize = 0 THEN
				instructionMemorySize := code.SizeInBits() DIV system.codeUnit;
			END;

			dataMemorySize := MAX(data.SizeInBits() DIV system.dataUnit, dataMemorySize);
			instance.SetInstructionMemorySize(instructionMemorySize);
			instance.SetDataMemorySize(dataMemorySize);

			IF (dataMemorySize - data.SizeInBits() DIV system.dataUnit) < MinimalStackSize THEN
				Basic.Error(diagnostics, specification.name,Streams.Invalid, "specified data memory size too small");
				error := TRUE;
			END;

			Files.JoinExtension(instanceName,ActiveCells.CodeFileExtension,codeFileName);
			Files.JoinExtension(instanceName,ActiveCells.DataFileExtension,dataFileName);

			IF ~linker.error THEN
				Linker.WriteOutputFile (code, codeFileName, linker, Linker.WriteTRMCodeFile);
				Linker.WriteOutputFile (data, dataFileName, linker, Linker.WriteTRMDataFile);
				IF linkerLog # NIL THEN linkerLog.Update; Files.Register(logFile) END;
				IF specification.log # NIL THEN
					specification.log.String(instanceName);
					specification.log.String(" linked. IM = ");specification.log.Int(instructionMemorySize,1);
					specification.log.String(" (used: "); specification.log.Int(code.SizeInBits() DIV system.codeUnit,1);
					specification.log.String("), DM = "); specification.log.Int(dataMemorySize,1);
					specification.log.String(" (used: "); specification.log.Int(data.SizeInBits() DIV system.dataUnit,1);
					specification.log.String(")");
					specification.log.Ln; specification.log.Update;

					specification.log.String("generated code file: ");specification.log.String(codeFileName); specification.log.Ln;
					specification.log.String("generated data file: ");specification.log.String(dataFileName); specification.log.Ln;

				END;
			ELSE
				msg := "could not link ";
				Strings.Append(msg,linkRoot);
				Basic.Error(diagnostics, "",Streams.Invalid, msg);
			END;
			RETURN ~linker.error & ~error
		END LinkInstance;
		*)

	END CellLinker;
	*)

	(*
	SpecificationLinker=OBJECT (Backend.Backend)
	VAR objectFileFormat: Formats.ObjectFileFormat;

		PROCEDURE &Init;
		BEGIN
			InitBackend;
			objectFileFormat := Formats.GetObjectFileFormat("Generic");
		END Init;

		PROCEDURE Emit(backend: Backend.Backend): BOOLEAN;
		BEGIN
			RETURN LinkActiveCells(activeCellsSpecification, backend, objectFileFormat);
		END Emit;

		PROCEDURE DefineOptions(options: Options.Options);
		BEGIN
			objectFileFormat.DefineOptions(options);
		END DefineOptions;

		PROCEDURE GetOptions(options: Options.Options);
		BEGIN
			objectFileFormat.GetOptions(options);
		END GetOptions;

	END SpecificationLinker;

	PROCEDURE Get*(): Backend.Backend;
	VAR backend: SpecificationLinker;
	BEGIN
		NEW(backend); RETURN backend
	END Get;
	*)

	проц FileNameToModuleName(конст filename: массив из симв8; перем moduleName: массив из симв8);
	перем extension: Files.FileName;
	нач
		Files.SplitExtension(filename, moduleName, extension);
	кон FileNameToModuleName;

	проц SectionNameToFileName(конст sectionName: массив из симв8; перем fileName: массив из симв8);
	перем i: размерМЗ;
	нач
		i := 0;
		нцПока (sectionName[i] # 0X) и (sectionName[i] # ".") делай
			fileName[i] := sectionName[i];
			увел(i);
		кц;
		fileName[i] := 0X;
	кон SectionNameToFileName;

	проц GetPriority*(block: Sections.Section): целМЗ;
	конст Fixed=0; EntryCode=1;InitCode=2; ExitCode=3; BodyCode=4;Code=5; Data=6; Const=7; Empty =8;
	нач
		если block.fixed то возврат Fixed всё;
		если block.type = ObjectFile.EntryCode то возврат EntryCode всё;
		если block.type = ObjectFile.InitCode то возврат InitCode всё;
		если block.type = ObjectFile.ExitCode то возврат ExitCode всё;
		если block.type = ObjectFile.BodyCode то возврат Code всё; (* BodyCode does not necessarily have to be in front of code *)
		если block.GetSize () = 0 то возврат Empty всё;
		если block.type = ObjectFile.Code то возврат Code всё;
		если block.type = ObjectFile.Data то возврат Code всё;
		если block.type = ObjectFile.Const то возврат Code всё;
		СТОП(100); (* undefined type *)
	кон GetPriority;

	проц CopySections*(from, to: Sections.SectionList);
	перем section, copy: IntermediateCode.Section; i, j: размерМЗ; s: Sections.Section; instruction: IntermediateCode.Instruction;
	нач
		нцДля i := 0 до from.Length()-1 делай
			s := from.GetSection(i);
			section := s(IntermediateCode.Section);
			copy := IntermediateCode.NewSection(to, section.type, section.name, НУЛЬ, ложь);
			copy.SetBitsPerUnit(section.bitsPerUnit);
			copy.SetPositionOrAlignment(section.fixed, section.positionOrAlignment);
			copy.SetFingerprint(section.fingerprint);
			нцДля j := 0 до section.pc-1 делай
				instruction := section.instructions[j];
				copy.Emit(instruction);
			кц;
		кц;
	кон CopySections;

(*
	PROCEDURE LinkActiveCells*(activeCellsSpecification: ActiveCells.Specification; backend: Backend.Backend; objectFileFormat: Formats.ObjectFileFormat): BOOLEAN;
	TYPE
		LinkerObject= OBJECT
		VAR
			specification: ActiveCells.Specification;
			backend: Backend.Backend;
			diagnostics: Diagnostics.Diagnostics;
			irLinker: Linker;
			objectFileFormat: Formats.ObjectFileFormat;
			error: BOOLEAN;
			system: Global.System;

			PROCEDURE &Init(activeCellsSpecification: ActiveCells.Specification; b: Backend.Backend; objectFileFormat: Formats.ObjectFileFormat);
			BEGIN
				error := FALSE;
				SELF.specification := activeCellsSpecification;
				SELF.backend := b;
				SELF.diagnostics := specification.diagnostics;
				IF diagnostics = NIL THEN diagnostics := Basic.GetDefaultDiagnostics() END;
				SELF.objectFileFormat := objectFileFormat;
				NEW(irLinker, specification.diagnostics, backend, ""); (* TODO: pass an optional path as third parameter *)
				IF ~irLinker.LoadModule(backend(IntermediateCode.IntermediateBackend).builtinsModuleName, TRUE) THEN
					error := TRUE;
					Basic.Error(diagnostics, backend(IntermediateCode.IntermediateBackend).builtinsModuleName,Streams.Invalid, "could not load ir file");
				END;
				IF ~irLinker.LoadModule(specification.name,TRUE) THEN
					error := TRUE;
					Basic.Error(diagnostics, specification.name,Streams.Invalid, "could not load ir file");
				END;
				backend := irLinker.backend;
				system := backend.system;
			END Init;

			PROCEDURE LinkInstance(instance: ActiveCells.Instance): BOOLEAN;
			VAR
				codeFileName, dataFileName: Files.FileName;
				typeName, instanceName, linkRoot: SectionName;
				code, data: Linker.Arrangement; linker: GenericLinker.Linker;
				i: SIZE;
				logFile: Files.File; linkerLog: Files.Writer;
				type: ActiveCells.Type;
				msg: MessageString;
				objectFileExtension: ARRAY 32 OF CHAR;
				instructionMemorySize, dataMemorySize: SIZE;
				parameter: ActiveCells.Parameter;
				value: SyntaxTree.Value;
				pooledName: Basic.SegmentedName;
				error : BOOLEAN;
			CONST MinimalStackSize=64;
			BEGIN
				error := FALSE;
				type := instance.instanceType;
				type.GetFullName(typeName,NIL);
				instance.GetFullName(instanceName,NIL);
				IF TraceLinking THEN
					D.String("assembling instance "); D.String(instanceName); D.String(" of type "); D.String(typeName); D.Ln;
				END;
				IF instance.IsEngine() THEN
					IF TraceLinking THEN
						D.String("instance "); D.String(instanceName); D.String(" is engine "); D.Ln;
					END;
					RETURN TRUE;
				END;

				backend.SetCapabilities(instance.capabilities);
				irLinker.MarkReachabilityOfAll(FALSE);
				COPY(typeName, linkRoot);
				Strings.Append(linkRoot,".@BodyStub");
				irLinker.MarkAsReachableByName(linkRoot);
				irLinker.PatchStackSize(typeName, instance.dataMemorySize);

				FOR i := 0 TO instance.parameters.Length()-1 DO
					parameter := instance.parameters.GetParameter(i);
					IF parameter.parameterType = 0 THEN (* Boolean *)
						value := SyntaxTree.NewBooleanValue(-1, parameter.boolean); value.SetType(system.booleanType);
					ELSE
						value := SyntaxTree.NewIntegerValue(-1, parameter.integer); value.SetType(Global.Signed16);
					END;
					Basic.ToSegmentedName(parameter.name, pooledName);
					irLinker.PatchValueInSection(pooledName,value);
				END;

				IF error THEN RETURN FALSE END;

				objectFileFormat.GetExtension(objectFileExtension);
				irLinker.PrearrangeReachableDataSections;
				IF ~irLinker.GenerateObjectFile(objectFileFormat, specification.log, instanceName) THEN
					Basic.Error(diagnostics, specification.name,Streams.Invalid, "could not generate object file");
					RETURN FALSE
				END;

				IF TraceLinking THEN
					D.String("assembling instance done. "); D.Ln;
				END;

				NEW (code, 0); NEW (data, 0);
				COPY(instanceName, msg); Strings.Append(msg,".log");	logFile := Files.New(msg);
				IF logFile # NIL THEN NEW(linkerLog,logFile,0) ELSE logFile := NIL END;
				NEW (linker, specification.diagnostics, linkerLog, GenericLinker.UseInitCode, code, data);

				linker.SetLinkRoot("" (* linkRoot *)); (* take all initcode sections *)
				Linker.ReadObjectFile(instanceName, "",objectFileExtension,linker);

				(* do linking after having read in all blocks to account for potential constraints *)
				IF ~linker.error THEN linker.Link; END;

				system := backend.GetSystem();

				instructionMemorySize := instance.instructionMemorySize;
				dataMemorySize := instance.dataMemorySize;

				IF instructionMemorySize = 0 THEN
					instructionMemorySize := type.instructionMemorySize
				END;
				IF dataMemorySize = 0 THEN
					dataMemorySize := type.dataMemorySize
				END;

				IF (instructionMemorySize > 0) & (instructionMemorySize < code.SizeInBits() DIV system.codeUnit) THEN
					Basic.Error(diagnostics, instanceName,Streams.Invalid, "specified instruction memory size too small");
					error := TRUE;
				ELSIF instructionMemorySize = 0 THEN
					instructionMemorySize := code.SizeInBits() DIV system.codeUnit;
				END;

				dataMemorySize := MAX(data.SizeInBits() DIV system.dataUnit, dataMemorySize);
				instance.SetInstructionMemorySize(instructionMemorySize);
				instance.SetDataMemorySize(dataMemorySize);

				IF (dataMemorySize - data.SizeInBits() DIV system.dataUnit) < MinimalStackSize THEN
					Basic.Error(diagnostics, specification.name,Streams.Invalid, "specified data memory size too small");
					error := TRUE;
				END;

				Files.JoinExtension(instanceName,ActiveCells.CodeFileExtension,codeFileName);
				Files.JoinExtension(instanceName,ActiveCells.DataFileExtension,dataFileName);

				IF ~linker.error THEN
					Linker.WriteOutputFile (code, codeFileName, linker, Linker.WriteTRMCodeFile);
					Linker.WriteOutputFile (data, dataFileName, linker, Linker.WriteTRMDataFile);
					IF linkerLog # NIL THEN linkerLog.Update; Files.Register(logFile) END;
					IF specification.log # NIL THEN
						specification.log.String(instanceName);
						specification.log.String(" linked. IM = ");specification.log.Int(instructionMemorySize,1);
						specification.log.String(" (used: "); specification.log.Int(code.SizeInBits() DIV system.codeUnit,1);
						specification.log.String("), DM = "); specification.log.Int(dataMemorySize,1);
						specification.log.String(" (used: "); specification.log.Int(data.SizeInBits() DIV system.dataUnit,1);
						specification.log.String(")");
						specification.log.Ln; specification.log.Update;

						specification.log.String("generated code file: ");specification.log.String(codeFileName); specification.log.Ln;
						specification.log.String("generated data file: ");specification.log.String(dataFileName); specification.log.Ln;

					END;
				ELSE
					msg := "could not link ";
					Strings.Append(msg,linkRoot);
					Basic.Error(diagnostics, "",Streams.Invalid, msg);
				END;
				RETURN ~linker.error & ~error
			END LinkInstance;

		END LinkerObject;

	VAR obj: LinkerObject; spec: ActiveCells.Specification;
	BEGIN
		spec := ActiveCells.Clone(activeCellsSpecification)(ActiveCells.Specification);
		ActiveCells.FlattenNetwork(spec);
		NEW(obj,spec,backend,objectFileFormat);
		IF obj.error THEN RETURN FALSE END;
		RETURN spec.ForEachInstanceDo(obj.LinkInstance);
	END LinkActiveCells;
	*)

	проц Link*(context: Commands.Context);
	перем
		input: Потоки.Чтец;
		diagnostics: Diagnostics.StreamDiagnostics;
		defaultBackend: Backend.Backend;
		objectFileFormat: Formats.ObjectFileFormat;
		filename, name, targetFile: Files.FileName;
		assemblinker: Linker;
		error, result, parsed: булево;
		options:Options.Options;
		position: Потоки.ТипМестоВПотоке;
		moduleName: SyntaxTree.СтрокаИдентификатора;

		проц Error(конст l1error: массив из симв8);
		нач
			если diagnostics # НУЛЬ то
				Basic.Error(diagnostics, "",Basic.invalidPosition, l1error);
			всё;
		кон Error;

	нач
		input := context.arg;
		нов(diagnostics, context.out);
		result := истина;
		нов(options);
		options.Add("b","backend",Options.String);
		options.Add(0X, "objectFile", Options.String);
		options.Add(0X, "targetFile", Options.String);

		position := input.МестоВПотоке();
		parsed := options.ParseStaged(input, context.error);

		если options.GetString("b", name) то
			если name = "" то defaultBackend := НУЛЬ
			иначе
				defaultBackend := Backend.GetBackendByName(name);
				если (defaultBackend = НУЛЬ)  то
					Error("backend could not be installed"); result := ложь;
				всё;
			всё;
		иначе defaultBackend := Backend.GetBackendByName(DefaultBackend);
			если defaultBackend = НУЛЬ то Error("default backend could not be installed"); result := ложь всё;
		всё;

		если options.GetString("objectFile",name) то
			если name = "" то objectFileFormat := НУЛЬ
			иначе
				objectFileFormat := Formats.GetObjectFileFormat(name);
				если objectFileFormat = НУЛЬ то Error("object file format could not be installed"); result := ложь всё;
			всё;
		аесли defaultBackend # НУЛЬ то
			objectFileFormat := defaultBackend.DefaultObjectFileFormat();
		всё;
		если defaultBackend # НУЛЬ то defaultBackend.DefineOptions (options); всё;
		если objectFileFormat # НУЛЬ то objectFileFormat.DefineOptions(options); всё;

		если result и ~parsed то
			options.Clear;
			input.ПерейдиКМестуВПотоке(position);
			result := options.Parse(input,context.error)
		всё;

		если result то
			если defaultBackend # НУЛЬ то defaultBackend.GetOptions (options) всё;
			если objectFileFormat # НУЛЬ то objectFileFormat.GetOptions(options) всё;
			если ~options.GetString("targetFile",targetFile) то targetFile := "" всё;
		всё;

		error := ~result;
		если targetFile # "" то
			нов(assemblinker, diagnostics, defaultBackend);
		всё;
		нцПока Basic.GetStringParameter(input,filename) и ~error делай
			если targetFile = "" то нов(assemblinker, diagnostics, defaultBackend) всё;
			если assemblinker.LoadModule(filename, ложь) то
				assemblinker.MarkReachabilityOfAll(истина);
				FileNameToModuleName(filename, moduleName);
				если (targetFile = "") и assemblinker.GenerateObjectFile(objectFileFormat, context.out, moduleName) то
					Basic.Information(diagnostics, filename, Basic.invalidPosition, "done.")
				аесли targetFile # "" то
					Basic.Information(diagnostics, filename,  Basic.invalidPosition, "loaded.")
				иначе
					error := истина
				всё
			иначе
				error := истина
			всё
		кц;
		если ~error и (targetFile # "") то
			assemblinker.PrearrangeReachableDataSections;
			если assemblinker.GenerateObjectFile(objectFileFormat, context.out, targetFile)
			то
				Basic.Information(diagnostics, targetFile, Basic.invalidPosition, "generated.")
			иначе error := ложь
			всё;
		всё;
	кон Link;

	проц WriteCodeAndDataFiles*(конст instanceName: массив из симв8; конст codeFileExtension, dataFileExtension: массив из симв8; objectFile: Formats.ObjectFileFormat; перем instructionMemorySize, dataMemorySize: BinaryCode.Unit; backend: Backend.Backend;  diagnostics: Diagnostics.Diagnostics; log:Потоки.Писарь; 
		английскиеИменаЛи¿ : булево): булево;
	перем code, data: StaticLinker.Arrangement; linker: GenericLinker.Linker; linkerLog: Files.Writer;
			logFile: Files.File;
			objectFileExtension: массив 32 из симв8;
			error : булево;
			fileName, codeFileName, dataFileName: Files.FileName;
			system: Global.System;
			msg: массив 256 из симв8;
	конст MinimalStackSize = 64;
	(*CONST CodeFileExtension="code"; DataFileExtension="data";*)
	нач
		error := ложь;
		нов (code, 0); нов (data, 0);
		копируйСтрокуДо0(instanceName, fileName); Strings.Append(fileName,".log");	logFile := Files.New(fileName);
		если logFile # НУЛЬ то нов(linkerLog,logFile,0) иначе logFile := НУЛЬ всё;
		нов (linker, diagnostics, linkerLog, GenericLinker.UseInitCode, code, data);
		StaticLinker.ReadObjectFile(instanceName, "",objectFile.extension, linker, НУЛЬ, английскиеИменаЛи¿);

				(* do linking after having read in all blocks to account for potential constraints *)
				если ~linker.error то linker.Link; всё;

				system := backend.GetSystem();

				если (instructionMemorySize > 0) и (instructionMemorySize < code.SizeInBits() DIV system.codeUnit) то
					Basic.Error(diagnostics, instanceName, Basic.invalidPosition, "specified instruction memory size too small");
					error := истина;
				аесли instructionMemorySize = 0 то
					instructionMemorySize := code.SizeInBits() DIV system.codeUnit;
				всё;

				dataMemorySize := матМаксимум(data.SizeInBits() DIV system.dataUnit, dataMemorySize);

				если (dataMemorySize - data.SizeInBits() DIV system.dataUnit) < MinimalStackSize то
					Basic.Error(diagnostics, instanceName,Basic.invalidPosition, "specified data memory size too small");
					error := истина;
				всё;

				Files.JoinExtension(instanceName,codeFileExtension,codeFileName);
				Files.JoinExtension(instanceName,dataFileExtension,dataFileName);

				если ~linker.error то
					StaticLinker.WriteOutputFile (code, codeFileName, linker, StaticLinker.WriteTRMCodeFile);
					StaticLinker.WriteOutputFile (data, dataFileName, linker, StaticLinker.WriteTRMDataFile);

					если linkerLog # НУЛЬ то linkerLog.ПротолкниБуферВПоток; Files.Register(logFile) всё;
					если log # НУЛЬ то
						log.пСтроку8(instanceName);
						log.пСтроку8(" linked. IM = ");log.пЦел64(instructionMemorySize,1);
						log.пСтроку8(" (used: "); log.пЦел64(code.SizeInBits() DIV system.codeUnit,1);
						log.пСтроку8("), DM = "); log.пЦел64(dataMemorySize,1);
						log.пСтроку8(" (used: "); log.пЦел64(data.SizeInBits() DIV system.dataUnit,1);
						log.пСтроку8(")");
						log.пВК_ПС; log.ПротолкниБуферВПоток;

						log.пСтроку8("generated code file: ");log.пСтроку8(codeFileName); log.пВК_ПС;
						log.пСтроку8("generated data file: ");log.пСтроку8(dataFileName); log.пВК_ПС;

					всё;
				иначе
					msg := "could not link ";
					Strings.Append(msg,instanceName);
					Basic.Error(diagnostics, "",Basic.invalidPosition, msg);
				всё;
				возврат ~linker.error и ~error

	кон WriteCodeAndDataFiles;

	(* to link active cells
		- load all intermediate code files and collect all sections in one object
		- for each cell instance
			- find body stub by name of cell type
			- find all descending sections recursively (!! may depend on backend needs !)
			- add sections for ports and properties
			- assemble, generate gof file
			- link gof file

		- ir code / data units depend on section type, do not necessarily have to be stored
	*)

	проц Test*(context: Commands.Context);
	перем
		input: Потоки.Чтец;
		diagnostics: Diagnostics.StreamDiagnostics;
		defaultBackend: Backend.Backend;
		objectFileFormat: Formats.ObjectFileFormat;
		name, typeName, instanceName: Files.FileName;
		result, parsed: булево;
		options:Options.Options;
		position: Потоки.ТипМестоВПотоке;
		extension: SyntaxTree.СтрокаИдентификатора;
		linker: Linker;

		проц Error(конст error: массив из симв8);
		нач
			если diagnostics # НУЛЬ то
				Basic.Error(diagnostics, "",Basic.invalidPosition, error);
			всё;
		кон Error;

	нач
		input := context.arg;
		нов(diagnostics, context.out);
		result := истина;
		нов(options);
		options.Add("b","backend",Options.String);
		options.Add(0X, "objectFile", Options.String);
		options.Add(0X, "targetFile", Options.String);
		options.Add(0X, "extension", Options.String);

		position := input.МестоВПотоке();
		parsed := options.ParseStaged(input, context.error);

		если options.GetString("b", name) то
			если name = "" то defaultBackend := НУЛЬ
			иначе
				defaultBackend := Backend.GetBackendByName(name);
				если (defaultBackend = НУЛЬ)  то
					Error("backend could not be installed"); result := ложь;
				всё;
			всё;
		иначе defaultBackend := Backend.GetBackendByName(DefaultBackend);
			если defaultBackend = НУЛЬ то Error("default backend could not be installed"); result := ложь всё;
		всё;

		если options.GetString("objectFile",name) то
			если name = "" то objectFileFormat := НУЛЬ
			иначе
				objectFileFormat := Formats.GetObjectFileFormat(name);
				если objectFileFormat = НУЛЬ то Error("object file format could not be installed"); result := ложь всё;
			всё;
		аесли defaultBackend # НУЛЬ то
			objectFileFormat := defaultBackend.DefaultObjectFileFormat();
		всё;
		если defaultBackend # НУЛЬ то defaultBackend.DefineOptions (options); всё;
		если objectFileFormat # НУЛЬ то objectFileFormat.DefineOptions(options); всё;

		если result и ~parsed то
			options.Clear;
			input.ПерейдиКМестуВПотоке(position);
			result := options.Parse(input,context.error)
		всё;

		если result то
			если defaultBackend # НУЛЬ то defaultBackend.GetOptions (options) всё;
			если objectFileFormat # НУЛЬ то objectFileFormat.GetOptions(options) всё;
		всё;

		если ~options.GetString("extension",extension) то extension := "" всё;

		нов(linker, diagnostics, defaultBackend);

		если Basic.GetStringParameter(input, typeName) и Basic.GetStringParameter(input, instanceName) то
			если linker.LinkPrefixed(typeName) то
				linker.PrearrangeReachableDataSections;
				если linker.GenerateObjectFile(objectFileFormat, context.out, instanceName) то
					context.out.пСтроку8("generated "); context.out.пСтроку8(instanceName);
					context.out.пСтроку8(objectFileFormat.extension);
					context.out.пВК_ПС;
				всё;
			всё;
		всё;

		(*
		error := ~result;
		IF targetFile # "" THEN
			NEW(assemblinker, diagnostics, defaultBackend, "");
		END;

		IF Basic.GetStringParameter(input, name) THEN
			SectionNameToFileName(name, filename);
			TRACE(filename);
			IF assemblinker.LoadModule(filename, FALSE) THEN
				segmentedName := name;
				assemblinker.MarkAsReachableStartingWith(segmentedName, {Sections.InitCodeSection, Sections.BodyCodeSection});
			END;
		END;
		*)
		(*
		WHILE Basic.GetStringParameter(input,filename) & ~error DO
			IF targetFile = "" THEN NEW(assemblinker, diagnostics, defaultBackend, "") END;
			IF assemblinker.LoadModule(filename, FALSE) THEN
				assemblinker.MarkReachabilityOfAll(TRUE);
				FileNameToModuleName(filename, moduleName);
				IF (targetFile = "") & assemblinker.GenerateObjectFile(objectFileFormat, context.out, moduleName) THEN
					Basic.Information(diagnostics, filename, Streams.Invalid, "done.")
				ELSIF targetFile # "" THEN
					Basic.Information(diagnostics, filename,  Streams.Invalid, "loaded.")
				ELSE
					error := TRUE
				END
			ELSE
				error := TRUE
			END
		END;
		*)
		(*
		IF ~error & (targetFile # "") THEN
			assemblinker.PrearrangeReachableDataSections;
			IF assemblinker.GenerateObjectFile(objectFileFormat, context.out, targetFile) THEN
				Basic.Information(diagnostics, targetFile, Streams.Invalid, "generated.")
			ELSE error := FALSE
			END;
		END;
		*)
	кон Test;

кон FoxIntermediateLinker.

System.FreeDownTo FoxIntermediateLinker ~
FoxIntermediateObjectFile.Show Test ~
FoxIntermediateLinker.Link -b=TRM --targetFile=Test Test ~
FoxGenericObjectFile.Show Test.Gof ~

FoxIntermediateLinker.Test -b=TRM --targetFile=Test --extension=.IroT TestActiveCells.TestCellnet.Controller MyController_Name  ~

FoxGenericObjectFile.Show MyController_Name.Gof ~
