модуль IMAPGUI; (** AUTHOR "retmeier"; PURPOSE "A GUI for an IMAP Client"; *)

использует
	Потоки, Strings, ЛогЯдра, Classes := TFClasses, Kernel, Modules, IMAPClient, IMAPUtilities,
	WMComponents, WMStandardComponents, WMWindowManager, WMRectangles, WMEditors, WMDialogs, Raster,
	WMGrids, WMStringGrids, WMGraphics, WMPopups, WMTrees, WMMessages, WMRestorable, Texts, UTF8Strings, Files,
	XML, XMLScanner, XMLParser, RMSMTP;

конст
	WindowTitle = "MailClient";

	CR = 0DX; LF = 0AX;
	DEBUG = ложь;
	REFRESHTIME = 1000 * 2; 		(* ms *)

перем
	nofWindows: цел32;

тип
	String = Strings.String;

	KillerMsg = окласс
	кон KillerMsg;

	LoadWindow = окласс (WMComponents.FormWindow)
		перем
			offline: WMStandardComponents.Checkbox;
			filename: WMEditors.Editor;
			load, cancel: WMStandardComponents.Button;
			ready, valid: булево;

		проц &New*;
		перем
			vc : WMComponents.VisualComponent;
		нач
			IncCount();
			ready := ложь;
			valid := ложь;
			vc := CreateForm();
			Init(vc.bounds.GetWidth(), vc.bounds.GetHeight(), ложь);
			SetContent(vc);
			SetTitle(Strings.NewString("Load Account File"));
			WMWindowManager.DefaultAddWindow(сам);
		кон New;

		проц CreateForm() : WMComponents.VisualComponent;
		перем
			ret, panel : WMStandardComponents.Panel;
			label : WMStandardComponents.Label;

		нач
			нов(ret); ret.bounds.SetExtents(400, 200); ret.fillColor.Set(цел32(0CCCCCCFFH));

			нов(label); label.bounds.SetHeight(25); label.alignment.Set(WMComponents.AlignTop);
			label.caption.SetAOC("Please give the path of the file that contains the account data: ");
			label.bearing.Set(WMRectangles.MakeRect(10,10,10,10));
			ret.AddContent(label);

			нов(filename); filename.bounds.SetHeight(25); filename.alignment.Set(WMComponents.AlignTop);
			filename.multiLine.Set(ложь); filename.fillColor.Set(цел32(0FFFFFFFFH)); filename.tv.showBorder.Set(истина);
			filename.tv.textAlignV.Set(WMGraphics.AlignCenter);
			filename.bearing.Set(WMRectangles.MakeRect(10,10,10,10));
			ret.AddContent(filename);

			нов(panel);
			panel.bounds.SetHeight(20); panel.alignment.Set(WMComponents.AlignTop);
			ret.AddContent(panel);
			нов(label); label.bounds.SetWidth(150); label.alignment.Set(WMComponents.AlignLeft);
			label.caption.SetAOC("Open the account offline? ");
			label.bearing.Set(WMRectangles.MakeRect(10,0,10,0));
			panel.AddContent(label);
			нов(offline); offline.bounds.SetWidth(20); offline.alignment.Set(WMComponents.AlignLeft);
			panel.AddContent(offline);

			нов(panel);
			panel.bounds.SetHeight(20); panel.alignment.Set(WMComponents.AlignBottom);
			ret.AddContent(panel);
			нов(load);
			load.bounds.SetWidth(100); load.alignment.Set(WMComponents.AlignRight);
			load.caption.SetAOC("Load"); load.onClick.Add(LoadHandler);
			panel.AddContent(load);
			нов(cancel);
			cancel.bounds.SetWidth(100); cancel.alignment.Set(WMComponents.AlignRight);
			cancel.caption.SetAOC("Cancel"); cancel.onClick.Add(CancelHandler);
			panel.AddContent(cancel);
			возврат ret;
		кон CreateForm;

		проц {перекрыта}Close*;
		нач
			Close^();
			DecCount();
		кон Close;

		проц {перекрыта}Handle*(перем x: WMMessages.Message);
		нач
			если (x.msgType = WMMessages.MsgExt) и (x.ext # НУЛЬ) и (x.ext суть KillerMsg) то
					Close();
			иначе
				Handle^(x);
			всё;
		кон Handle;

		проц LoadHandler(sender, data: динамическиТипизированныйУкль);
		нач {единолично}
			ready := истина;
			valid := истина;
		кон LoadHandler;

		проц GetAnswer(перем file: String; перем b: булево);
		перем
			i: цел32;
		нач
			нач {единолично}
				дождись(ready);
				если valid то
					IMAPUtilities.TextToStr(filename.text, file);
				иначе
					file := НУЛЬ;
				всё;
				i := offline.state.Get();
				b := (i = 1);
			кон;
			Close^;
		кон GetAnswer;

		проц CancelHandler(sender, data: динамическиТипизированныйУкль);
		нач
			нач {единолично}
				ready := истина;
			кон;
			Close();
		кон CancelHandler;
	кон LoadWindow;

	SaveWindow = окласс (WMComponents.FormWindow)
		перем
			filename: WMEditors.Editor;
			save, cancel: WMStandardComponents.Button;
			ready, valid: булево;

		проц &New*;
		перем
			vc : WMComponents.VisualComponent;
		нач
			IncCount();
			ready := ложь;
			valid := ложь;
			vc := CreateForm();
			Init(vc.bounds.GetWidth(), vc.bounds.GetHeight(), ложь);
			SetContent(vc);
			SetTitle(Strings.NewString("Save Account As"));
			WMWindowManager.DefaultAddWindow(сам);
		кон New;

		проц CreateForm() : WMComponents.VisualComponent;
		перем
			ret, panel : WMStandardComponents.Panel;
			label : WMStandardComponents.Label;
		нач
			нов(ret); ret.bounds.SetExtents(400, 200); ret.fillColor.Set(цел32(0CCCCCCFFH));

			нов(label); label.bounds.SetHeight(25); label.alignment.Set(WMComponents.AlignTop);
			label.caption.SetAOC("Please give the name of the file that should be saved: ");
			label.bearing.Set(WMRectangles.MakeRect(10,10,10,10));
			ret.AddContent(label);

			нов(filename); filename.bounds.SetHeight(25); filename.alignment.Set(WMComponents.AlignTop);
			filename.multiLine.Set(ложь); filename.fillColor.Set(цел32(0FFFFFFFFH)); filename.tv.showBorder.Set(истина);
			filename.tv.textAlignV.Set(WMGraphics.AlignCenter);
			filename.bearing.Set(WMRectangles.MakeRect(10,10,10,10));
			ret.AddContent(filename);

			нов(panel);
			panel.bounds.SetHeight(20); panel.alignment.Set(WMComponents.AlignBottom);
			ret.AddContent(panel);
			нов(save);
			save.bounds.SetWidth(100); save.alignment.Set(WMComponents.AlignRight);
			save.caption.SetAOC("Save"); save.onClick.Add(SaveHandler);
			panel.AddContent(save);
			нов(cancel);
			cancel.bounds.SetWidth(100); cancel.alignment.Set(WMComponents.AlignRight);
			cancel.caption.SetAOC("Cancel"); cancel.onClick.Add(CancelHandler);
			panel.AddContent(cancel);
			возврат ret;
		кон CreateForm;

		проц {перекрыта}Close*;
		нач
			Close^();
			DecCount();
		кон Close;

		проц {перекрыта}Handle*(перем x: WMMessages.Message);
		нач
			если (x.msgType = WMMessages.MsgExt) и (x.ext # НУЛЬ) и (x.ext суть KillerMsg) то
					Close();
			иначе
				Handle^(x);
			всё;
		кон Handle;

		проц SaveHandler(sender, data: динамическиТипизированныйУкль);
		нач {единолично}
			ready := истина;
			valid := истина;
		кон SaveHandler;

		проц GetAnswer(перем file: String);
		нач
			нач {единолично}
				дождись(ready);
				если valid то
					IMAPUtilities.TextToStr(filename.text, file);
				иначе
					file := НУЛЬ;
				всё;
			кон;
			Close^;
		кон GetAnswer;

		проц CancelHandler(sender, data: динамическиТипизированныйУкль);
		нач
			нач {единолично}
				ready := истина;
			кон;
			Close();
		кон CancelHandler;
	кон SaveWindow;


	MessageWindow = окласс (WMComponents.FormWindow)
		перем
			topToolbar, statusbar, headerPanel, messagePanel: WMStandardComponents.Panel;
			statusLabel: WMStandardComponents.Label;
			send, reply, saveDraft: WMStandardComponents.Button;
			from, to, cc, subject, date: WMEditors.Editor;
			messageField: WMEditors.Editor;
			message: IMAPClient.Message;
			window: Window;
			folder: IMAPClient.Folder;

		проц &New*(win: Window);
		перем vc : WMComponents.VisualComponent;
		нач
			IncCount();
			window := win;
			если win # НУЛЬ то
				folder := win.client.currentFolder;
			всё;
			vc := CreateForm();
			Init(vc.bounds.GetWidth(), vc.bounds.GetHeight(), ложь);
			SetContent(vc);
			SetTitle(Strings.NewString("Message Window"));
			from.hScrollbar.visible.Set(ложь);
			to.hScrollbar.visible.Set(ложь);
			cc.hScrollbar.visible.Set(ложь);
			WMWindowManager.DefaultAddWindow(сам);
		кон New;

		проц CreateForm() : WMComponents.VisualComponent;
		перем
			panel : WMStandardComponents.Panel;
			p: WMStandardComponents.Panel;
			label : WMStandardComponents.Label;
		нач
			нов(panel); panel.bounds.SetExtents(800, 600); panel.fillColor.Set(цел32(0CCCCCCFFH));
			(* --- Toolbar --- *)
			нов(topToolbar); topToolbar.bounds.SetHeight(40); topToolbar.alignment.Set(WMComponents.AlignTop);
			panel.AddContent(topToolbar);

			нов(send);
			send.caption.SetAOC("Send");
			send.bounds.SetWidth(120);
			send.bearing.Set(WMRectangles.MakeRect(10,10,10,10));
			send.alignment.Set(WMComponents.AlignLeft);
			send.onClick.Add(ButtonHandler);
			topToolbar.AddContent(send);

			нов(reply);
			reply.caption.SetAOC("Change Fields to answer");
			reply.bounds.SetWidth(140);
			reply.bearing.Set(WMRectangles.MakeRect(10,10,10,10));
			reply.alignment.Set(WMComponents.AlignLeft);
			reply.onClick.Add(ButtonHandler);
			topToolbar.AddContent(reply);

			нов(saveDraft);
			saveDraft.caption.SetAOC("Save in draft folder");
			saveDraft.bounds.SetWidth(120);
			saveDraft.bearing.Set(WMRectangles.MakeRect(10,10,10,10));
			saveDraft.alignment.Set(WMComponents.AlignLeft);
			saveDraft.onClick.Add(ButtonHandler);
			topToolbar.AddContent(saveDraft);

			(* --- statusbar --- *)
			нов(statusbar); statusbar.bounds.SetHeight(20); statusbar.alignment.Set(WMComponents.AlignBottom);
			panel.AddContent(statusbar);

			нов(statusLabel); statusLabel.bounds.SetWidth(800); statusLabel.alignment.Set(WMComponents.AlignLeft);
			statusLabel.textColor.Set(0000000FFH);
			statusLabel.SetCaption("Status: loading ...");
			statusbar.AddContent(statusLabel);

			(* --- headerPanel --- *)
			нов(headerPanel); headerPanel.alignment.Set(WMComponents.AlignTop);
			headerPanel.bounds.SetHeight(150);
			headerPanel.fillColor.Set(цел32(0FFFFFFFFH));
			panel.AddContent(headerPanel);

			(* --- fromPanel --- *)
			нов(p);
			p.alignment.Set(WMComponents.AlignTop);
			p.bounds.SetHeight(32);

			нов(label);
			label.alignment.Set(WMComponents.AlignLeft);
			label.bounds.SetWidth(60);
			label.SetCaption(" FROM: ");
			p.AddContent(label);

			нов(from);
			from.alignment.Set(WMComponents.AlignClient);
			from.tv.showBorder.Set(истина);
			from.hScrollbar.visible.Set(ложь);

			p.AddContent(from);
			headerPanel.AddContent(p);

			(* --- toPanel --- *)
			нов(p);
			p.alignment.Set(WMComponents.AlignTop);
			p.bounds.SetHeight(32);

			нов(label);
			label.alignment.Set(WMComponents.AlignLeft);
			label.bounds.SetWidth(60);
			label.SetCaption(" TO: ");
			p.AddContent(label);

			нов(to);
			to.alignment.Set(WMComponents.AlignClient);
			to.tv.showBorder.Set(истина);
			to.hScrollbar.visible.Set(ложь);

			p.AddContent(to);
			headerPanel.AddContent(p);

			(* --- ccPanel --- *)
			нов(p);
			p.alignment.Set(WMComponents.AlignTop);
			p.bounds.SetHeight(32);

			нов(label);
			label.alignment.Set(WMComponents.AlignLeft);
			label.bounds.SetWidth(60);
			label.SetCaption(" CC: ");
			p.AddContent(label);

			нов(cc);
			cc.alignment.Set(WMComponents.AlignClient);
			cc.tv.showBorder.Set(истина);
			cc.hScrollbar.visible.Set(ложь);

			p.AddContent(cc);
			headerPanel.AddContent(p);

			(* --- subjectPanel --- *)
			нов(p);
			p.alignment.Set(WMComponents.AlignTop);
			p.bounds.SetHeight(25);

			нов(label);
			label.alignment.Set(WMComponents.AlignLeft);
			label.bounds.SetWidth(60);
			label.SetCaption(" SUBJECT: ");
			p.AddContent(label);

			нов(subject);
			subject.alignment.Set(WMComponents.AlignClient);
			subject.multiLine.Set(ложь);
			subject.tv.textAlignV.Set(WMGraphics.AlignCenter);
			subject.tv.showBorder.Set(истина);
			p.AddContent(subject);
			headerPanel.AddContent(p);

			(* --- datePanel --- *)
			нов(p);
			p.alignment.Set(WMComponents.AlignTop);
			p.bounds.SetHeight(25);

			нов(label);
			label.alignment.Set(WMComponents.AlignLeft);
			label.bounds.SetWidth(60);
			label.SetCaption(" DATE: ");
			p.AddContent(label);

			нов(date);
			date.alignment.Set(WMComponents.AlignClient);
			date.multiLine.Set(ложь);
			date.tv.textAlignV.Set(WMGraphics.AlignCenter);
			date.tv.showBorder.Set(истина);
			p.AddContent(date);
			headerPanel.AddContent(p);

			(* --- messagePanel --- *)
			нов(messagePanel); messagePanel.alignment.Set(WMComponents.AlignClient);

			нов(messageField);
			messageField.alignment.Set(WMComponents.AlignClient);
			messageField.tv.showBorder.Set(истина);
			messageField.SetAsString("");
			messagePanel.AddContent(messageField);
			messagePanel.fillColor.Set(цел32(0FFFFFFFFH));
			messageField.hScrollbar.visible.Set(ложь);

			panel.AddContent(messagePanel);

			возврат panel;
		кон CreateForm;

		проц {перекрыта}Close*;
		нач
			Close^();
			DecCount();
		кон Close;

		проц {перекрыта}Handle*(перем x: WMMessages.Message);
		нач
			если (x.msgType = WMMessages.MsgExt) и (x.ext # НУЛЬ) и (x.ext суть KillerMsg) то
					Close();
			иначе
				Handle^(x);
			всё;
		кон Handle;

		проц ButtonHandler*(sender, data: динамическиТипизированныйУкль);
		нач
			если sender = send то
				Send();
			аесли sender = reply то
				Reply();
			аесли sender = saveDraft то
				SaveDraft();
			иначе
				OutputError("An Unknown Button was pressed");
			всё;
		кон ButtonHandler;

		проц Reply;
		перем
			string: Strings.String;
			buffer: Strings.Buffer;
			w: Потоки.Писарь;
			r: цел32;
			header: IMAPClient.HeaderElement;
		нач
			header := message.header;
			IMAPUtilities.TextToStr(subject.text, string);
			нов(buffer, 16);
			w := buffer.GetWriter();
			w.пСтроку8("Re: ");
			w.пСтроку8(string^);
			string := buffer.GetString();
			IMAPUtilities.SetEditorText(subject, string);

			если header.from # НУЛЬ то
				IMAPUtilities.AddressesToString(header.from, string);
				IMAPUtilities.SetEditorText(to, string);
			иначе
				string := Strings.NewString("");
			всё;

			нов(buffer, 16);
			w := buffer.GetWriter();
			w.пСимв8(CR); w.пСимв8(LF); w.пСимв8(CR); w.пСимв8(LF);
			w.пСтроку8(string^);
			w.пСтроку8(" wrote:"); w.пСимв8(CR); w.пСимв8(LF); w.пСимв8(CR); w.пСимв8(LF);
			IMAPUtilities.TextToStr(messageField.text, string);
			w.пСтроку8(string^);
			string := buffer.GetString();
			IMAPUtilities.SetEditorText(messageField, string);

			если window # НУЛЬ то
				string := Strings.NewString(window.client.preferences.From^);
				IMAPUtilities.SetEditorText(from, string);
				если window.client.currentFolder # folder то
					buffer.Clear();
					w.пСтроку8("The current Folder of your Mail Client is not equal to the Folder this Message is stored in. ");
					w.пСтроку8("So the Answered Flag will not be updated. ");
					w.пСтроку8("If you want the Answered Flag to be updated change to the Folder this Message is stored in and click Yes. ");
					w.пСтроку8("Otherwise click No.");
					string := buffer.GetString();
					r := WMDialogs.ResYes;
					нцПока (r = WMDialogs.ResYes) и (window.client.currentFolder # folder) делай
						r := WMDialogs.Confirmation(WindowTitle,string^);
					кц;
					если  (r = WMDialogs.ResYes) и (window.client.currentFolder = folder) то
						r := window.client.SetAnsweredFlag(message);
					всё;
				иначе
					r := window.client.SetAnsweredFlag(message);
				всё;
			всё;
		кон Reply;

		проц Send;
		перем
			server, thisHost: массив 1000 из симв8;
			preferences: IMAPClient.AccountPreferences;
			r: цел32;
			msg, caption: String;
			buttons: мнвоНаБитахМЗ;
			header: IMAPClient.HeaderElement;
			newMessage: IMAPClient.Message;
		нач
			нов(header);
			нов(newMessage);
			newMessage.header := header;
			message := newMessage;

			BuildMessage();

			если window # НУЛЬ то
				preferences := window.client.preferences;
				IMAPUtilities.StringCopy(preferences.SMTPServer^, 0, IMAPUtilities.StringLength(preferences.SMTPServer^), server);
				IMAPUtilities.StringCopy(preferences.SMTPThisHost^, 0, IMAPUtilities.StringLength(preferences.SMTPThisHost^), thisHost);
			иначе
				server := "";
				thisHost := "";
			всё;
			statusLabel.caption.SetAOC("Status: Preparing...");
			если WMDialogs.QueryString("Enter SMTP-Server:", server) = WMDialogs.ResOk то
				если WMDialogs.QueryString("Enter Name of this host", thisHost) = WMDialogs.ResOk то
					statusLabel.caption.SetAOC("Status: Sending...");
				(*	r := RMSMTP.SendMessage(message, server, thisHost); *)
					statusLabel.caption.SetAOC("Status: Finished");

					если r = RMSMTP.OK то
						buttons := {WMDialogs.ResYes, WMDialogs.ResNo};
						caption := Strings.NewString("Send was successful");
						msg := Strings.NewString("Send was successful. Do you want to close the MessageWindow now?");
						если window # НУЛЬ то
							window.client.abort := истина;
							r := window.client.SaveSentMessage(message);
							window.client.abort := ложь;
						всё
					иначе
						buttons := {WMDialogs.ResOk};
						caption := Strings.NewString("Send was NOT successful");
						msg := Strings.NewString("Send was NOT successful.");
					всё;
					r := WMDialogs.Message(WMDialogs.TInformation, caption^, msg^, buttons);
					если r = WMDialogs.ResYes то
						Close^;
					всё;
				всё;
			всё;
			statusLabel.caption.SetAOC("Status: Finished");
		кон Send;

		проц SaveDraft;
		перем
			path: String;
			r: цел32;
		нач
			path := window.client.preferences.DraftFolder;
			если path^ = "" то
				OutputError("No Draft Folder specified in Preferences");
				возврат;
			всё;
			BuildMessage();
			r := window.client.AppendMessage(message, path);
		кон SaveDraft;

		(* Reads the input fields and stores them in the message object *)
		проц BuildMessage;
		перем
			string: String;
			addresses: Classes.List;
		нач
			нов(message);
			нов(message.header);
			IMAPUtilities.TextToStr(from.text, string);
			если Strings.Length(string^) > 0 то
				IMAPUtilities.ParseAddresses(string, addresses);
				message.header.from := addresses;
			всё;

			IMAPUtilities.TextToStr(to.text, string);
			если Strings.Length(string^) > 0 то
				IMAPUtilities.ParseAddresses(string, addresses);
				message.header.to := addresses;
			всё;

			IMAPUtilities.TextToStr(cc.text, string);
			если Strings.Length(string^) > 0 то
				IMAPUtilities.ParseAddresses(string, addresses);
				message.header.cc := addresses;
			всё;

			IMAPUtilities.TextToStr(subject.text, string);
			message.header.subject := Strings.NewString(string^);
			message.header.date := IMAPUtilities.getRFC822Date();
			IMAPUtilities.TextToStr(messageField.text, string);
			message.message := string;
		кон BuildMessage;

		проц NewMessage*;
		перем
			header: IMAPClient.HeaderElement;
			string: String;
		нач
			нов(message);
			нов(header);
			message.header := header;
			если window # НУЛЬ то
				string := Strings.NewString(window.client.preferences.From^);
				IMAPUtilities.SetEditorText(from, string);
			всё;
			statusLabel.caption.SetAOC("Status: Ready");
			from.hScrollbar.visible.Set(ложь);
			to.hScrollbar.visible.Set(ложь);
			cc.hScrollbar.visible.Set(ложь);
			messageField.hScrollbar.visible.Set(ложь);
		кон NewMessage;

		проц DisplayMessage*(message: IMAPClient.Message);
		перем
			string, string2: String;
			header: IMAPClient.HeaderElement;
			i: размерМЗ;
			text: Texts.Text;
		нач
			сам.message := message;
			from.hScrollbar.visible.Set(ложь);
			to.hScrollbar.visible.Set(ложь);
			cc.hScrollbar.visible.Set(ложь);
			messageField.hScrollbar.visible.Set(ложь);

			header := message.header;
			если header.from # НУЛЬ то
				IMAPUtilities.AddressesToString(header.from, string);
				IMAPUtilities.replaceEncodedHeaderWord(string^);
				IMAPUtilities.SetEditorText(from, string);
			всё;

			если header.to # НУЛЬ то
				IMAPUtilities.AddressesToString(header.to, string);
				IMAPUtilities.replaceEncodedHeaderWord(string^);
				IMAPUtilities.SetEditorText(to, string);
			всё;

			если header.cc # НУЛЬ то
				IMAPUtilities.AddressesToString(header.cc, string);
				IMAPUtilities.replaceEncodedHeaderWord(string^);
				IMAPUtilities.SetEditorText(cc, string);
			всё;

			если header.subject # НУЛЬ то
				string := IMAPUtilities.NewString(header.subject^);
				IMAPUtilities.replaceEncodedHeaderWord(string^);
				IMAPUtilities.SetEditorText(subject, string);
			всё;

			если header.date # НУЛЬ то
				string := IMAPUtilities.NewString(header.date^);
				IMAPUtilities.replaceEncodedHeaderWord(string^);
				IMAPUtilities.SetEditorText(date, string);
			всё;

			если message.bodystructure # НУЛЬ то
				Strings.UpperCase(message.bodystructure.type);
				Strings.UpperCase(message.bodystructure.subtype);
				Strings.UpperCase(message.bodystructure.encoding);
				Strings.UpperCase(message.bodystructure.charset);
				если DEBUG то
					ЛогЯдра.пСтроку8("Type: "); ЛогЯдра.пСтроку8(message.bodystructure.type); ЛогЯдра.пВК_ПС();
					ЛогЯдра.пСтроку8("SubType: "); ЛогЯдра.пСтроку8(message.bodystructure.subtype); ЛогЯдра.пВК_ПС();
					ЛогЯдра.пСтроку8("Encoding: "); ЛогЯдра.пСтроку8(message.bodystructure.encoding); ЛогЯдра.пВК_ПС();
					ЛогЯдра.пСтроку8("Charset: "); ЛогЯдра.пСтроку8(message.bodystructure.charset); ЛогЯдра.пВК_ПС();
				всё;

				если (message.bodystructure.type = "TEXT") и (message.bodystructure.subtype = "PLAIN") то
					если message.message # НУЛЬ то
						если message.bodystructure.encoding = "BASE64" то
							(* decode base64 *)
							string := IMAPUtilities.decodeBase64(message.message^);
						аесли message.bodystructure.encoding = "QUOTED-PRINTABLE" то
							(* decode quoted-printable *)
							string := IMAPUtilities.decodeQuotedPrintable(message.message^);
						иначе
							(* don't have to decode *)
							string := Strings.NewString(message.message^);
						всё;

						(* transform message to the right charset *)
						нов(text);
						если message.bodystructure.charset = "UTF-8" то
							IMAPUtilities.StrToText(text, 0, string^);
						аесли message.bodystructure.charset = "ISO-8859-1" то
							i := IMAPUtilities.StringLength(string^);
							нов(string2, 6*i + 1);
							UTF8Strings.ASCIItoUTF8(string^, string2^);
							IMAPUtilities.StrToText(text, 0, string2^);
						иначе (* assume US-ASCII *)
							i := IMAPUtilities.StringLength(string^);
							нов(string2, 6*i + 1);
							UTF8Strings.ASCIItoUTF8(string^, string2^);
							IMAPUtilities.StrToText(text, 0, string2^);
						всё;
						messageField.SetText(text);
						statusLabel.SetCaption("Status: Finished");
					иначе
						messageField.SetAsString("Message can not be loaded!");
						statusLabel.SetCaption("Finished");
					всё;
				иначе
					нов(text);
					IMAPUtilities.StrToText(text, 0, message.message^);
					messageField.SetText(text);
					statusLabel.SetCaption("Message is not of type TEXT/PLAIN");
				всё;
			иначе
				если message.message = НУЛЬ то
					OutputError("The body of this message is not available. Maybe your are offline and don't have the body in your local storage");
				иначе
					(* assume TEXT/PLAIN, US-ASSCII, no Encoding *)
					нов(text);
					IMAPUtilities.StrToText(text, 0, message.message^);
					messageField.SetText(text);
					statusLabel.SetCaption("The Bodystructure for this message is not available. TEXT/PLAIN is assumed.");
				всё;
			всё;
			from.hScrollbar.visible.Set(ложь);
			to.hScrollbar.visible.Set(ложь);
			cc.hScrollbar.visible.Set(ложь);
		кон DisplayMessage;
	кон MessageWindow;

	SearchWindow = окласс (WMComponents.FormWindow)
		перем
			answered, unanswered, deleted, undeleted, draft, undraft, flagged, unflagged, seen, unseen, recent, old: WMStandardComponents.Checkbox;
			subject, text, from, minSize, maxSize: WMEditors.Editor;
			search, cancel: WMStandardComponents.Button;
			before, on, after: WMStandardComponents.Checkbox;
			day, month, year: WMEditors.Editor;
			utf8: WMStandardComponents.Checkbox;
			status: WMStandardComponents.Label;
			w: Window;

		проц &New*(win: Window);
		перем
			vc : WMComponents.VisualComponent;
		нач
			IncCount();
			w := win;
			vc := CreateForm();
			Init(vc.bounds.GetWidth(), vc.bounds.GetHeight(), ложь);
			SetContent(vc);
			SetTitle(Strings.NewString("Search Window"));
			WMWindowManager.DefaultAddWindow(сам);
		кон New;

		проц CreateForm() : WMComponents.VisualComponent;
		перем
			panel : WMStandardComponents.Panel;
			label: WMStandardComponents.Label;
			p: WMStandardComponents.Panel;
		нач
			нов(panel); panel.bounds.SetExtents(600, 400); panel.fillColor.Set(цел32(0CCCCCCFFH));

			(* --- flags --- *)
			нов(p);
			p.bounds.SetHeight(20); p.alignment.Set(WMComponents.AlignTop);
			p.bearing.Set(WMRectangles.MakeRect(5,2,5,2));
			panel.AddContent(p);

			нов(label); label.bounds.SetWidth(100); label.alignment.Set(WMComponents.AlignLeft);
			label.caption.SetAOC("Answered: ");
			p.AddContent(label);
			нов(answered); answered.bounds.SetWidth(20); answered.alignment.Set(WMComponents.AlignLeft);
			p.AddContent(answered);
			нов(label); label.bounds.SetWidth(50); label.alignment.Set(WMComponents.AlignLeft);
			p.AddContent(label);
			нов(label); label.bounds.SetWidth(100); label.alignment.Set(WMComponents.AlignLeft);
			label.caption.SetAOC("Unanswered: ");
			p.AddContent(label);
			нов(unanswered); unanswered.bounds.SetWidth(20); unanswered.alignment.Set(WMComponents.AlignLeft);
			p.AddContent(unanswered);

			нов(p);
			p.bounds.SetHeight(20); p.alignment.Set(WMComponents.AlignTop);
			p.bearing.Set(WMRectangles.MakeRect(5,2,5,2));
			panel.AddContent(p);

			нов(label); label.bounds.SetWidth(100); label.alignment.Set(WMComponents.AlignLeft);
			label.caption.SetAOC("Deleted: ");
			p.AddContent(label);
			нов(deleted); deleted.bounds.SetWidth(20); deleted.alignment.Set(WMComponents.AlignLeft);
			p.AddContent(deleted);
			нов(label); label.bounds.SetWidth(50); label.alignment.Set(WMComponents.AlignLeft);
			p.AddContent(label);
			нов(label); label.bounds.SetWidth(100); label.alignment.Set(WMComponents.AlignLeft);
			label.caption.SetAOC("Undeleted: ");
			p.AddContent(label);
			нов(undeleted); undeleted.bounds.SetWidth(20); undeleted.alignment.Set(WMComponents.AlignLeft);
			p.AddContent(undeleted);

			нов(p);
			p.bounds.SetHeight(20); p.alignment.Set(WMComponents.AlignTop);
			p.bearing.Set(WMRectangles.MakeRect(5,2,5,2));
			panel.AddContent(p);

			нов(label); label.bounds.SetWidth(100); label.alignment.Set(WMComponents.AlignLeft);
			label.caption.SetAOC("Draft: ");
			p.AddContent(label);
			нов(draft); draft.bounds.SetWidth(20); draft.alignment.Set(WMComponents.AlignLeft);
			p.AddContent(draft);
			нов(label); label.bounds.SetWidth(50); label.alignment.Set(WMComponents.AlignLeft);
			p.AddContent(label);
			нов(label); label.bounds.SetWidth(100); label.alignment.Set(WMComponents.AlignLeft);
			label.caption.SetAOC("Undraft: ");
			p.AddContent(label);
			нов(undraft); undraft.bounds.SetWidth(20); undraft.alignment.Set(WMComponents.AlignLeft);
			p.AddContent(undraft);

			нов(p);
			p.bounds.SetHeight(20); p.alignment.Set(WMComponents.AlignTop);
			p.bearing.Set(WMRectangles.MakeRect(5,2,5,2));
			panel.AddContent(p);

			нов(label); label.bounds.SetWidth(100); label.alignment.Set(WMComponents.AlignLeft);
			label.caption.SetAOC("Flagged: ");
			p.AddContent(label);
			нов(flagged); flagged.bounds.SetWidth(20); flagged.alignment.Set(WMComponents.AlignLeft);
			p.AddContent(flagged);
			нов(label); label.bounds.SetWidth(50); label.alignment.Set(WMComponents.AlignLeft);
			p.AddContent(label);
			нов(label); label.bounds.SetWidth(100); label.alignment.Set(WMComponents.AlignLeft);
			label.caption.SetAOC("Unflagged: ");
			p.AddContent(label);
			нов(unflagged); unflagged.bounds.SetWidth(20); unflagged.alignment.Set(WMComponents.AlignLeft);
			p.AddContent(unflagged);

			нов(p);
			p.bounds.SetHeight(20); p.alignment.Set(WMComponents.AlignTop);
			p.bearing.Set(WMRectangles.MakeRect(5,2,5,2));
			panel.AddContent(p);

			нов(label); label.bounds.SetWidth(100); label.alignment.Set(WMComponents.AlignLeft);
			label.caption.SetAOC("Seen: ");
			p.AddContent(label);
			нов(seen); seen.bounds.SetWidth(20); seen.alignment.Set(WMComponents.AlignLeft);
			p.AddContent(seen);
			нов(label); label.bounds.SetWidth(50); label.alignment.Set(WMComponents.AlignLeft);
			p.AddContent(label);
			нов(label); label.bounds.SetWidth(100); label.alignment.Set(WMComponents.AlignLeft);
			label.caption.SetAOC("Unseen: ");
			p.AddContent(label);
			нов(unseen); unseen.bounds.SetWidth(20); unseen.alignment.Set(WMComponents.AlignLeft);
			p.AddContent(unseen);

			нов(p);
			p.bounds.SetHeight(20); p.alignment.Set(WMComponents.AlignTop);
			p.bearing.Set(WMRectangles.MakeRect(5,2,5,2));
			panel.AddContent(p);

			нов(label); label.bounds.SetWidth(100); label.alignment.Set(WMComponents.AlignLeft);
			label.caption.SetAOC("Recent: ");
			p.AddContent(label);
			нов(recent); recent.bounds.SetWidth(20); recent.alignment.Set(WMComponents.AlignLeft);
			p.AddContent(recent);
			нов(label); label.bounds.SetWidth(50); label.alignment.Set(WMComponents.AlignLeft);
			p.AddContent(label);
			нов(label); label.bounds.SetWidth(100); label.alignment.Set(WMComponents.AlignLeft);
			label.caption.SetAOC("Old: ");
			p.AddContent(label);
			нов(old); old.bounds.SetWidth(20); old.alignment.Set(WMComponents.AlignLeft);
			p.AddContent(old);

			(* --- rest --- *)
			нов(p);
			p.bounds.SetHeight(25); p.alignment.Set(WMComponents.AlignTop);
			p.bearing.Set(WMRectangles.MakeRect(5,2,5,2));
			panel.AddContent(p);

			нов(label); label.bounds.SetWidth(100); label.alignment.Set(WMComponents.AlignLeft);
			label.caption.SetAOC("Subject: ");
			p.AddContent(label);
			нов(subject); subject.bounds.SetWidth(300); subject.alignment.Set(WMComponents.AlignClient);
			subject.multiLine.Set(ложь); subject.fillColor.Set(цел32(0FFFFFFFFH)); subject.tv.showBorder.Set(истина);
			subject.tv.textAlignV.Set(WMGraphics.AlignCenter);
			p.AddContent(subject);

			нов(p);
			p.bounds.SetHeight(25); p.alignment.Set(WMComponents.AlignTop);
			p.bearing.Set(WMRectangles.MakeRect(5,2,5,2));
			panel.AddContent(p);

			нов(label); label.bounds.SetWidth(100); label.alignment.Set(WMComponents.AlignLeft);
			label.caption.SetAOC("From: ");
			p.AddContent(label);
			нов(from); from.bounds.SetWidth(300); from.alignment.Set(WMComponents.AlignClient);
			from.multiLine.Set(ложь); from.fillColor.Set(цел32(0FFFFFFFFH)); from.tv.showBorder.Set(истина);
			from.tv.textAlignV.Set(WMGraphics.AlignCenter);
			p.AddContent(from);

			нов(p);
			p.bounds.SetHeight(25); p.alignment.Set(WMComponents.AlignTop);
			p.bearing.Set(WMRectangles.MakeRect(5,2,5,2));
			panel.AddContent(p);

			нов(label); label.bounds.SetWidth(100); label.alignment.Set(WMComponents.AlignLeft);
			label.caption.SetAOC("Body-Text: ");
			p.AddContent(label);
			нов(text); text.bounds.SetWidth(300); text.alignment.Set(WMComponents.AlignClient);
			text.multiLine.Set(ложь); text.fillColor.Set(цел32(0FFFFFFFFH)); text.tv.showBorder.Set(истина);
			text.tv.textAlignV.Set(WMGraphics.AlignCenter);
			p.AddContent(text);

			нов(p);
			p.bounds.SetHeight(20); p.alignment.Set(WMComponents.AlignTop);
			p.bearing.Set(WMRectangles.MakeRect(5,2,5,2));
			panel.AddContent(p);

			нов(label); label.bounds.SetWidth(100); label.alignment.Set(WMComponents.AlignLeft);
			label.caption.SetAOC("Min Size: ");
			p.AddContent(label);
			нов(minSize); minSize.bounds.SetWidth(100); minSize.alignment.Set(WMComponents.AlignLeft);
			minSize.multiLine.Set(ложь); minSize.fillColor.Set(цел32(0FFFFFFFFH)); minSize.tv.showBorder.Set(истина);
			minSize.tv.textAlignV.Set(WMGraphics.AlignCenter);
			p.AddContent(minSize);

			нов(label); label.bounds.SetWidth(50); label.alignment.Set(WMComponents.AlignLeft);
			label.caption.SetAOC(" ");
			p.AddContent(label);

			нов(label); label.bounds.SetWidth(100); label.alignment.Set(WMComponents.AlignLeft);
			label.caption.SetAOC("Max Size: ");
			p.AddContent(label);
			нов(maxSize); maxSize.bounds.SetWidth(100); maxSize.alignment.Set(WMComponents.AlignLeft);
			maxSize.multiLine.Set(ложь); maxSize.fillColor.Set(цел32(0FFFFFFFFH)); maxSize.tv.showBorder.Set(истина);
			maxSize.tv.textAlignV.Set(WMGraphics.AlignCenter);
			p.AddContent(maxSize);

			нов(p);
			p.bounds.SetHeight(15); p.alignment.Set(WMComponents.AlignTop);
			p.bearing.Set(WMRectangles.MakeRect(5,2,5,2));
			panel.AddContent(p);

			нов(p);
			p.bounds.SetHeight(20); p.alignment.Set(WMComponents.AlignTop);
			p.bearing.Set(WMRectangles.MakeRect(5,2,5,2));
			panel.AddContent(p);
			нов(label); label.bounds.SetWidth(100); label.alignment.Set(WMComponents.AlignLeft);
			label.caption.SetAOC("Before: ");
			p.AddContent(label);
			нов(before); before.bounds.SetWidth(20); before.alignment.Set(WMComponents.AlignLeft);
			p.AddContent(before);

			нов(p);
			p.bounds.SetHeight(20); p.alignment.Set(WMComponents.AlignTop);
			p.bearing.Set(WMRectangles.MakeRect(5,2,5,2));
			panel.AddContent(p);

			нов(label); label.bounds.SetWidth(100); label.alignment.Set(WMComponents.AlignLeft);
			label.caption.SetAOC("On: ");
			p.AddContent(label);
			нов(on); on.bounds.SetWidth(20); on.alignment.Set(WMComponents.AlignLeft);
			p.AddContent(on);
			нов(label); label.bounds.SetWidth(50); label.alignment.Set(WMComponents.AlignLeft);
			label.caption.SetAOC(" ");
			p.AddContent(label);
			нов(label); label.bounds.SetWidth(50); label.alignment.Set(WMComponents.AlignLeft);
			label.caption.SetAOC("Date: ");
			p.AddContent(label);
			нов(label); label.bounds.SetWidth(50); label.alignment.Set(WMComponents.AlignLeft);
			label.caption.SetAOC("Day: ");
			p.AddContent(label);
			нов(day); day.bounds.SetWidth(50); day.alignment.Set(WMComponents.AlignLeft);
			day.multiLine.Set(ложь); day.fillColor.Set(цел32(0FFFFFFFFH)); day.tv.showBorder.Set(истина);
			day.tv.textAlignV.Set(WMGraphics.AlignCenter);
			p.AddContent(day);
			нов(label); label.bounds.SetWidth(50); label.alignment.Set(WMComponents.AlignLeft);
			label.caption.SetAOC("Month: ");
			p.AddContent(label);
			нов(month); month.bounds.SetWidth(50); month.alignment.Set(WMComponents.AlignLeft);
			month.multiLine.Set(ложь); month.fillColor.Set(цел32(0FFFFFFFFH)); month.tv.showBorder.Set(истина);
			month.tv.textAlignV.Set(WMGraphics.AlignCenter);
			p.AddContent(month);
			нов(label); label.bounds.SetWidth(50); label.alignment.Set(WMComponents.AlignLeft);
			label.caption.SetAOC("Year: ");
			p.AddContent(label);
			нов(year); year.bounds.SetWidth(50); year.alignment.Set(WMComponents.AlignLeft);
			year.multiLine.Set(ложь); year.fillColor.Set(цел32(0FFFFFFFFH)); year.tv.showBorder.Set(истина);
			year.tv.textAlignV.Set(WMGraphics.AlignCenter);
			p.AddContent(year);

			нов(p);
			p.bounds.SetHeight(20); p.alignment.Set(WMComponents.AlignTop);
			p.bearing.Set(WMRectangles.MakeRect(5,2,5,2));
			panel.AddContent(p);

			нов(label); label.bounds.SetWidth(100); label.alignment.Set(WMComponents.AlignLeft);
			label.caption.SetAOC("After: ");
			p.AddContent(label);
			нов(after); after.bounds.SetWidth(20); after.alignment.Set(WMComponents.AlignLeft);
			p.AddContent(after);

			нов(p);
			p.bounds.SetHeight(20); p.alignment.Set(WMComponents.AlignTop);
			p.bearing.Set(WMRectangles.MakeRect(5,2,5,2));
			panel.AddContent(p);

			нов(label); label.bounds.SetWidth(200); label.alignment.Set(WMComponents.AlignLeft);
			label.caption.SetAOC("Try UTF-8 charset for search strings: ");
			p.AddContent(label);
			нов(utf8); utf8.bounds.SetWidth(20); utf8.alignment.Set(WMComponents.AlignLeft);
			p.AddContent(utf8);

			(* --- buttons  --- *)
			нов(p);
			p.bounds.SetHeight(20); p.alignment.Set(WMComponents.AlignBottom);
			p.bearing.Set(WMRectangles.MakeRect(5,2,5,2));
			panel.AddContent(p);

			нов(search);
			search.bounds.SetWidth(100); search.alignment.Set(WMComponents.AlignRight);
			search.caption.SetAOC("Search"); search.onClick.Add(SearchHandler);
			p.AddContent(search);

			нов(cancel);
			cancel.bounds.SetWidth(100); cancel.alignment.Set(WMComponents.AlignRight);
			cancel.caption.SetAOC("Cancel"); cancel.onClick.Add(CancelHandler);
			p.AddContent(cancel);

			нов(status); status.bounds.SetWidth(400); status.alignment.Set(WMComponents.AlignLeft);
			status.caption.SetAOC("Status: Ready");
			p.AddContent(status);

			возврат panel;
		кон CreateForm;

		проц {перекрыта}Close*;
		нач
			Close^();
			DecCount();
		кон Close;

		проц {перекрыта}Handle*(перем x: WMMessages.Message);
		нач
			если (x.msgType = WMMessages.MsgExt) и (x.ext # НУЛЬ) и (x.ext суть KillerMsg) то
					Close();
			иначе
				Handle^(x);
			всё;
		кон Handle;

		проц SearchHandler(sender, data: динамическиТипизированныйУкль);
		перем
			buffer, dateBuffer: Strings.Buffer;
			string, dateString: String;
			writer, dateWriter: Потоки.Писарь;
			i, dateCount: цел32;
			r: размерМЗ;
			monthString: массив 37 из симв8;
			valid: булево;
			errorString: массив 65 из симв8;
		нач
			valid := истина;
			нов(buffer, 16);
			writer := buffer.GetWriter();

			i := utf8.state.Get();
			если i = 1 то writer.пСтроку8("CHARSET UTF-8 "); всё;
			i := answered.state.Get();
			если i = 1 то writer.пСтроку8("ANSWERED "); всё;
			i := unanswered.state.Get();
			если i = 1 то writer.пСтроку8("UNANSWERED ") всё;
			i := deleted.state.Get();
			если i = 1 то writer.пСтроку8("DELETED ") всё;
			i := undeleted.state.Get();
			если i = 1 то writer.пСтроку8("UNDELETED ") всё;
			i := draft.state.Get();
			если i = 1 то writer.пСтроку8("DRAFT ") всё;
			i := undraft.state.Get();
			если i = 1 то writer.пСтроку8("UNDRAFT ") всё;
			i := flagged.state.Get();
			если i = 1 то writer.пСтроку8("FLAGGED ") всё;
			i := unflagged.state.Get();
			если i = 1 то writer.пСтроку8("UNFLAGGED ") всё;
			i := seen.state.Get();
			если i = 1 то writer.пСтроку8("SEEN ") всё;
			i := unseen.state.Get();
			если i = 1 то writer.пСтроку8("UNSEEN ") всё;
			i := recent.state.Get();
			если i = 1 то writer.пСтроку8("RECENT ") всё;
			i := old.state.Get();
			если i = 1 то writer.пСтроку8("OLD ") всё;

			IMAPUtilities.TextToStr(subject.text, string);
			если IMAPUtilities.StringLength(string^) > 0 то
				IMAPUtilities.MakeQuotedString(string);
				writer.пСтроку8("SUBJECT ");
				writer.пСтроку8(string^);
				writer.пСтроку8(" ");
			всё;
			IMAPUtilities.TextToStr(from.text, string);
			если IMAPUtilities.StringLength(string^) > 0 то
				IMAPUtilities.MakeQuotedString(string);
				writer.пСтроку8("FROM ");
				writer.пСтроку8(string^);
				writer.пСтроку8(" ");
			всё;
			IMAPUtilities.TextToStr(text.text, string);
			если IMAPUtilities.StringLength(string^) > 0 то
				IMAPUtilities.MakeQuotedString(string);
				writer.пСтроку8("BODY ");
				writer.пСтроку8(string^);
				writer.пСтроку8(" ");
			всё;
			IMAPUtilities.TextToStr(minSize.text, string);
			если IMAPUtilities.StringLength(string^) > 0 то
				Strings.StrToInt(string^, i);
				Strings.IntToStr(i-1, string^);
				writer.пСтроку8("LARGER ");
				writer.пСтроку8(string^);
				writer.пСтроку8(" ");
			всё;
			IMAPUtilities.TextToStr(maxSize.text, string);
			если IMAPUtilities.StringLength(string^) > 0 то
				Strings.StrToInt(string^,i);
				Strings.IntToStr(i+1, string^);
				writer.пСтроку8("SMALLER ");
				writer.пСтроку8(string^);
				writer.пСтроку8(" ");
			всё;

			dateCount := 0;
			i := before.state.Get();
			если i = 1 то увел(dateCount); всё;
			i := on.state.Get();
			если i = 1 то увел(dateCount); всё;
			i := after.state.Get();
			если i = 1 то увел(dateCount); всё;

			если dateCount = 3 то
				(* It doesn't make sense to do an OR on before, on and after because it is always true *)
			иначе
				если dateCount = 2 то
					(* do an OR *)
					writer.пСтроку8("OR ");
				всё;

				нов(dateBuffer, 16);
				dateWriter := dateBuffer.GetWriter();

				IMAPUtilities.TextToStr(day.text, string);
				если IMAPUtilities.StringLength(string^) > 0 то
					Strings.StrToInt(string^,i);
					если (i < 1) или (i > 31) то
						valid := ложь;
						копируйСтрокуДо0("Day should be between 1 and 31", errorString);
					всё;
					Strings.IntToStr(i, string^);
					dateWriter.пСтроку8(string^);
					dateWriter.пСтроку8("-");
				всё;
				IMAPUtilities.TextToStr(month.text, string);
				если IMAPUtilities.StringLength(string^) > 0 то
					Strings.StrToInt(string^,i);
					если (i < 1) или (i > 12) то
						valid := ложь;
						копируйСтрокуДо0("Month should be between 1 and 12", errorString);
					иначе
						копируйСтрокуДо0("JanFebMarAprMayJunJulAugSepOctNovDec", monthString);
						IMAPUtilities.StringCopy(monthString, (3*i)-3, 3, string^);
						dateWriter.пСтроку8(string^);
						dateWriter.пСтроку8("-");
					всё;
				всё;
				IMAPUtilities.TextToStr(year.text, string);
				если IMAPUtilities.StringLength(string^) > 0 то
					Strings.StrToInt(string^,i);
					Strings.IntToStr(i, string^);
					если IMAPUtilities.StringLength(string^) # 4 то
						valid := ложь;
						копируйСтрокуДо0("Year should consist of 4 digits", errorString);
					всё;
					dateWriter.пСтроку8(string^);
				всё;

				dateString := dateBuffer.GetString();

				i := before.state.Get();
				если i = 1 то
					writer.пСтроку8("BEFORE ");
					writer.пСтроку8(dateString^);
					writer.пСтроку8(" ");
				всё;
				i := on.state.Get();
				если i = 1 то
					writer.пСтроку8("ON ");
					writer.пСтроку8(dateString^);
					writer.пСтроку8(" ");
				всё;
				i := after.state.Get();
				если i = 1 то
					writer.пСтроку8("SINCE ");
					writer.пСтроку8(dateString^);
					writer.пСтроку8(" ");
				всё;
			всё;

			если valid то
				string := buffer.GetString();
				Strings.TrimRight(string^, " ");
				если DEBUG то ЛогЯдра.пСтроку8("Performing search..."); всё;
				status.caption.SetAOC("Status: Performing search...");
				r := w.client.Search(string^);
				если r < 0 то
					status.caption.SetAOC("Status: Searching Not Successful");
				иначе
					нов(buffer,16);
					writer := buffer.GetWriter();
					writer.пСтроку8("Status: Finished. ");
					нов(string, 20);
					Strings.IntToStr(r, string^);
					writer.пСтроку8(string^);
					writer.пСтроку8(" messages found.");
					string := buffer.GetString();
					status.caption.SetAOC(string^);
					если DEBUG то ЛогЯдра.пСтроку8("Search finished. "); ЛогЯдра.пЦел64(r,0); ЛогЯдра.пСтроку8(" messages found"); ЛогЯдра.пВК_ПС(); всё;
					w.messageGrid.SetTopPosition(0,0,истина);
					w.timer.Wakeup();
				всё;

			иначе
				нов(buffer,16);
				writer := buffer.GetWriter();
				writer.пСтроку8("Status: Invalid Input: ");
				writer.пСтроку8(errorString);
				string := buffer.GetString();
				status.caption.SetAOC(string^);
				OutputError(errorString);
			всё;
		кон SearchHandler;

		проц CancelHandler(sender, data: динамическиТипизированныйУкль);
		перем
		нач
			Close^;
		кон CancelHandler;
	кон SearchWindow;

	PreferencesWindow = окласс (WMComponents.FormWindow)
	перем
		SMTPServer, SMTPThisHost, SentFolder, DraftFolder, TrashBin, From: WMEditors.Editor;
		ExpungeOnFolderChange, ExpungeOnDelete, UseDragNDropAsMove, ExpungeOnMove, UseATrashBin: WMStandardComponents.Checkbox;
		ok, cancel: WMStandardComponents.Button;
		window: Window;
		oldPreferences: IMAPClient.AccountPreferences;

		проц &New*(win: Window);
		перем
			vc : WMComponents.VisualComponent;
		нач
			IncCount();
			window := win;
			если window.client # НУЛЬ то
				oldPreferences := window.client.preferences;
			иначе
				нов(oldPreferences);
			всё;
			vc := CreateForm();
			Init(vc.bounds.GetWidth(), vc.bounds.GetHeight(), ложь);
			SetContent(vc);
			SetTitle(Strings.NewString("Preferences"));
			WMWindowManager.DefaultAddWindow(сам);
		кон New;

		проц CreateForm() : WMComponents.VisualComponent;
		перем
			panel : WMStandardComponents.Panel;
			label: WMStandardComponents.Label;
			p: WMStandardComponents.Panel;
			rect: WMRectangles.Rectangle;
		нач
			нов(panel); panel.bounds.SetExtents(500, 400); panel.fillColor.Set(цел32(0CCCCCCFFH));
			rect := WMRectangles.MakeRect(5, 2, 5, 2);

			нов(p); p.bounds.SetHeight(25); p.alignment.Set(WMComponents.AlignTop);
			p.bearing.Set(rect);
			нов(label); label.bounds.SetWidth(200); label.alignment.Set(WMComponents.AlignLeft);
			label.caption.SetAOC("IMAP server name: ");
			p.AddContent(label);
			нов(label); label.alignment.Set(WMComponents.AlignClient);
			label.caption.Set(window.client.preferences.IMAPServer);
			p.AddContent(label);
			panel.AddContent(p);

			нов(p); p.bounds.SetHeight(25); p.alignment.Set(WMComponents.AlignTop);
			p.bearing.Set(rect);
			нов(label); label.bounds.SetWidth(200); label.alignment.Set(WMComponents.AlignLeft);
			label.caption.SetAOC("IMAP user name: ");
			p.AddContent(label);
			нов(label); label.alignment.Set(WMComponents.AlignClient);
			label.caption.Set(window.client.preferences.UserName);
			p.AddContent(label);
			panel.AddContent(p);

			нов(p); p.bounds.SetHeight(25); p.alignment.Set(WMComponents.AlignTop);
			p.bearing.Set(rect);
			нов(label); label.bounds.SetWidth(200); label.alignment.Set(WMComponents.AlignLeft);
			label.caption.SetAOC("SMTP server name: ");
			p.AddContent(label);
			нов(SMTPServer); SMTPServer.alignment.Set(WMComponents.AlignClient);
			SMTPServer.multiLine.Set(ложь); SMTPServer.fillColor.Set(цел32(0FFFFFFFFH)); SMTPServer.tv.showBorder.Set(истина);
			SMTPServer.tv.textAlignV.Set(WMGraphics.AlignCenter);
			SMTPServer.SetAsString(oldPreferences.SMTPServer^);
			p.AddContent(SMTPServer);
			panel.AddContent(p);

			нов(p); p.bounds.SetHeight(25); p.alignment.Set(WMComponents.AlignTop);
			p.bearing.Set(rect);
			нов(label); label.bounds.SetWidth(200); label.alignment.Set(WMComponents.AlignLeft);
			label.caption.SetAOC("Name of this host(for SMTP): ");
			p.AddContent(label);
			нов(SMTPThisHost); SMTPThisHost.alignment.Set(WMComponents.AlignClient);
			SMTPThisHost.multiLine.Set(ложь); SMTPThisHost.fillColor.Set(цел32(0FFFFFFFFH)); SMTPThisHost.tv.showBorder.Set(истина);
			SMTPThisHost.tv.textAlignV.Set(WMGraphics.AlignCenter);
			SMTPThisHost.SetAsString(oldPreferences.SMTPThisHost^);
			p.AddContent(SMTPThisHost);
			panel.AddContent(p);

			нов(p); p.bounds.SetHeight(25); p.alignment.Set(WMComponents.AlignTop);
			p.bearing.Set(rect);
			нов(label); label.bounds.SetWidth(100); label.alignment.Set(WMComponents.AlignLeft);
			label.caption.SetAOC("Sent Folder: ");
			p.AddContent(label);
			нов(SentFolder); SentFolder.alignment.Set(WMComponents.AlignClient);
			SentFolder.multiLine.Set(ложь); SentFolder.fillColor.Set(цел32(0FFFFFFFFH)); SentFolder.tv.showBorder.Set(истина);
			SentFolder.tv.textAlignV.Set(WMGraphics.AlignCenter);
			SentFolder.SetAsString(oldPreferences.SentFolder^);
			p.AddContent(SentFolder);
			panel.AddContent(p);

			нов(p); p.bounds.SetHeight(25); p.alignment.Set(WMComponents.AlignTop);
			p.bearing.Set(rect);
			нов(label); label.bounds.SetWidth(100); label.alignment.Set(WMComponents.AlignLeft);
			label.caption.SetAOC("Draft Folder: ");
			p.AddContent(label);
			нов(DraftFolder); DraftFolder.alignment.Set(WMComponents.AlignClient);
			DraftFolder.multiLine.Set(ложь); DraftFolder.fillColor.Set(цел32(0FFFFFFFFH)); DraftFolder.tv.showBorder.Set(истина);
			DraftFolder.tv.textAlignV.Set(WMGraphics.AlignCenter);
			DraftFolder.SetAsString(oldPreferences.DraftFolder^);
			p.AddContent(DraftFolder);
			panel.AddContent(p);

			нов(p); p.bounds.SetHeight(20); p.alignment.Set(WMComponents.AlignTop);
			p.bearing.Set(rect);
			нов(label); label.bounds.SetWidth(200); label.alignment.Set(WMComponents.AlignLeft);
			label.caption.SetAOC("Use A Trash Bin: ");
			p.AddContent(label);
			нов(UseATrashBin); UseATrashBin.bounds.SetWidth(20); UseATrashBin.alignment.Set(WMComponents.AlignLeft);
			если oldPreferences.UseATrashBin то
				UseATrashBin.state.Set(1);
			иначе
				UseATrashBin.state.Set(0);
			всё;
			p.AddContent(UseATrashBin);
			panel.AddContent(p);

			нов(p); p.bounds.SetHeight(25); p.alignment.Set(WMComponents.AlignTop);
			p.bearing.Set(rect);
			нов(label); label.bounds.SetWidth(100); label.alignment.Set(WMComponents.AlignLeft);
			label.caption.SetAOC("Trash Bin: ");
			p.AddContent(label);
			нов(TrashBin); TrashBin.alignment.Set(WMComponents.AlignClient);
			TrashBin.multiLine.Set(ложь); TrashBin.fillColor.Set(цел32(0FFFFFFFFH)); TrashBin.tv.showBorder.Set(истина);
			TrashBin.tv.textAlignV.Set(WMGraphics.AlignCenter);
			TrashBin.SetAsString(oldPreferences.TrashBin^);
			p.AddContent(TrashBin);
			panel.AddContent(p);

			нов(p); p.bounds.SetHeight(25); p.alignment.Set(WMComponents.AlignTop);
			p.bearing.Set(rect);
			нов(label); label.bounds.SetWidth(100); label.alignment.Set(WMComponents.AlignLeft);
			label.caption.SetAOC("From Field: ");
			p.AddContent(label);
			нов(From); From.alignment.Set(WMComponents.AlignClient);
			From.multiLine.Set(ложь); From.fillColor.Set(цел32(0FFFFFFFFH)); From.tv.showBorder.Set(истина);
			From.tv.textAlignV.Set(WMGraphics.AlignCenter);
			From.SetAsString(oldPreferences.From^);
			p.AddContent(From);
			panel.AddContent(p);

			нов(p); p.bounds.SetHeight(20); p.alignment.Set(WMComponents.AlignTop);
			p.bearing.Set(rect);
			нов(label); label.bounds.SetWidth(200); label.alignment.Set(WMComponents.AlignLeft);
			label.caption.SetAOC("Expunge On Folder Change: ");
			p.AddContent(label);
			нов(ExpungeOnFolderChange); ExpungeOnFolderChange.bounds.SetWidth(20); ExpungeOnFolderChange.alignment.Set(WMComponents.AlignLeft);
			если oldPreferences.ExpungeOnFolderChange то
				ExpungeOnFolderChange.state.Set(1);
			иначе
				ExpungeOnFolderChange.state.Set(0);
			всё;
			p.AddContent(ExpungeOnFolderChange);
			panel.AddContent(p);

			нов(p); p.bounds.SetHeight(20); p.alignment.Set(WMComponents.AlignTop);
			p.bearing.Set(rect);
			нов(label); label.bounds.SetWidth(200); label.alignment.Set(WMComponents.AlignLeft);
			label.caption.SetAOC("Expunge On Delete: ");
			p.AddContent(label);
			нов(ExpungeOnDelete); ExpungeOnDelete.bounds.SetWidth(20); ExpungeOnDelete.alignment.Set(WMComponents.AlignLeft);
			если oldPreferences.ExpungeOnDelete то
				ExpungeOnDelete.state.Set(1);
			иначе
				ExpungeOnDelete.state.Set(0);
			всё;
			p.AddContent(ExpungeOnDelete);
			panel.AddContent(p);

			нов(p); p.bounds.SetHeight(20); p.alignment.Set(WMComponents.AlignTop);
			p.bearing.Set(rect);
			нов(label); label.bounds.SetWidth(200); label.alignment.Set(WMComponents.AlignLeft);
			label.caption.SetAOC("Use Drag'n'Drop as Move: ");
			p.AddContent(label);
			нов(UseDragNDropAsMove); UseDragNDropAsMove.bounds.SetWidth(20); UseDragNDropAsMove.alignment.Set(WMComponents.AlignLeft);
			если oldPreferences.UseDragNDropAsMove то
				UseDragNDropAsMove.state.Set(1);
			иначе
				UseDragNDropAsMove.state.Set(0);
			всё;
			p.AddContent(UseDragNDropAsMove);
			panel.AddContent(p);

			нов(p); p.bounds.SetHeight(20); p.alignment.Set(WMComponents.AlignTop);
			p.bearing.Set(rect);
			нов(label); label.bounds.SetWidth(200); label.alignment.Set(WMComponents.AlignLeft);
			label.caption.SetAOC("Expunge On Move: ");
			p.AddContent(label);
			нов(ExpungeOnMove); ExpungeOnMove.bounds.SetWidth(20); ExpungeOnMove.alignment.Set(WMComponents.AlignLeft);
			если oldPreferences.ExpungeOnMove то
				ExpungeOnMove.state.Set(1);
			иначе
				ExpungeOnMove.state.Set(0);
			всё;
			p.AddContent(ExpungeOnMove);
			panel.AddContent(p);

			нов(p); p.bounds.SetHeight(20); p.alignment.Set(WMComponents.AlignBottom);
			нов(ok);
			ok.bounds.SetWidth(100); ok.alignment.Set(WMComponents.AlignRight);
			ok.caption.SetAOC("OK"); ok.onClick.Add(OKHandler);
			p.AddContent(ok);
			нов(cancel);
			cancel.bounds.SetWidth(100); cancel.alignment.Set(WMComponents.AlignRight);
			cancel.caption.SetAOC("Cancel"); cancel.onClick.Add(CancelHandler);
			p.AddContent(cancel);
			panel.AddContent(p);
			возврат panel;
		кон CreateForm;

		проц {перекрыта}Close*;
		нач
			Close^();
			DecCount();
		кон Close;

		проц {перекрыта}Handle*(перем x: WMMessages.Message);
		нач
			если (x.msgType = WMMessages.MsgExt) и (x.ext # НУЛЬ) и (x.ext суть KillerMsg) то
					Close();
			иначе
				Handle^(x);
			всё;
		кон Handle;

		проц OKHandler(sender, data: динамическиТипизированныйУкль);
		перем
			i: цел32;
			string: String;
			preferences: IMAPClient.AccountPreferences;
		нач
			если window # НУЛЬ то
				preferences := window.client.preferences;
				IMAPUtilities.TextToStr(SMTPServer.text, string);
				window.client.preferences.SMTPServer := string;
				IMAPUtilities.TextToStr(SMTPThisHost.text, string);
				preferences.SMTPThisHost := string;
				IMAPUtilities.TextToStr(SentFolder.text, string);
				preferences.SentFolder := string;
				IMAPUtilities.TextToStr(DraftFolder.text, string);
				preferences.DraftFolder := string;
				IMAPUtilities.TextToStr(TrashBin.text, string);
				preferences.TrashBin := string;
				IMAPUtilities.TextToStr(From.text, string);
				preferences.From := string;

				i := ExpungeOnFolderChange.state.Get();
				preferences.ExpungeOnFolderChange := (i=1);
				i := ExpungeOnDelete.state.Get();
				preferences.ExpungeOnDelete := (i=1);
				i := UseDragNDropAsMove.state.Get();
				preferences.UseDragNDropAsMove := (i=1);
				i := ExpungeOnMove.state.Get();
				preferences.ExpungeOnMove := (i=1);
				i := UseATrashBin.state.Get();
				preferences.UseATrashBin := (i=1);
			иначе
				OutputError("Updating Preferences not possible, because Client is not initialized");
			всё;
			Close^();
		кон OKHandler;

		проц CancelHandler(sender, data: динамическиТипизированныйУкль);
		нач
			Close^;
		кон CancelHandler;
	кон PreferencesWindow;

	Window = окласс (WMComponents.FormWindow)
	перем
		topToolbar, messagePanel : WMStandardComponents.Panel;
		statusLabel, currentFolderLabel, currentMessagesLabel: WMStandardComponents.Label;
		connect, disconnect, reload, abort, search, save, load, new, expunge, preferences, download, switchToOffline, switchToOnline: WMStandardComponents.Button;
		messageGrid : WMStringGrids.StringGrid;
		folderTree: WMTrees.TreeView;
		tree: WMTrees.Tree;
		colWidths : WMGrids.Spacings;
		address: WMEditors.Editor;
		popup: WMPopups.Popup;
		px, py : размерМЗ;
		IconRead, IconAnswered, IconUnread, IconDeleted: WMGraphics.Image;
		copyTarget: IMAPClient.Folder;
		client: IMAPClient.Client;
		timer: Kernel.Timer;
		updateFlag: булево;
		active: булево;

		проц &New*(c: WMRestorable.Context);
		перем vc : WMComponents.VisualComponent; panel : WMStandardComponents.Panel;
		нач
			нов(client, RefreshDisplay, OutputError);
			vc := CreateForm();
			Init(vc.bounds.GetWidth(), vc.bounds.GetHeight(), ложь);
			SetContent(vc);
			SetTitle(Strings.NewString(WindowTitle));
			SetIcon(WMGraphics.LoadImage("WMIcons.tar://IMAPGUI.png", истина));

			active := истина;
			updateFlag := ложь;
			copyTarget := НУЛЬ;
			IconRead := WMGraphics.LoadImage("IMAPIcons.tar://IMAPIconRead.png", ложь);
			IconAnswered := WMGraphics.LoadImage("IMAPIcons.tar://IMAPIconAnswered.png", ложь);
			IconUnread := WMGraphics.LoadImage("IMAPIcons.tar://IMAPIconUnread.png", ложь);
			IconDeleted := WMGraphics.LoadImage("IMAPIcons.tar://IMAPIconDeleted.png", ложь);

			если DEBUG то ЛогЯдра.пСтроку8("Window initialisiert"); ЛогЯдра.пВК_ПС(); всё;
			IncCount();
			если c # НУЛЬ то
				WMRestorable.AddByContext(сам, c);
				Resized(GetWidth(), GetHeight());
			иначе
				WMWindowManager.DefaultAddWindow(сам);
			всё;
		кон New;

		(* Wird aufgerufen, wenn das Fenster seine Groesse aendert *)
		проц {перекрыта}Resized*(width, height : размерМЗ);
		нач
			Resized^(width, height);
			ResizeGrid;
		кон Resized;

		проц ResizeGrid;
		нач
			если длинаМассива(colWidths) = 4 то
				нов(colWidths, 4);
				colWidths[0] := (messageGrid.bounds.GetWidth() DIV 8)*2;
				colWidths[1] := (messageGrid.bounds.GetWidth() DIV 8)*3;
				colWidths[2] := messageGrid.bounds.GetWidth() DIV 4;
				colWidths[3] := messageGrid.bounds.GetWidth() DIV 8;
			иначе
				нов(colWidths, 1);
				colWidths[0] := messageGrid.bounds.GetWidth();
			всё;
			messageGrid.SetColSpacings(colWidths);
		кон ResizeGrid;

		проц CreateForm() : WMComponents.VisualComponent;
		перем
			panel : WMStandardComponents.Panel;
			label : WMStandardComponents.Label;
			p: WMStandardComponents.Panel;
			rect: WMRectangles.Rectangle;
			root: WMTrees.TreeNode;
		нач
			rect := WMRectangles.MakeRect(2,3,0,3);
			нов(panel); panel.bounds.SetExtents(1024, 768); panel.fillColor.Set(WMGraphics.White);

			(* --- Toolbar --- *)
			нов(topToolbar); topToolbar.bounds.SetHeight(78); topToolbar.alignment.Set(WMComponents.AlignTop);
			topToolbar.fillColor.Set(цел32(0CCCCCCFFH));
			panel.AddContent(topToolbar);

			нов(p); p.bounds.SetHeight(26); p.alignment.Set(WMComponents.AlignTop);
			topToolbar.AddContent(p);

			нов(label); label.bounds.SetWidth(40); label.alignment.Set(WMComponents.AlignLeft);
			label.caption.SetAOC("Host: "); label.textColor.Set(0000000FFH); label.bearing.Set(rect); p.AddContent(label);

			нов(address); address.bounds.SetWidth(160); address.alignment.Set(WMComponents.AlignLeft);
			address.multiLine.Set(ложь); address.fillColor.Set(цел32(0FFFFFFFFH)); address.bearing.Set(rect); address.tv.showBorder.Set(истина);
			address.tv.textAlignV.Set(WMGraphics.AlignCenter);
			address.tv.borders.Set(WMRectangles.MakeRect(3,3,1,1));
			address.onEnter.Add(ButtonHandler);
			p.AddContent(address);
	  		IMAPUtilities.SetEditorText(address, client.preferences.IMAPServer);

			нов(connect); connect.bounds.SetWidth(100); connect.alignment.Set(WMComponents.AlignLeft);
			connect.caption.SetAOC("Connect"); connect.bearing.Set(rect); connect.onClick.Add(ButtonHandler);
			p.AddContent(connect);
			нов(disconnect); disconnect.bounds.SetWidth(100); disconnect.alignment.Set(WMComponents.AlignLeft);
			disconnect.caption.SetAOC("Disconnect"); disconnect.bearing.Set(rect); disconnect.onClick.Add(ButtonHandler);
			p.AddContent(disconnect);
			нов(save); save.bounds.SetWidth(100); save.alignment.Set(WMComponents.AlignLeft);
			save.caption.SetAOC("Save Account"); save.bearing.Set(rect); save.onClick.Add(ButtonHandler);
			p.AddContent(save);
			нов(load); load.bounds.SetWidth(100); load.alignment.Set(WMComponents.AlignLeft);
			load.caption.SetAOC("Load Account"); load.bearing.Set(rect); load.onClick.Add(ButtonHandler);
			p.AddContent(load);
			нов(switchToOffline); switchToOffline.bounds.SetWidth(100); switchToOffline.alignment.Set(WMComponents.AlignLeft);
			switchToOffline.caption.SetAOC("Switch To Offline"); switchToOffline.bearing.Set(rect); switchToOffline.onClick.Add(ButtonHandler);
			p.AddContent(switchToOffline);
			нов(switchToOnline); switchToOnline.bounds.SetWidth(100); switchToOnline.alignment.Set(WMComponents.AlignLeft);
			switchToOnline.caption.SetAOC("Switch To Online"); switchToOnline.bearing.Set(rect); switchToOnline.onClick.Add(ButtonHandler);
			p.AddContent(switchToOnline);
			нов(preferences); preferences.bounds.SetWidth(100); preferences.alignment.Set(WMComponents.AlignLeft);
			preferences.caption.SetAOC("Preferences"); preferences.bearing.Set(rect); preferences.onClick.Add(ButtonHandler);
			p.AddContent(preferences);

			нов(p); p.bounds.SetHeight(26); p.alignment.Set(WMComponents.AlignTop);
			topToolbar.AddContent(p);

			нов(new); new.bounds.SetWidth(100); new.alignment.Set(WMComponents.AlignLeft);
			new.caption.SetAOC("Send new"); new.bearing.Set(rect);new.onClick.Add(ButtonHandler);
			p.AddContent(new);
			нов(reload); reload.bounds.SetWidth(100); reload.alignment.Set(WMComponents.AlignLeft);
			reload.caption.SetAOC("Reload"); reload.bearing.Set(rect); reload.onClick.Add(ButtonHandler);
			p.AddContent(reload);
			нов(abort); abort.bounds.SetWidth(100); abort.alignment.Set(WMComponents.AlignLeft);
			abort.caption.SetAOC("Abort"); abort.bearing.Set(rect); abort.onClick.Add(ButtonHandler);
			p.AddContent(abort);
			нов(search); search.bounds.SetWidth(100); search.alignment.Set(WMComponents.AlignLeft);
			search.caption.SetAOC("Search"); search.bearing.Set(rect); search.onClick.Add(ButtonHandler);
			p.AddContent(search);
			нов(expunge); expunge.bounds.SetWidth(100); expunge.alignment.Set(WMComponents.AlignLeft);
			expunge.caption.SetAOC("Expunge"); expunge.bearing.Set(rect); expunge.onClick.Add(ButtonHandler);
			p.AddContent(expunge);
			нов(download); download.bounds.SetWidth(100); download.alignment.Set(WMComponents.AlignLeft);
			download.caption.SetAOC("Load all messages"); download.bearing.Set(rect); download.onClick.Add(ButtonHandler);
			p.AddContent(download);

			нов(p);
			p.bounds.SetHeight(26); p.alignment.Set(WMComponents.AlignTop);
			topToolbar.AddContent(p);

			(* --- currentMessagesLabel --- *)
			нов(currentMessagesLabel);
			currentMessagesLabel.bounds.SetWidth(200);
			currentMessagesLabel.alignment.Set(WMComponents.AlignLeft);
			currentMessagesLabel.fillColor.Set(цел32(0CCCCCCFFH));
			currentMessagesLabel.caption.SetAOC("Current Messages: 0 ");
			currentMessagesLabel.bearing.Set(rect);
			p.AddContent(currentMessagesLabel);

			(* --- currentFolderLabel --- *)
			нов(currentFolderLabel);
			currentFolderLabel.alignment.Set(WMComponents.AlignClient);
			currentFolderLabel.fillColor.Set(цел32(0CCCCCCFFH));
			currentFolderLabel.caption.SetAOC("Current Folder: ");
			currentFolderLabel.bearing.Set(rect);
			p.AddContent(currentFolderLabel);


			(* --- statusbar --- *)
			нов(p);
			p.bounds.SetHeight(20); p.alignment.Set(WMComponents.AlignBottom);
			p.fillColor.Set(цел32(0CCCCCCFFH));
			panel.AddContent(p);
			нов(statusLabel);
			statusLabel.bounds.SetHeight(20);
			statusLabel.alignment.Set(WMComponents.AlignTop);
			statusLabel.bearing.Set(WMRectangles.MakeRect(3,0,0,0));
			statusLabel.textColor.Set(0000000FFH);
			statusLabel.SetCaption("Status: disconnected");
			p.AddContent(statusLabel);

			(* --- folderPanel --- *)
			нов(folderTree);
			folderTree.bounds.SetWidth(200);
			folderTree.alignment.Set(WMComponents.AlignLeft);
			folderTree.bearing.Set(WMRectangles.MakeRect(3,3,0,0));
			folderTree.fillColor.Set(WMGraphics.White);
			folderTree.onClickNode.Add(ChangeFolder);
			folderTree.SetExtContextMenuHandler(FolderContextMenu);
			folderTree.SetExtDragDroppedHandler(MessagesDragDropped);
			tree := folderTree.GetTree();
			tree.Acquire();
			нов(root);
			tree.SetRoot(root);
			tree.SetNodeCaption(root, Strings.NewString("Folders"));
			tree.Release();
			panel.AddContent(folderTree);

			(* --- messagePanel --- *)
			нов(messagePanel);
			messagePanel.alignment.Set(WMComponents.AlignClient);
			messagePanel.bounds.SetWidth(824);
			messagePanel.fillColor.Set(цел32(0CCCCCCFFH));
			panel.AddContent(messagePanel);

			нов(messageGrid);
			messageGrid.alignment.Set(WMComponents.AlignClient);

			messageGrid.bounds.SetWidth(824);
			messageGrid.onClickSelected.Add(DisplayMessage);
			messageGrid.SetExtContextMenuHandler(MessageContextMenu);
			messageGrid.onStartDrag.Add(MessagesStartDrag);
			messageGrid.fillColor.Set(WMGraphics.White);

			нов(colWidths, 1);
			colWidths[0] := messageGrid.bounds.GetWidth();

			messageGrid.model.Acquire;
			messageGrid.SetColSpacings(colWidths);
			messageGrid.model.SetNofCols(1);
			messageGrid.model.SetNofRows(1);
			messageGrid.fixedRows.Set(1);
			messageGrid.clFixed.Set(цел32(0C0C0C0FFH));
			messageGrid.model.SetCellText(0, 0, Strings.NewString(""));
			messageGrid.SetSelectionMode(WMGrids.GridSelectRows);
			messageGrid.showScrollX.Set(ложь);
			messageGrid.alwaysShowScrollX.Set(ложь);
			messageGrid.alwaysShowScrollY.Set(ложь);
			messageGrid.model.Release;

			messagePanel.AddContent(messageGrid);
			возврат panel;
		кон CreateForm;

		проц ButtonHandler(sender, data: динамическиТипизированныйУкль);
		нач
			если sender = address то
				Connect();
			аесли sender = connect то
				Connect();
			аесли sender = disconnect то
				Disconnect();
			аесли sender = search то
				Search();
			аесли sender = reload то
				Reload();
			аесли sender = abort то
				Abort();
			аесли sender = save то
				Save();
			аесли sender = load то
				Load();
			аесли sender = new то
				NewSend();
			аесли sender = expunge то
				Expunge();
			аесли sender = preferences то
				SetPreferences();
			аесли sender = download то
				DownloadAllMessages();
			аесли sender = switchToOffline то
				SwitchToOffline();
			аесли sender = switchToOnline то
				SwitchToOnline();
			иначе
				OutputError("An Unknown Button was pressed");
			всё;
		кон ButtonHandler;

		проц DisplayMessage(sender, data: динамическиТипизированныйУкль);
		перем
			message: IMAPClient.Message;
			mw: MessageWindow;
			i: цел32;
		нач
			если (data # НУЛЬ) и (data суть IMAPClient.Message) то
				message := data(IMAPClient.Message);
				если (message.message = НУЛЬ) и (client.status = IMAPClient.ONLINE) то
					client.abort := истина;
					i := client.FetchMessage(message);
					client.abort := ложь;
					client.timer.Wakeup();
				всё;
				если DEBUG то ЛогЯдра.пСтроку8("Display Message "); ЛогЯдра.пЦел64(i,0); ЛогЯдра.пВК_ПС(); всё;
				нов(mw, сам);
				mw.DisplayMessage(message);
			иначе
				OutputError("Display Message NOT possible because your selection was invalid");
			всё;
		кон DisplayMessage;

		проц ChangeFolder(sender, data: динамическиТипизированныйУкль);
		перем
			folder: IMAPClient.Folder;
			treeNode: WMTrees.TreeNode;
			p: динамическиТипизированныйУкль;
			i: цел32;
		нач
			если (data # НУЛЬ) и (data суть WMTrees.TreeNode) то
				treeNode := data(WMTrees.TreeNode);
				p := tree.GetNodeData(treeNode);
				если p = НУЛЬ то возврат; всё;
				folder := p(IMAPClient.Folder);
				если DEBUG то ЛогЯдра.пСтроку8("Change Folder: folder name: "); ЛогЯдра.пСтроку8(folder.name^); ЛогЯдра.пВК_ПС(); всё;
				client.userAbort := ложь;
				client.abort := истина;
				i := client.SelectFolder(folder);
				client.abort := ложь;
				client.timer.Wakeup();
				client.applySearchFilter := ложь;
			всё;
			messageGrid.Acquire;
			messageGrid.SetTopPosition(0,0,истина);
			messageGrid.Release;
			RefreshDisplay();
		кон ChangeFolder;

		проц FolderContextMenu(sender : динамическиТипизированныйУкль; x, y: размерМЗ);
		перем
			p: динамическиТипизированныйУкль;
			folder: IMAPClient.Folder;
			selected: WMTrees.TreeNode;
		нач
			(* find selected Node *)
			selected := folderTree.GetNodeAtPos(x,y);
			tree.Acquire;
			p := tree.GetNodeData(selected);
			если p # НУЛЬ то
				folder := p(IMAPClient.Folder);
				если DEBUG то ЛогЯдра.пСтроку8("Folder Name: "); ЛогЯдра.пСтроку8(folder.name^); ЛогЯдра.пВК_ПС(); всё;
				нов(popup);
				popup.AddParButton("Create Sub-Folder", CreateDir, folder);
				popup.AddParButton("Rename", RenameDir, folder);
				popup.AddParButton("Delete", DeleteDir, folder);
				popup.AddParButton("Select as Copy-Target", TargetDir, folder);
				popup.AddParButton("Select as Sent Folder", SentFolder, folder);
				popup.AddParButton("Select as Draft Folder", DraftFolder, folder);
				popup.AddParButton("Select as Trash Bin", TrashBin, folder);
				folderTree.ToWMCoordinates(x, y, px, py);
				popup.Popup(px, py);
			иначе
				если DEBUG то ЛогЯдра.пСтроку8("No Folder Selected"); ЛогЯдра.пВК_ПС(); всё;
			всё;
			tree.Release;
		кон FolderContextMenu;

		проц CreateDir(sender, data: динамическиТипизированныйУкль);
		перем
			name : массив 128 из симв8;
			folder: IMAPClient.Folder;
			r: цел32;
		нач
			если (data # НУЛЬ) и (data суть IMAPClient.Folder) то
				folder := data(IMAPClient.Folder);
				копируйСтрокуДо0("NewFolder", name);
				если WMDialogs.QueryString("Create Folder: ", name) = WMDialogs.ResOk то
					если DEBUG то ЛогЯдра.пСтроку8("Creating Folder: "); ЛогЯдра.пСтроку8(name); ЛогЯдра.пВК_ПС; всё;
					client.abort := истина;
					r := client.Create(folder, name);
					client.abort := ложь;
					RefreshDisplay();
				всё;
			всё;
		кон CreateDir;

		проц RenameDir(sender, data: динамическиТипизированныйУкль);
		перем
			folder: IMAPClient.Folder;
			name : массив 128 из симв8;
			r: цел32;
		нач
			если (data # НУЛЬ) и (data суть IMAPClient.Folder) то
				folder := data(IMAPClient.Folder);

				копируйСтрокуДо0("NewName", name);
				если WMDialogs.QueryString("Rename Folder: ", name) = WMDialogs.ResOk то
					если DEBUG то ЛогЯдра.пСтроку8("Renaming Folder: "); ЛогЯдра.пСтроку8(folder.name^); ЛогЯдра.пСтроку8(" to "); ЛогЯдра.пСтроку8(name); ЛогЯдра.пВК_ПС; всё;
					client.abort := истина;
					r := client.Rename(folder, name);
					client.abort := ложь;
					client.timer.Wakeup();
					RefreshDisplay();
				всё
			всё;
		кон RenameDir;

		проц DeleteDir(sender, data: динамическиТипизированныйУкль);
		перем
			folder: IMAPClient.Folder;
			r: цел32;
			buffer: Strings.Buffer;
			w: Потоки.Писарь;
			string: String;
		нач
			если (data # НУЛЬ) и (data суть IMAPClient.Folder) то
				folder := data(IMAPClient.Folder);
				нов(buffer, 16);
				w := buffer.GetWriter();
				w.пСтроку8("Do you want to delete the folder: ");
				w.пСтроку8(folder.name^);
				string := buffer.GetString();
				r := WMDialogs.Confirmation("Confirm deleting folder", string^);
				если r = WMDialogs.ResYes то
					client.abort := истина;
					r := client.Delete(folder);
					client.abort := ложь;
					client.timer.Wakeup();
				всё;
			всё;
			RefreshDisplay();
		кон DeleteDir;

		проц TargetDir(sender, data: динамическиТипизированныйУкль);
		перем
			path: String;
		нач
			если (data # НУЛЬ) и (data суть IMAPClient.Folder) то
				copyTarget := data(IMAPClient.Folder);
				path := copyTarget.GetPath();
				если DEBUG то ЛогЯдра.пСтроку8("Copy-Target selected: "); ЛогЯдра.пСтроку8(path^); ЛогЯдра.пВК_ПС(); всё;
			иначе
				если DEBUG то ЛогЯдра.пСтроку8("No Copy-Target selected."); ЛогЯдра.пВК_ПС(); всё;
			всё;
		кон TargetDir;

		проц SentFolder(sender, data: динамическиТипизированныйУкль);
		перем
			path: String;
			folder: IMAPClient.Folder;
		нач
			если (data # НУЛЬ) и (data суть IMAPClient.Folder) то
				folder := data(IMAPClient.Folder);
				path := folder.GetPath();
				client.preferences.SentFolder := path;
				если DEBUG то ЛогЯдра.пСтроку8("Sent Folder selected: "); ЛогЯдра.пСтроку8(path^); ЛогЯдра.пВК_ПС(); всё;
			иначе
				если DEBUG то ЛогЯдра.пСтроку8("No Sent Folder selected."); ЛогЯдра.пВК_ПС(); всё;
			всё;
		кон SentFolder;

		проц DraftFolder(sender, data: динамическиТипизированныйУкль);
		перем
			path: String;
			folder: IMAPClient.Folder;
		нач
			если (data # НУЛЬ) и (data суть IMAPClient.Folder) то
				folder := data(IMAPClient.Folder);
				path := folder.GetPath();
				client.preferences.DraftFolder := path;
				если DEBUG то ЛогЯдра.пСтроку8("Draft Folder selected: "); ЛогЯдра.пСтроку8(path^); ЛогЯдра.пВК_ПС(); всё;
			иначе
				если DEBUG то ЛогЯдра.пСтроку8("No Draft Folder selected."); ЛогЯдра.пВК_ПС(); всё;
			всё;
		кон DraftFolder;

		проц TrashBin(sender, data: динамическиТипизированныйУкль);
		перем
			path: String;
			folder: IMAPClient.Folder;
		нач
			если (data # НУЛЬ) и (data суть IMAPClient.Folder) то
				folder := data(IMAPClient.Folder);
				path := folder.GetPath();
				client.preferences.TrashBin := path;
				client.preferences.UseATrashBin := истина;
				если DEBUG то ЛогЯдра.пСтроку8("Trash Bin selected: "); ЛогЯдра.пСтроку8(path^); ЛогЯдра.пВК_ПС(); всё;
			иначе
				если DEBUG то ЛогЯдра.пСтроку8("No Trash Bin selected."); ЛогЯдра.пВК_ПС(); всё;
			всё;
		кон TrashBin;

		проц MessagesDragDropped(x, y : размерМЗ; dragInfo : WMWindowManager.DragInfo; перем handled : булево);
		перем
			selected: WMTrees.TreeNode;
			p: динамическиТипизированныйУкль;
			folder: IMAPClient.Folder;
			list: Classes.List;
			i, r: цел32;
			message: IMAPClient.Message;
			successful: булево;
			path: String;
		нач
			handled := истина;
			если DEBUG то ЛогЯдра.пСтроку8("MessagesDragDropped"); ЛогЯдра.пВК_ПС(); всё;
			selected := folderTree.GetNodeAtPos(x,y);
			tree.Acquire;
			p := tree.GetNodeData(selected);
			tree.Release;

			если p # НУЛЬ то
				folder := p(IMAPClient.Folder);
				если DEBUG то ЛогЯдра.пСтроку8("Folder Name: "); ЛогЯдра.пСтроку8(folder.name^); ЛогЯдра.пВК_ПС(); всё;
			иначе
				если DEBUG то ЛогЯдра.пСтроку8("Folder NIL: "); ЛогЯдра.пВК_ПС(); всё;
			всё;
			p := dragInfo.data;
			если p суть Classes.List то
				если DEBUG то ЛогЯдра.пСтроку8("Classes.List"); ЛогЯдра.пВК_ПС(); всё;
				list := p(Classes.List);
				i := 0;
				client.abort := истина;
				successful := истина;
				нцПока i < list.GetCount() делай
					p := list.GetItem(i);
					message := p(IMAPClient.Message);
					path := folder.GetPath();
					r := client.CopyMessage(message, path);
					если (r = IMAPClient.OK) и client.preferences.UseDragNDropAsMove то
						r := client.DeleteMessage(message, client.preferences.ExpungeOnMove);
					иначе
						successful := ложь;
					всё;
					увел(i);
				кц;
				если successful и client.preferences.ExpungeOnMove то
					r := client.Expunge();
				всё;
				client.abort := ложь;
				client.timer.Wakeup();
			иначе
				если DEBUG то ЛогЯдра.пСтроку8("Not Classes.List "); ЛогЯдра.пВК_ПС(); всё;
			всё;
		кон MessagesDragDropped;

		проц MessagesStartDrag(sender,data: динамическиТипизированныйУкль);
		перем
			list: Classes.List;
			img : WMGraphics.Image;
			c : WMGraphics.BufferCanvas;
			top: цел32;
			i: размерМЗ;
			p: динамическиТипизированныйУкль;
			message: IMAPClient.Message;
		нач
			если DEBUG то ЛогЯдра.пСтроку8("In MessageStartDrag"); ЛогЯдра.пВК_ПС(); всё;
			list := GetMessageSelection();
			(* render to bitmap *)
			нов(img);	Raster.Create(img, 100, 200, Raster.BGRA8888);
			нов(c, img);
			c.SetColor(цел32(0FFFF00FFH));
			top := 0;
			нцДля i := 0 до list.GetCount() - 1 делай
				c.Fill(WMRectangles.MakeRect(0, top, 100, top + 25), 0FF80H, WMGraphics.ModeCopy);
				p := list.GetItem(i);
				message := p(IMAPClient.Message);
				c.DrawString(3, top + 20, message.header.subject^);
				увел(top, 25)
			кц;
			если messageGrid.StartDrag(list, img, 0,0,DragArrivedList, НУЛЬ) то
				если DEBUG то ЛогЯдра.пСтроку8("DraggingStarted"); ЛогЯдра.пВК_ПС(); всё;
			иначе
				если DEBUG то ЛогЯдра.пСтроку8("Drag could not be started"); ЛогЯдра.пВК_ПС(); всё;
			всё;
		кон MessagesStartDrag;

		проц DragArrivedList(sender, data : динамическиТипизированныйУкль);
		нач
			если DEBUG то ЛогЯдра.пСтроку8("DragArrivedList"); ЛогЯдра.пВК_ПС(); всё;
			если sender = tree то
				ЛогЯдра.пСтроку8("TREE"); ЛогЯдра.пВК_ПС();
			иначе
				ЛогЯдра.пСтроку8("Unknown"); ЛогЯдра.пВК_ПС();
			всё;
			если data суть Classes.List то
				ЛогЯдра.пСтроку8("data vom Type List"); ЛогЯдра.пВК_ПС();
			иначе
				ЛогЯдра.пСтроку8("data nicht vom Type List"); ЛогЯдра.пВК_ПС();
			всё;
		кон DragArrivedList;

		проц MessageContextMenu(sender : динамическиТипизированныйУкль; x, y: размерМЗ);
		перем
			list: Classes.List;
		нач
			px := x; py := y;
			нов(popup);

			list := GetMessageSelection();
			если list.GetCount() > 0 то
				popup.AddParButton("Copy to Target", CopyMessages, list);
				popup.AddParButton("Delete", DeleteMessages, list);
				popup.AddParButton("Restore", RestoreMessages, list);
			всё;
			messageGrid.ToWMCoordinates(x, y, px, py);
			popup.Popup(px, py);
		кон MessageContextMenu;

		проц GetMessageSelection() : Classes.List;
		перем selection : Classes.List;
			l, t, r, b, NofSel, i : размерМЗ;
			p : динамическиТипизированныйУкль;
			message: IMAPClient.Message;
		нач
			messageGrid.model.Acquire;
			messageGrid.GetSelection(l, t, r, b);
			NofSel:= b- t + 1;
			если NofSel > 0 то
				нов(selection);
				i := t;
				нцПока i <= b делай
					p := messageGrid.model.GetCellData(0, i);
					если (p # НУЛЬ) и (p суть IMAPClient.Message) то
						message := p(IMAPClient.Message);
						selection.Add(message);
					всё;
					увел(i);
				кц;
			всё;
			messageGrid.model.Release;
			возврат selection
		кон GetMessageSelection;

		проц CopyMessages(sender, data: динамическиТипизированныйУкль);
		перем
			list: Classes.List;
			i, r: цел32;
			p: динамическиТипизированныйУкль;
			message: IMAPClient.Message;
			path: String;
		нач
			если copyTarget # НУЛЬ то
				list := data(Classes.List);
				i := 0;
				client.abort := истина;
				нцПока i < list.GetCount() делай
					p := list.GetItem(i);
					message := p(IMAPClient.Message);
					path := copyTarget.GetPath();
					r := client.CopyMessage(message, path);
					увел(i);
				кц;
				client.abort := ложь;
				client.timer.Wakeup();
			иначе
				OutputError("Copy NOT possible because there is no copy Target selected");
			всё;
		кон CopyMessages;

		проц DeleteMessages(sender, data: динамическиТипизированныйУкль);
		перем
			list: Classes.List;
			i, r: цел32;
			p: динамическиТипизированныйУкль;
			message: IMAPClient.Message;
		нач
			list := data(Classes.List);
			если list # НУЛЬ то
				i := 0;
				client.abort := истина;
				если DEBUG то ЛогЯдра.пСтроку8("Delete "); ЛогЯдра.пЦел64(list.GetCount(),0); ЛогЯдра.пСтроку8(" messages."); ЛогЯдра.пВК_ПС(); всё;
				нцПока i < list.GetCount() делай
					p := list.GetItem(i);
					message := p(IMAPClient.Message);
					если (client.preferences.UseATrashBin) то
						r := client.MoveMessageToTrashBin(message);
					иначе
						r := client.DeleteMessage(message, client.preferences.ExpungeOnDelete);
					всё;
					увел(i);
				кц;
				client.abort := ложь;
				client.timer.Wakeup();
			всё;
		кон DeleteMessages;

		проц RestoreMessages(sender, data: динамическиТипизированныйУкль);
		перем
			list: Classes.List;
			i, r: цел32;
			p: динамическиТипизированныйУкль;
			message: IMAPClient.Message;
		нач
			list := data(Classes.List);
			если list # НУЛЬ то
				i := 0;
				client.abort := истина;
				если DEBUG то ЛогЯдра.пСтроку8("Restore "); ЛогЯдра.пЦел64(list.GetCount(),0); ЛогЯдра.пСтроку8(" messages."); ЛогЯдра.пВК_ПС(); всё;
				нцПока i < list.GetCount() делай
					p := list.GetItem(i);
					message := p(IMAPClient.Message);
					r := client.RestoreMessage(message);
					увел(i);
				кц;
				client.abort := ложь;
				client.timer.Wakeup();
			всё;
		кон RestoreMessages;

		проц Connect;
		перем user, pass: массив 1000 из симв8;
			host: String;
			r: цел32;
		нач
			IMAPUtilities.TextToStr(address.text, host);
			если (host^ = "") то
				OutputError("Server not specified");
				возврат;
			всё;
			IMAPUtilities.StringCopy(client.preferences.UserName^, 0, IMAPUtilities.StringLength(client.preferences.UserName^), user);
			если WMDialogs.QueryString("Enter Username:", user) = WMDialogs.ResOk то
				если WMDialogs.QueryPassword("Enter Password", pass) = WMDialogs.ResOk то
					Disconnect();
					r := client.Connect(host^, user, pass);
				всё;
			всё;
		кон Connect;

		проц Disconnect;
		нач
			client.abort := истина;
			client.Disconnect();
			client.abort := ложь;
		кон Disconnect;

		проц Reload;
		нач
			client.applySearchFilter := ложь;
			client.userAbort := ложь;
			client.abort := ложь;
			client.timer.Wakeup();
		кон Reload;

		проц Abort;
		нач
			client.userAbort := истина;
			client.abort := истина;
		кон Abort;

		проц Search;
		перем
			sw: SearchWindow;
		нач
			если (client.status # IMAPClient.OK) и (client.status # IMAPClient.OFFLINE) то
				OutputError("Search not applicable because Client not connected.");
				возврат;
			всё;
			если client.currentFolder.Noselect то
				OutputError("Search not applicable because Client not in Selected State.");
				возврат;
			всё;
			нов(sw, сам);
		кон Search;

		проц Save;
		перем
			sw: SaveWindow;
			filename: String;
			doc: XML.Document;
			file: Files.File;
			fw: Files.Writer;
			r: цел32;
		нач
			если (client.status # IMAPClient.ONLINE) и (client.status # IMAPClient.OFFLINE) то
				OutputError("Save is not applicable because you are disconnected");
				возврат;
			всё;
			нов(sw);
			sw.GetAnswer(filename);
			если filename = НУЛЬ то
				возврат;
			всё;

			r := client.Save(doc);
			если DEBUG то ЛогЯдра.пСтроку8("Save finished"); ЛогЯдра.пВК_ПС(); всё;
			file := Files.New(filename^);
			если file # НУЛЬ то
				Files.OpenWriter(fw, file, 0);
				doc.Write(fw, НУЛЬ, 0);
				fw.ПротолкниБуферВПоток();
				Files.Register(file);
				если DEBUG то ЛогЯдра.пСтроку8("Writing File successful"); ЛогЯдра.пВК_ПС(); 	всё;
			иначе
				OutputError("Writing File failed");
			всё;
		кон Save;

		проц NewSend;
		перем
			mw: MessageWindow;
		нач
			нов(mw, сам);
			mw.NewMessage();
		кон NewSend;

		проц Expunge;
		перем
			r: цел32;
		нач
			если client.status = IMAPClient.ONLINE то
				r := WMDialogs.Confirmation("Confirm Expunge", "Do you really want to expunge the deleted Messages?");
				если r = WMDialogs.ResYes то
					r := client.Expunge();
				всё;
			всё;
		кон Expunge;

		проц DownloadAllMessages;
		нач
			если client.status # IMAPClient.ONLINE то
				OutputError("The client is not online");
				возврат;
			всё;
			client.abort := ложь;
			client.userAbort := ложь;
			client.Task := IMAPClient.TLoadAllMessages;
			client.timer.Wakeup();
		кон DownloadAllMessages;

		проц SwitchToOffline;
		нач
			client.SwitchToOffline();
		кон SwitchToOffline;

		проц SwitchToOnline;
		перем
			pass: массив 1000 из симв8;
		нач
			если DEBUG то 	ЛогЯдра.пСтроку8("GUI: switch to online"); ЛогЯдра.пВК_ПС(); всё;
			если WMDialogs.QueryPassword("Enter Password", pass) = WMDialogs.ResOk то
				client.SwitchToOnline(pass);
			всё;
		кон SwitchToOnline;

		проц Load;
		перем
			lw: LoadWindow;
			filename: String;
			offline: булево;
			file: Files.File;
			fr: Files.Reader;
			string: String;
			r: цел32;
			scanner: XMLScanner.Scanner;
			parser: XMLParser.Parser;
			document: XML.Document;
			element: XML.Element;
			server, user: String;
			pass: массив 1000 из симв8;
		нач
			нов(lw);
			lw.GetAnswer(filename, offline);
			если filename # НУЛЬ то
				если DEBUG то 	ЛогЯдра.пСтроку8("start loading"); ЛогЯдра.пВК_ПС(); всё;
				Disconnect();
				file := Files.Old(filename^);
				если file # НУЛЬ то
					если DEBUG то 	ЛогЯдра.пСтроку8("start scanning and parsing..."); ЛогЯдра.пВК_ПС(); всё;
					Files.OpenReader(fr, file, 0);
					нов(scanner, fr);
					нов(parser, scanner);
					document := parser.Parse();
					element := document.GetRoot();
					string := element.GetName();
					если string^ # "account" то
						OutputError("The file is not compatible it doesn't start with the account tag");
						возврат;
					всё;

					если offline то
						Disconnect();
						r := client.Load(document);
						RefreshDisplay();
					иначе
						если WMDialogs.QueryPassword("Enter Password", pass) = WMDialogs.ResOk то
							Disconnect();
							r := client.Load(document);
							если r = IMAPClient.OK то
								server := client.preferences.IMAPServer;
								user := client.preferences.UserName;
								r := client.Connect(server^, user^, pass);
								если DEBUG то 	ЛогЯдра.пСтроку8("CONNECT RETURN = "); ЛогЯдра.пЦел64(r,0); ЛогЯдра.пВК_ПС(); всё;
								IMAPUtilities.SetEditorText(address, server);
							всё;
							RefreshDisplay();
						всё;
					всё;
				иначе
					OutputError("Reading the file failed.");
				всё;
			всё;
		кон Load;

		проц SetPreferences;
		перем
			pw: PreferencesWindow;
		нач
			нов(pw, сам);
		кон SetPreferences;

		проц {перекрыта}Handle*(перем x: WMMessages.Message);
		нач
			если (x.msgType = WMMessages.MsgExt) и (x.ext # НУЛЬ) то
				если(x.ext суть KillerMsg) то
					Close();
				аесли (x.ext суть WMRestorable.Storage) то
					x.ext(WMRestorable.Storage).Add("Window", "IMAPGUI.Restore", сам, НУЛЬ);
				иначе
					Handle^(x);
				всё;
			иначе
				Handle^(x);
			всё;
		кон Handle;

		проц {перекрыта}Close*;
		нач
			client.abort := истина;
			client.Close();
			active := ложь;
			timer.Wakeup();
			Close^;
			DecCount();
		кон Close;

		проц DisplayCurrentFolder;
		нач
			UpdateFolders();
			UpdateMessages();
			UpdateStatusLabels();
		кон DisplayCurrentFolder;

		(* updates all the labels (statusLabel, currentFolderLabel, currentMessagesLabel) *)
		проц UpdateStatusLabels;
		перем
			status, currentWork: цел32;
			nofMessages: размерМЗ;
			buffer: Strings.Buffer;
			w: Потоки.Писарь;
			string: String;
		нач
			(* currentFolderLabel *)
			нов(buffer, 16);
			w := buffer.GetWriter();
			w.пСтроку8("Current Folder: ");
			если IMAPUtilities.StringLength(client.currentFolder.path^) # 0 то
				w.пСтроку8(client.currentFolder.path^);
				w.пСимв8(client.currentFolder.hierarchyDelimiter);
			всё;
			w.пСтроку8(client.currentFolder.name^);
			string := buffer.GetString();
			currentFolderLabel.caption.SetAOC(string^);

			(* currentMessagesLabel *)
			нов(buffer, 16);
			w := buffer.GetWriter();
			w.пСтроку8("Current Messages: ");
			messageGrid.model.Acquire;
			nofMessages := messageGrid.model.GetNofRows() - 1;
			если client.currentFolder.Noselect то
				nofMessages := 0;
			всё;
			w.пЦел64(nofMessages, 0);
			messageGrid.model.Release;
			string := buffer.GetString();
			currentMessagesLabel.caption.SetAOC(string^);

			(* statusLabel *)
			status := client.status;
			currentWork := client.currentWork;
			нов(buffer, 16);
			w := buffer.GetWriter();
			w.пСтроку8("Status: ");
			если client.status = IMAPClient.ONLINE то
				w.пСтроку8("online. ");
			аесли client.status = IMAPClient.OFFLINE то
				w.пСтроку8("offline. ");
			иначе
				w.пСтроку8("disconnected. ");
			всё;
			если (status = IMAPClient.ONLINE) или (status = IMAPClient.OFFLINE) то
				w.пСтроку8("Current Work: ");
				если currentWork = IMAPClient.CWFINISHED то
					w.пСтроку8("Finished");
				аесли currentWork = IMAPClient.CWCONNECTING то
					w.пСтроку8("Connecting...");
				аесли currentWork = IMAPClient.CWLOADING то
					w.пСтроку8("Loading...");
				аесли currentWork = IMAPClient.CWCREATING то
					w.пСтроку8("Creating Mailbox...");
				аесли currentWork = IMAPClient.CWRENAMING то
					w.пСтроку8("Renaming Mailbox...");
				аесли currentWork = IMAPClient.CWDELETINGFOLDER то
					w.пСтроку8("Deleting Mailbox...");
				аесли currentWork = IMAPClient.CWSEARCHING то
					w.пСтроку8("Searching...");
				аесли currentWork = IMAPClient.CWCOPYING то
					w.пСтроку8("Copying Message...");
				аесли currentWork = IMAPClient.CWDELETINGMESSAGE то
					w.пСтроку8("Deleting Message...");
				аесли currentWork = IMAPClient.CWAPPENDING то
					w.пСтроку8("Saving Message...");
				аесли currentWork = IMAPClient.CWCLOSING то
					w.пСтроку8("Closing Client...");
				аесли currentWork = IMAPClient.CWSAVINGACCOUNT то
					w.пСтроку8("Saving Account...");
				аесли currentWork = IMAPClient.CWLOADINGACCOUNT то
					w.пСтроку8("Loading Account...");
				аесли currentWork = IMAPClient.CWPOLLING то
					w.пСтроку8("Polling...");
				аесли currentWork = IMAPClient.CWEXPUNGING то
					w.пСтроку8("Expunging...");
				аесли currentWork = IMAPClient.CWRESTORING то
					w.пСтроку8("Restoring...");
				всё;
			всё;
			string := buffer.GetString();
			statusLabel.caption.SetAOC(string^);
		кон UpdateStatusLabels;

		проц UpdateFolders;
		перем
			root: WMTrees.TreeNode;
			i: цел32;
			p: динамическиТипизированныйУкль;
			folder: IMAPClient.Folder;
			state: мнвоНаБитахМЗ;

			проц UpdateSub(parent: WMTrees.TreeNode; folder:IMAPClient.Folder);
			перем
				node, child: WMTrees.TreeNode;
				i: цел32;
				sub: динамическиТипизированныйУкль;
				subFolder: IMAPClient.Folder;
				childData: динамическиТипизированныйУкль;
				childFolder: IMAPClient.Folder;
				present: булево;
				name: String;
			нач
				(* check if already present *)
				present := ложь;
				child := tree.GetChildren(parent);
				нцПока (child # НУЛЬ) и (present = ложь) делай
					childData := tree.GetNodeData(child);
					childFolder := childData(IMAPClient.Folder);
					если childFolder = folder то
						present := истина;
						node := child;
					всё;
					child := tree.GetNextSibling(child);
				кц;
				(* add if not present *)
				если present = ложь то
					нов(node);
					tree.AddChildNode(parent, node);
					name := IMAPUtilities.NewString(folder.name^);
					IMAPUtilities.replaceEncodedFolderName(name);
					tree.SetNodeCaption(node, name);
					tree.SetNodeData(node, folder);
				всё;

				(* add Subfolders *)
				i := 0;
				нцПока i < folder.children.GetCount() делай
					sub := folder.children.GetItem(i);
					subFolder := sub(IMAPClient.Folder);
					UpdateSub(node, subFolder);
					увел(i);
				кц;

				(* remove nodes that don't have a folder in the client's folderstructure anymore *)
				RemoveOldSubNodes(node);
			кон UpdateSub;

			проц RemoveOldSubNodes(node: WMTrees.TreeNode);
			перем
				child, nextSibling: WMTrees.TreeNode;
				childFolder: IMAPClient.Folder;
				p: динамическиТипизированныйУкль;
				folder: IMAPClient.Folder;
				subFolders: Classes.List;
				subFolder: IMAPClient.Folder;
				i: цел32;
				found: булево;
			нач
				p := tree.GetNodeData(node);
				folder := p(IMAPClient.Folder);
				subFolders:= folder.children;
				child := tree.GetChildren(node);
				нцПока child # НУЛЬ делай
					p := tree.GetNodeData(child);
					childFolder := p(IMAPClient.Folder);
					found := ложь;
					(* search corresponding folder *)
					i := 0;
					нцПока (i < subFolders.GetCount()) и ~found делай
						p := subFolders.GetItem(i);
						subFolder := p(IMAPClient.Folder);
						если subFolder = childFolder то
							found := истина;
						всё;
						увел(i);
					кц;
					nextSibling := tree.GetNextSibling(child);
					если ~found то
						tree.RemoveNode(child);
					всё;
					child := nextSibling;
				кц;
			кон RemoveOldSubNodes;

		нач
			tree.Acquire();
			root := tree.GetRoot();
			tree.SetNodeData(root, client.mailboxContent);
			state := {WMTrees.NodeAlwaysExpanded};
			tree.SetNodeState(root, state);
			i := 0;
			нцПока i < client.mailboxContent.children.GetCount() делай
				p := client.mailboxContent.children.GetItem(i);
				folder := p(IMAPClient.Folder);
				UpdateSub(root, folder);
				увел(i);
			кц;
			RemoveOldSubNodes(root);
			tree.Release();
		кон UpdateFolders;

		проц UpdateMessages;
		перем
			i: размерМЗ; count: цел32;
			message: IMAPClient.Message;
			messageP: динамическиТипизированныйУкль;
			header: IMAPClient.HeaderElement;
			list: Classes.List;
			address: IMAPUtilities.Address;
			addressP: динамическиТипизированныйУкль;
			buffer: Strings.Buffer;
			w: Потоки.Писарь;
			string: String;
			bResizeGrid: булево;
			sortedList: Classes.SortedList;

			проц Display(row: цел32; message: IMAPClient.Message);
			нач
				если message.header # НУЛЬ то
					list := message.header.from;
					если list # НУЛЬ то
						если list.GetCount() > 0 то
							addressP := list.GetItem(0);
							address := addressP(IMAPUtilities.Address);
							если address.realName^ # "" то
								IMAPUtilities.replaceEncodedHeaderWord(address.realName^);
								string := IMAPUtilities.NewString(address.realName^);
							иначе
								нов(buffer, 16);
								w := buffer.GetWriter();
								w.пСтроку8("<");
								w.пСтроку8(address.namePart^);
								w.пСтроку8("@");
								w.пСтроку8(address.domainPart^);
								w.пСтроку8(">");
								string := buffer.GetString();
							всё;
						иначе
							string := Strings.NewString("");
						всё;
					иначе
						string := Strings.NewString("");
					всё;
					messageGrid.model.SetCellText(0, row+1, string);
					если message.flags.deleted то
						messageGrid.model.SetCellImage(0, row+1, IconDeleted);
					иначе
						если ~message.flags.seen то
							messageGrid.model.SetCellImage(0, row+1, IconUnread);
						иначе
							если message.flags.answered то
								messageGrid.model.SetCellImage(0, row+1, IconAnswered);
							иначе
								messageGrid.model.SetCellImage(0, row+1, IconRead);
							всё;
						всё;
					всё;
					messageGrid.model.SetCellData(0, row+1, message);

					если message.header.subject # НУЛЬ то
						IMAPUtilities.replaceEncodedHeaderWord(message.header.subject^);
						string := Strings.NewString(message.header.subject^);
						messageGrid.model.SetCellText(1, row+1, string);
						messageGrid.model.SetCellData(1, row+1, message);
					всё;
					если message.internalDate # НУЛЬ то
						messageGrid.model.SetCellText(2, row+1, Strings.NewString(message.internalDate^));
						messageGrid.model.SetCellData(2, row+1, message);
					всё;
					нов(buffer, 16);
					w := buffer.GetWriter();
					w.пЦел64(message.size,0);
					string := buffer.GetString();
					messageGrid.model.SetCellText(3, row+1, string);
					messageGrid.model.SetCellData(3, row+1, message);
				всё;
			кон Display;

		нач
			bResizeGrid := ложь;
			если client.currentFolder.Noselect то
				messageGrid.model.Acquire;
				если messageGrid.model.GetNofCols() # 1 то
					bResizeGrid := истина;
					нов(colWidths, 1);
					messageGrid.model.SetNofRows(2);
					messageGrid.model.SetNofCols(1);
					messageGrid.model.SetCellText(0, 0, Strings.NewString(""));
					messageGrid.model.SetCellData(0, 0, НУЛЬ);
					messageGrid.model.SetCellImage(0, 1, НУЛЬ);
					messageGrid.model.SetCellText(0, 1, Strings.NewString("This Mailbox is not selectable and does not contain any mail."));
					messageGrid.model.SetCellData(0, 1, НУЛЬ);
				всё;
				messageGrid.model.Release;
			иначе
				messageGrid.model.Acquire;
				если messageGrid.model.GetNofCols() # 4 то
					bResizeGrid := истина;
					нов(colWidths, 4);
					messageGrid.model.SetNofCols(4); (* From, Subject, Date, Size *)
					messageGrid.model.SetNofRows(1);
					messageGrid.model.SetCellText(0, 0, Strings.NewString("From"));
					messageGrid.model.SetCellData(0, 0, НУЛЬ);
					messageGrid.model.SetCellText(1, 0, Strings.NewString("Subject"));
					messageGrid.model.SetCellData(1, 0, НУЛЬ);
					messageGrid.model.SetCellText(2, 0, Strings.NewString("Date"));
					messageGrid.model.SetCellData(2, 0, НУЛЬ);
					messageGrid.model.SetCellText(3, 0, Strings.NewString("Size"));
					messageGrid.model.SetCellData(3, 0, НУЛЬ);
					messageGrid.bounds.SetHeight(messageGrid.bounds.GetHeight()-20);
				всё;
				messageGrid.model.Release;

				нов(sortedList, IMAPClient.OldestFirst);
				если client.applySearchFilter = истина то
					i := длинаМассива(client.searchResult) -1;
					нцПока i >= 0 делай
						messageP := client.currentFolder.messages.GetItem(client.searchResult[i]);
						message := messageP(IMAPClient.Message);
						sortedList.Add(message);
						умень(i);
					кц;
				иначе
					i := client.currentFolder.messages.GetCount() - 1;
					нцПока i >= 0 делай
						messageP := client.currentFolder.messages.GetItem(i);
						message := messageP(IMAPClient.Message);
						sortedList.Add(message);
						умень(i);
					кц;
				всё;

				i := 0;
				count := 0;
				messageGrid.model.Acquire;
				если sortedList.GetCount() = 0 то
					bResizeGrid := истина;
					messageGrid.model.SetNofRows(1);
					если DEBUG то ЛогЯдра.пСтроку8("keine Nachrichten"); ЛогЯдра.пВК_ПС(); всё;
				всё;
				нцПока i < sortedList.GetCount() делай
					messageP := sortedList.GetItem(i);
					message := messageP(IMAPClient.Message);
					header := message.header;

					если (header # НУЛЬ) то
						messageGrid.model.SetNofRows(count + 2);
						Display(count, message);
						увел(count);
					всё;
					увел(i);
				кц;
				messageGrid.model.Release;
			всё;
			если bResizeGrid то ResizeGrid(); всё;
		кон UpdateMessages;

		проц RefreshDisplay;
		нач
			updateFlag := истина;
			timer.Wakeup();
		кон RefreshDisplay;

		нач {активное} (* keepalive *)
		нов(timer);
		нцПока active делай
			timer.Sleep(REFRESHTIME);
			если DEBUG то ЛогЯдра.пСтроку8("+"); всё;
			если (client.status = IMAPClient.DISCONNECTED) или (client.status = IMAPClient.DEAD) то
				UpdateFolders();
				messageGrid.model.Acquire;
				нов(colWidths, 1);
				colWidths[0] := messageGrid.bounds.GetWidth();
				messageGrid.SetColSpacings(colWidths);
				messageGrid.model.SetNofRows(1);
				messageGrid.model.SetNofCols(1);
				messageGrid.model.SetCellText(0, 0, Strings.NewString(""));
				messageGrid.model.Release;
				UpdateStatusLabels();
			иначе
				нцПока updateFlag делай
					если DEBUG то 	ЛогЯдра.пВК_ПС(); всё;
					updateFlag := ложь;
					DisplayCurrentFolder();
				кц;
			всё;
		кц (* WHILE *);
		если DEBUG то ЛогЯдра.пСтроку8("Window Activity finished-------------------------------------------------------------------"); ЛогЯдра.пВК_ПС(); всё;
	кон Window;

проц OutputError(конст error: массив из симв8);
нач
	WMDialogs.Error(WindowTitle, error);
кон OutputError;

проц Open*;
перем w: Window;
нач
	нов(w, НУЛЬ);
кон Open;

проц Restore*(context : WMRestorable.Context);
перем w : Window;
нач
	нов(w, context);
кон Restore;

проц IncCount;
нач {единолично}
	увел(nofWindows);
кон IncCount;

проц DecCount;
нач {единолично}
	умень(nofWindows);
кон DecCount;

проц Cleanup;
перем
	die: KillerMsg;
	msg: WMMessages.Message;
	m: WMWindowManager.WindowManager;
нач {единолично}
	нов(die);
	msg.ext := die;
	msg.msgType := WMMessages.MsgExt;
	m := WMWindowManager.GetDefaultManager();
	m.Broadcast(msg);
	дождись(nofWindows = 0);
кон Cleanup;

нач
	Modules.InstallTermHandler(Cleanup);
кон IMAPGUI.

IMAPGUI.Open ~

AosTools.FreeDownTo IMAPUtilities~
