модуль LisGlobal; (** AUTHOR "fof & fn"; PURPOSE "Oberon Compiler Globally Defined Symbols"; *)
(* (c) fof ETH Zürich, 2008 *)

(* Весьма вероятно, что здесь нужно глубже использовать идентификаторы, а не только их имена *)

использует
	SyntaxTree := LisSyntaxTree, Basic := FoxBasic, Scanner := LisScanner, Strings, Dates, ПереводыЭлементовКода, УтилитыДляПереводаКода := LisУтилитыДляПереводаКода, UCS32;

конст

	квоСерийКлючевыхСлов = 3;
	(* system flag names *)
	StringWinAPI* = "WINAPI"; (* также используется как значение опции компилятора *)
	StringC* = "C"; (* также используется как значение опции компилятора *)


	(* block modifier flag names *)

(* StringInstructionWidth*="InstructionWidth"; нет такого *)
	(* StringChannelWidth = "ChannelWidth";
	StringChannelDepth = "ChannelDepth"; *)
	StringChannelModule* = "Channels";

	StringSystemModule* = "SYSTEM";
	StringsystemModule* = "system";


	(* traps *)
	WithTrap* = 1;
	CaseTrap* = 2;
	ReturnTrap* = 3;
	TypeEqualTrap* = 5;
	TypeCheckTrap* = 6;
	IndexCheckTrap* = 7;
	AssertTrap* = 8;
	ArraySizeTrap* = 9;
	ArrayFormTrap*=10; (* fof: indicates that array cannot be (re-)allocated since shape, type or size does not match *)
	NoReturnTrap*=16;

	(** builtin procedures **)
	(* FoxProgTools.Enum -e -i
		(* global proper procedures *)
		Assert  Copy  Dec  Excl  Halt  Inc  Incl  New Dispose GetProcedure Connect Delegate
		Read Write Reshape Wait
		(* global functions *)
		Abs   Cap  Chr  Entier  EntierH  Incr Len  Long  Max  Min Odd  Ord  Ord32 Short  Size
		Sum Dim Cas First Last Step Re Im Ash Lsh Rot
		(* system proper procedures *)
		systemGet  systemPut  systemMove  systemNew systemRef
		systemTypeCode systemHalt
		systemPut8 systemPut16 systemPut32 systemPut64 systemTrace
		systemSetStackPointer systemSetFramePointer systemSetActivity
		(* system functions *)
		systemAdr  systemSize systemBit  systemGet64  systemGet32  systemGet16  systemGet8
		systemVal systemMsk
		systemGetStackPointer systemGetFramePointer systemGetActivity

		(* for active cells *)
		Send Receive
		(* for backend specific extensions *)
		systemSpecial
		(* compatibility with Oberon07 -- other mappings: LSL -> LSH, FLOOR -> Entier, Pack und Unpk currently unsupported *)
		Asr Ror Flt

		Conversion
		DotTimesPlus AtMulDec AtMulInc DecMul IncMul
		endFox
		~
	*)

	(* global proper procedures *)
	Assert*= Scanner.КонецТекста+1; Copy*= Assert+1; Dec*= Copy+1; Excl*= Dec+1; Halt*= Excl+1; Inc*= Halt+1; Incl*= Inc+1; New*= Incl+1; Dispose*= New+1; GetProcedure*= Dispose+1; Connect*= GetProcedure+1; Delegate*= Connect+1; Read*= Delegate+1; Write*= Read+1; Reshape*= Write+1; Wait*= Reshape+1; ВстрПроцИнспекция* = Wait+1; ВстрПроцППиши* = ВстрПроцИнспекция+1;
	(* global functions *)
	Abs*= ВстрПроцППиши+1; Cap*= Abs+1; Chr*= Cap+1; Chr32* = Chr+1; Entier*= Chr32+1; EntierH*= Entier+1; Incr*= EntierH+1; Len*= Incr+1; Long*= Len+1; Max*= Long+1; Min*= Max+1; Odd*= Min+1; Ord*= Odd+1; Ord32*= Ord+1; Short*= Ord32+1; Size*= Short+1; Sum*= Size+1; Dim*= Sum+1; Cas*= Dim+1; First*= Cas+1; Last*= First+1; Step*= Last+1; Re*= Step+1; Im*= Re+1; Ash*= Im+1; Lsh*= Ash+1; Rot*= Lsh+1;
	All* = Rot+1; Если3* = All+1;
	(* system proper procedures *)
	systemGet*= Если3+1; systemPut*= systemGet+1; systemMove*= systemPut+1; systemNew*= systemMove+1; systemRef*= systemNew+1; systemTypeCode*= systemRef+1; systemHalt*= systemTypeCode+1; systemPut8*= systemHalt+1; systemPut16*= systemPut8+1; systemPut32*= systemPut16+1; systemPut64*= systemPut32+1; systemTrace*= systemPut64+1; systemSetStackPointer*= systemTrace+1; systemSetFramePointer*= systemSetStackPointer+1; systemSetActivity*= systemSetFramePointer+1; systemЛит32* = systemSetActivity + 1; systemЛитСимв32* = systemЛит32 + 1;
	(* system functions *)
	systemAdr*= systemЛитСимв32+1; systemSize*= systemAdr+1; systemBit*= systemSize+1; systemGet64*= systemBit+1; systemGet32*= systemGet64+1; systemGet16*= systemGet32+1; systemGet8*= systemGet16+1; systemVal*= systemGet8+1; systemMsk*= systemVal+1; systemGetStackPointer*= systemMsk+1; systemGetFramePointer*= systemGetStackPointer+1; systemGetActivity*= systemGetFramePointer+1;
	(* for active cells *)
	Send*= systemGetActivity+1; Receive*= Send+1;
	(* for backend specific extensions *)
	systemSpecial*= Receive+1;
	(* shifts with fixed direction, arithmetic or logical depending on argument type *)
	Shl*= systemSpecial+1; Shr*= Shl+1;
	Rol*= Shr+1; Ror*= Rol+1;

	Flt*= Ror+1; Conversion*= Flt+1; DotTimesPlus*= Conversion+1; AtMulDec*= DotTimesPlus+1; AtMulInc*= AtMulDec+1; DecMul*= AtMulInc+1; IncMul*= DecMul+1; 
	Alias* = IncMul+1;
	
	(* Флаги, а точнее, номера их имён, видимые в глобальной области видимости *)
	
	НачалоФлагов* = 1320;
	
	(* все вот эти нужно англифицировать и превратить в соответствующие Name. 
	Соответствующие String вообще выкинуть и посмотреть, где сломается *)
	NameWinAPI* = 1321;
	NameC* = 1322;
	NamePlatformCC* = 1323;
	NameMovable* = 1324;
	NameUntraced* = 1325;
	NameUntracked* = 1326;
	NameDelegate* = 1327; (* DELEGATE *)
	NameInterrupt* = 1328;
	NamePcOffset* = 1329;
	NameInitial* = 1330; (* "ENTRY" *)
	(* Здесь был Exit, но он совпадает с Final, т.к. слово FINAL, нужно отрефакторить, 
	  глядя в исходники A2, где её переименовали в Closing и назвали модификатор CLOSING *)
	NameNoPAF* = 1331; (* NOPAF *)
	NameEntry* = 1332;
	NameFixed* = 1333;
	NameFictive* = 1334; (* FICTIVE *)
	NameAligned* = 1335; (* ALIGNED *)
	NameAlignStack* = 1336;
	NameFinal* = 1337; (* FINAL, но у неё в А2 также есть смысл Exit, а записывается одинаково как Final, значит, нам тут не очень повезло и приходится 
		брать термин «Итоговая», чтобы более-менее подходил под оба варианта использования *)
	NameAbstract* = 1338;
	NameRegister* = 1339;
	NameNoReturn* = 1340;
	NameUnsafe* = 1341; (* UNSAFE *)
	NamePlain* =  1342; (* PLAIN *)
	NameDisposable* = 1343;
	NameUnchecked* = 1344; (*UNCHECKED*)
	NameUncooperative* = 1345; (* UNCOOPERATIVE *)
	NameExclusive* = 1346; (* EXCLUSIVE *)
	NameActive* = 1347;
	NamePriority* = 1348; (* PRIORITY *)
	NameSafe* = 1349;
	NameRealtime* = 1350; (* REALTIME *)
	NameDynamic* = 1351;
	
	(* Protected*= 1240; *) (* такого нет в исходниках *)
	NameFingerprint* = 1352; (* Fingerprint *)

	(* С этого места и далее нужно разбираться, есть ли такой модификатор или нет *)
	(* StringInstructionWidth*="InstructionWidth"; такого нет *)
	NameDataMemorySize*= 1353; 
	NameCodeMemorySize*= 1354;
	
	NameПерекрыта* = 1355;
	(* StringChannelWidth*= "ChannelWidth";
	StringChannelDepth*= "ChannelDepth"; таких нет *)
	
	
	(* это не флаг, пусть остаётся строкой! *)
	(* StringChannelModule *)
	
	(* StringBaseMem*= "BaseMem";
	StringBaseDiv*= "BaseDiv"; *)
	
	NameVector*=1364;
	NameFloatingPoint*=1365;
	NameNoMul*=1366;
	NameNonBlockingIO*=1367;
	NameFrequencyDivider*=1368;
	NameEngine*=1369;
	NameTRM*=1370;
	NameTRMS*=1371;
	NameBackend*=1372;
	NameRuntime*=1373;
	
	
	
	endFox*= NameRuntime+1;

	VectorCapability* = 0;
	FloatingPointCapability*= 1;
	EngineCapability*= 2;
	TRMSCapability*= 3;
	NoMulCapability*=4;
	NonBlockingIOCapability*=5;
	maxSet64*=63; (* ищи также maxSetA *)
конст

	end = endFox + 10;

перем
	(* names *)
	SelfParameterName-,ReturnParameterName-,SystemName-,systemName-,НИЗКОУРName-,PointerReturnName-, ResultName-,
	A2Name-,ArrayBaseName-, ComplexNumbersName-, RecordBodyName-,ModuleBodyName-(*,
	NameWinAPI-,NameC-,NamePlatformCC-,NameMovable-,NameUntraced-, NameUntracked-, NameDelegate-,NameInterrupt-, NamePcOffset-, NameNoPAF-,NameEntry-, NameExit-, NameFixed-,NameFictive-, NameAligned-,NameAlignStack-,
	NameExclusive-,NameActive-,NamePriority-,NameSafe-,NameRealtime-, NameDynamic-, NameFingerprint-, NameDataMemorySize-, NameCodeMemorySize-
	, NameChannelWidth-, NameChannelDepth-, NameVector-, NameFloatingPoint-, NameNoMul-,NameNonBlockingIO-, NameTRM-, NameTRMS-, NameEngine-, NameFinal-, NameAbstract-,
	NameBackend-, NameRuntime-, NameFrequencyDivider-, NameRegister-,NameNoReturn-,NamePlain-,NameUnsafe-,NameDisposable-,NameUnchecked-,NameUncooperative- *): SyntaxTree.ИдентификаторВ_исходнике; 
	
	IdentifierChannelModule-, IdentifierEngine- : SyntaxTree.ИдентификаторВ_исходнике;
	NameGlobal-, Nameglobal: SyntaxTree.ИдентификаторВ_исходнике;
	
	identifiers: массив квоСерийКлючевыхСлов из массив end из SyntaxTree.ИдентификаторВ_исходнике;

	(* some handy type variables for backend / checker implementers *)
	Signed8-, Signed16-, Signed32-, Signed64-: SyntaxTree.ВыражˉтипИзРодаЧиселЦел;
	Unsigned8-, Unsigned16-, Unsigned32-, Unsigned64-: SyntaxTree.ВыражˉтипИзРодаЧиселЦел;
	Симв32- : SyntaxTree.ВыражˉтипИзРодаЛитер;
	Set8-, Set16-, Set32-, Set64-: SyntaxTree.МнвоType;
	Float32-, Float64-: SyntaxTree.ВыражˉтипИзРодаЧиселВещ;
	Complex32-, Complex64-: SyntaxTree.ВыражˉтипИзРодаЧиселКомплексных;

тип
	Position = SyntaxTree.МестоВ_тексте;

	Alignment* = запись
		min, max: цел32; (* alignments in bits *)
	кон;

	PassInRegisterProc = проц {делегат} (type: SyntaxTree.Выражениеˉтип): булево;

	System*= окласс
	перем
		(* system and global scopes and modules  (lowercase and uppercase each) *)
		systemScope-, globalScope-: массив квоСерийКлючевыхСлов из SyntaxTree.ВнутренняяОбластьВидимостиМодуля;
		systemModule-,globalModule-: массив квоСерийКлючевыхСлов из SyntaxTree.ДеревоМодуля;
		activeCellsCapabilities-: SyntaxTree.ОбъявлениеИменованнойСущности; (* list of supported capabilities, filled by ActiveCells specification *)

		(* addressing granularity in code and data memory *)
		codeUnit-: цел32;
		dataUnit-: цел32;
		(* alignment (variables, record entries) *)
		(* alignment (parameters & stack frames) *)
		variableAlignment-, parameterAlignment-: Alignment;
		(* offset of first parameter *)
		offsetFirstParameter-: цел32;
		offsetFirstVariable-: цел32;
		(* to determine if a builtin-procedure can be operator-overloaded *)
		operatorDefined-: массив end из булево;

		(* type sizes defined by backend *)
		addressSize-: цел32;

		(* system type mapping *)
		addressType-, sizeType-, integerType-, longIntegerType-, integerSetType-, characterType-, 
		setType64-, setTypeA-, booleanType-, anyType-, byteType-,
		realType-, complexType-, objectType-, nilType-, rangeType-: SyntaxTree.Выражениеˉтип;

		CanPassInRegister-: PassInRegisterProc;
		cellsAreObjects-: булево;
		platformCallingConvention-: SyntaxTree.КодСоглашенияОВызове;

		(* MAX values of commonly-used types *)
		maxSize-, maxSetA- (* см. также maxSet64 *): Basic.Integer;

		проц &InitSystem*(l0codeUnit, l1dataUnit: цел32; l2addressSize, minVarAlign, maxVarAlign, minParAlign, maxParAlign, offsetFirstPar, offsetFirstVar: цел32; cooperative: булево);
		перем i: цел32;
		нач
			утв(l1dataUnit > 0);
			утв(minVarAlign > 0);
			утв(maxVarAlign > 0);
			утв(minParAlign > 0);
			утв(maxParAlign > 0);
			сам.dataUnit := l1dataUnit;
			сам.codeUnit := l0codeUnit;
			сам.addressSize := l2addressSize;
			сам.variableAlignment.min := minVarAlign;
			сам.variableAlignment.max := maxVarAlign;
			сам.parameterAlignment.min := minParAlign;
			сам.parameterAlignment.max := maxParAlign;
			сам.offsetFirstParameter := offsetFirstPar;
			сам.offsetFirstVariable := offsetFirstVar;
			если cooperative то увел(сам.offsetFirstParameter,l2addressSize) всё;
			activeCellsCapabilities := НУЛЬ;
			BuildScopes(сам);
			нцДля i := 0 до длинаМассива(operatorDefined)-1 делай
				operatorDefined[i] := ложь;
			кц;
			CanPassInRegister :=НУЛЬ;
			cellsAreObjects := ложь;
			platformCallingConvention := SyntaxTree.СоглашениеОВызовахНеОпределённое;
		кон InitSystem;

		проц SetPlatformCallingConvention*(callingConvention: SyntaxTree.КодСоглашенияОВызове);
		нач
			platformCallingConvention := callingConvention;
		кон SetPlatformCallingConvention;
		проц SetCellsAreObjects*(c: булево);
		нач
			cellsAreObjects := c;
		кон SetCellsAreObjects;

		проц SetRegisterPassCallback*(canPassInRegister: PassInRegisterProc);
		нач
			CanPassInRegister := canPassInRegister;
		кон SetRegisterPassCallback;

		проц AddCapability*(name: SyntaxTree.ИдентификаторВ_исходнике);
		перем symbol: SyntaxTree.ОбъявлениеИменованнойСущности;
		нач
			symbol := SyntaxTree.ЯвиОбъявлениеИменованнойСущности(name);
			symbol.УстСледщОИС(activeCellsCapabilities);
			activeCellsCapabilities := symbol
		кон AddCapability;

		проц GenerateRecordOffsets*(x: SyntaxTree.ВыражˉтипИзРодаЗаписей): булево; (* normally done in checker but the binary symbol file format makes this necessary *)
		перем baseType: SyntaxTree.ВыражˉтипИзРодаЗаписей; offset,baseOffset, size: размерМЗ; alignment, thisAlignment: размерМЗ; variable: SyntaxTree.ОбъявлениеПеременной;
		нач
			baseType :=x.ДайТипЗаписьТипаˉродителя();
			если (baseType  # НУЛЬ) и (baseType.размер˛бит < 0) то
				если~ GenerateRecordOffsets(baseType) то возврат ложь всё;
			всё;
			если baseType # НУЛЬ то
				offset := baseType.размер˛бит;
				alignment := baseType.выравнивание˛бит;
			иначе
				offset := 0; alignment := x.выравнивание˛бит;
				если alignment <= 0 то alignment := dataUnit всё;
			всё;
			baseOffset := offset;

			variable := x.внутренняяОбластьВидимости.первоеОбъявлениеПеременной;
			нцПока (variable # НУЛЬ) делай
				если ~variable.поСмещениюЛи¿ то
					size := SizeOf(variable.Тип.резОсмысления);
					если size < 0 то возврат ложь всё;

					если variable.выравнивание > 0 то
						thisAlignment := variable.выравнивание*dataUnit;
					иначе
						thisAlignment := AlignmentOf(сам.variableAlignment, variable.Тип.резОсмысления);
					всё;
					Basic.Align(offset, thisAlignment);
					если thisAlignment  > alignment то alignment := thisAlignment всё;

					variable.УстСмещение˛бит(offset);
					увел(offset,size);
				иначе
					variable.УстСмещение˛бит(baseOffset + variable.СмещениеДляПоляПоСмещению * dataUnit);
				всё;
				variable := variable.следщОП;
			кц;
			x.УстВыравнивание(alignment);
			Basic.Align(offset, alignment); (* strictly speaking not necessary, but with the old object file format otherwise problems with the GC show up *)
			x.УстРазмер˛бит(offset);
			возврат истина
		кон GenerateRecordOffsets;

		проц GenerateCellOffsets(x: SyntaxTree.ВыражˉтипИзРодаАктивныхЯчеек): булево;
		перем baseType: SyntaxTree.Выражениеˉтип; offset,size: размерМЗ; alignment, thisAlignment: размерМЗ; variable: SyntaxTree.ОбъявлениеПеременной;
			parameter: SyntaxTree.ОбъявлениеПараметра; property: SyntaxTree.ОбъявлениеСвойства;
		нач
			baseType := x.типˉородитель;
			если (baseType # НУЛЬ) то
				baseType := baseType.резОсмысления;
				если baseType суть SyntaxTree.ВыражˉтипИзРодаУклей то
					baseType := baseType(SyntaxTree.ВыражˉтипИзРодаУклей).типУказуемого.резОсмысления
				всё;
				если (baseType суть SyntaxTree.ВыражˉтипИзРодаАктивныхЯчеек) то
					если~ GenerateCellOffsets(baseType(SyntaxTree.ВыражˉтипИзРодаАктивныхЯчеек)) то возврат ложь всё;
				иначе утв (baseType суть SyntaxTree.ВыражˉтипИзРодаЗаписей);
					если~GenerateRecordOffsets(baseType(SyntaxTree.ВыражˉтипИзРодаЗаписей)) то возврат ложь всё;
				всё;
			всё;

			если baseType # НУЛЬ то
				offset := baseType.размер˛бит;
				alignment := baseType.выравнивание˛бит;
			иначе
				offset := 0; alignment := x.выравнивание˛бит;
				если alignment <= 0 то alignment := dataUnit всё;
			всё;

			если cellsAreObjects то
				(* ports *)
				parameter := x.внутренняяОбластьВидимости.типИзРодаАктивныхЯчеекˉвладелец.первыйПараметр;
				нцПока (parameter # НУЛЬ) делай
					size := SizeOf(parameter.Тип.резОсмысления);
					если size < 0 то возврат ложь всё;

					если parameter.выравнивание > 0 то
						thisAlignment := parameter.выравнивание*dataUnit;
					иначе
						thisAlignment := AlignmentOf(сам.variableAlignment, parameter.Тип.резОсмысления);
					всё;
					Basic.Align(offset, thisAlignment);
					если thisAlignment  > alignment то alignment := thisAlignment всё;
					parameter.УстСмещение˛бит(offset);
					увел(offset,size);
					parameter := parameter.следщОП;
				кц;
				(* properties *)
				property := x.внутренняяОбластьВидимости.типИзРодаАктивныхЯчеекˉвладелец.первоеСвойство;
				нцПока (property # НУЛЬ) делай
					size := SizeOf(property.Тип.резОсмысления);
					если size < 0 то возврат ложь всё;

					если property.выравнивание > 0 то
						thisAlignment := property.выравнивание*dataUnit;
					иначе
						thisAlignment := AlignmentOf(сам.variableAlignment, property.Тип.резОсмысления);
					всё;
					Basic.Align(offset, thisAlignment);
					если thisAlignment  > alignment то alignment := thisAlignment всё;

					property.УстСмещение˛бит(offset);
					увел(offset,size);
					property := property.следщОС;
				кц;
			всё;
			(* variables *)
			variable := x.внутренняяОбластьВидимости.первоеОбъявлениеПеременной;
			нцПока (variable # НУЛЬ) делай
				если ~variable.поСмещениюЛи¿ то
					size := SizeOf(variable.Тип.резОсмысления);
					если size < 0 то возврат ложь всё;

					если variable.выравнивание > 0 то
						thisAlignment := variable.выравнивание*dataUnit;
					иначе
						thisAlignment := AlignmentOf(сам.variableAlignment, variable.Тип.резОсмысления);
					всё;
					Basic.Align(offset, thisAlignment);
					если thisAlignment  > alignment то alignment := thisAlignment всё;

					variable.УстСмещение˛бит(offset);
					увел(offset,size);
				всё;
				variable := variable.следщОП;
			кц;
			x.УстВыравнивание(alignment);
			Basic.Align(offset, alignment); (* strictly speaking not necessary, but with the old object file format otherwise problems with the GC show up *)
			x.УстРазмер˛бит(offset);
			возврат истина

		кон GenerateCellOffsets;

		проц GenerateVariableOffsets*(scope: SyntaxTree.ВнутренняяОбластьВидимости): булево;
		перем variable: SyntaxTree.ОбъявлениеПеременной; offset,size: размерМЗ; alignment: размерМЗ;
			bscope: SyntaxTree.ВнутренняяОбластьВидимости;
		нач
			если scope суть SyntaxTree.ВнутренняяОбластьВидимостиТипаИзРодаЗаписей то (* increasing indices *)
				возврат GenerateRecordOffsets(scope(SyntaxTree.ВнутренняяОбластьВидимостиТипаИзРодаЗаписей).типИзРодаЗаписейˉвладелец)
			аесли scope суть SyntaxTree.ВнутренняяОбластьВидимостиТипаИзРодаАктивныхЯчеек то
				возврат GenerateCellOffsets(scope(SyntaxTree.ВнутренняяОбластьВидимостиТипаИзРодаАктивныхЯчеек).типИзРодаАктивныхЯчеекˉвладелец);
			аесли (scope суть SyntaxTree.ВнутренняяОбластьВидимостиТипаИзРодаПроцедур) 
				и ~(scope суть SyntaxTree.ВнутренняяОбластьВидимостиПроцедуры) то
				возврат истина
			иначе (* module scope or procedure scope: decreasing indices *)
				утв((scope суть SyntaxTree.ВнутренняяОбластьВидимостиМодуля) или (scope суть SyntaxTree.ВнутренняяОбластьВидимостиПроцедуры) или (scope суть SyntaxTree.ВнутренняяОбластьВидимостиБлока));

				bscope := scope;
				нцПока (bscope суть SyntaxTree.ВнутренняяОбластьВидимостиБлока) делай
					bscope := bscope.охватывающаяОбластьВидимости;
				кц;

				offset := bscope.текСмещениеПеременной;
				если scope суть SyntaxTree.ВнутренняяОбластьВидимостиПроцедуры то
					если offset > offsetFirstVariable то
						offset := offsetFirstVariable;
					всё;
				всё;

				variable := scope.первоеОбъявлениеПеременной;
				нцПока (variable # НУЛЬ) делай
					если variable.смещение˛бит = матМинимум(размерМЗ) то
						если (variable.имяОтКомпоновщика # НУЛЬ) то
							variable.УстСмещение˛бит(offset)
						аесли ~variable.поСмещениюЛи¿ и ~variable.предпочитаетРегистрЛи¿ то
							size := SizeOfVariable(variable);
							если size < 0 то возврат ложь всё;
							умень(offset,size);
							если variable.выравнивание > 0 то
								Basic.Align(offset, -variable.выравнивание*dataUnit);
							иначе
								alignment := AlignmentOf(сам.variableAlignment,variable.Тип.резОсмысления);
								Basic.Align(offset,-alignment);
							всё;
							variable.УстСмещение˛бит(offset);
						всё;
					всё;
					variable := variable.следщОП;
				кц;
			всё;
			bscope.УстТекСмещениеПеременной(offset);
			если offset < bscope.минСмещениеПеременной то
				bscope.УстМинСмещениеПеременной(offset);
			всё;
			(*
			WHILE (scope IS SyntaxTree.BlockScope) DO
				TRACE(scope, scope.minVariableOffset);
				IF scope.minVariableOffset < scope.outerScope.minVariableOffset THEN
					scope.outerScope.SetMinVariableOffset(scope.minVariableOffset);
				END;
				scope := scope.outerScope;
			END;
			*)
			(*
			WITH scope: SyntaxTree.ProcedureScope DO
				s := scope.firstScope;
				WHILE (s # NIL) DO (* block scopes *)
					IF ~GenerateVariableOffsets(s) THEN RETURN FALSE END;
					s := s.nextScope;
				END;
			| SyntaxTree.BlockScope DO
				IF offset < scope.outerScope.minVariableOffset THEN
					scope.outerScope.SetMinVariableOffset(offset);
				END;
			ELSE
			END;
			*)
			возврат истина
		кон GenerateVariableOffsets;

		проц GenerateParameterOffsets*(procedure : SyntaxTree.ОбъявлениеПроцедуры; nestedProcedure: булево): булево;
		перем offset,size: размерМЗ;parameter: SyntaxTree.ОбъявлениеПараметра; procedureType: SyntaxTree.ВыражˉтипИзРодаПроцедур;
		нач
			procedureType := procedure.Тип(SyntaxTree.ВыражˉтипИзРодаПроцедур);
			если (procedure.встраиваемаяЛи¿) то
				offset := 0
			иначе
				offset := сам.offsetFirstParameter + procedureType.смещениеПараметров * addressSize;
			всё;
			если nestedProcedure то
				увел(offset,addressSize); (* parameter offset of static link *) (*! check alternative: add hidden parameter *)
			всё;

			если procedureType.соглашениеОВызовах = SyntaxTree.СоглашениеОВызовахOberon то
				parameter := procedureType.последнийПараметр;
				нцПока (parameter # НУЛЬ) делай
					Basic.Align(offset,addressSize);
					parameter.УстСмещение˛бит(offset);
					size := SizeOfParameter(parameter);
					если size < 0 то возврат ложь всё;
					увел(offset,size);
					parameter := parameter.предщОП;
				кц;
				parameter := procedureType.воображаемыйПараметрˉвозврат;
				если parameter # НУЛЬ то
					Basic.Align(offset,addressSize);
					parameter.УстСмещение˛бит(offset);
					size := SizeOfParameter(parameter);
					если size < 0 то возврат ложь всё;
					увел(offset,size);
				всё;
				parameter := procedureType.параметрˉсам;
				если parameter # НУЛЬ то
					Basic.Align(offset,addressSize);
					parameter.УстСмещение˛бит(offset);
					size := SizeOfParameter(parameter);
					если size < 0 то возврат ложь всё;
					увел(offset,size);
				всё;
			иначе
				parameter := procedureType.первыйПараметр;
				нцПока (parameter # НУЛЬ) делай
					Basic.Align(offset,addressSize);
					parameter.УстСмещение˛бит(offset);
					size := SizeOfParameter(parameter);
					если size < 0 то возврат ложь всё;
					увел(offset,size);
					parameter := parameter.следщОП;
				кц;
			всё;
			если procedureType.делегатЛи¿ и (procedureType.параметрˉсам = НУЛЬ) то
				если (procedureType.воображаемыйПараметрˉсам # НУЛЬ) то
					procedureType.воображаемыйПараметрˉсам.УстСмещение˛бит(offset) 
				всё;
				увел(offset,addressSize); (* parameter offset of delegate *)
			всё;
			возврат истина
		кон GenerateParameterOffsets;

		проц SizeOf*(type: SyntaxTree.Выражениеˉтип): размерМЗ;
		перем size: размерМЗ; base: SyntaxTree.Выражениеˉтип;
		нач
			если type = НУЛЬ то возврат -1 всё;
			type := type.резОсмысления;
			если type суть SyntaxTree.ВыражˉтипИзРодаПримитивных то
				size := type.размер˛бит
			аесли type суть SyntaxTree.ВыражˉтипИзРодаУклей то
				size := addressSize
			аесли type суть SyntaxTree.ВыражˉтипИзРодаПроцедур то
				если type(SyntaxTree.ВыражˉтипИзРодаПроцедур).делегатЛи¿ то
					size := 2*addressSize
				иначе
					size := addressSize
				всё;
			аесли type суть SyntaxTree.ВыражˉтипИзРодаЗаписей то
				(* do not treat a record type like a pointer even if the Pointer field is set, this leads to problems in object files
					rather make sure that each reference type is a POINTER TO at least behind the secenes!
				*)
				если ~(SyntaxTree.Осмыслен в type.стадииОсмысления) то
					size := -1
				иначе
					size :=type.размер˛бит;
					если size < 0 то
						если GenerateRecordOffsets(type(SyntaxTree.ВыражˉтипИзРодаЗаписей)) то
							size :=type.размер˛бит;
						иначе
							size := -1
						всё;
					всё;
				всё;
			аесли type суть SyntaxTree.ВыражˉтипИзРодаМассивов то
				если ~(SyntaxTree.Осмыслен в type.стадииОсмысления) то
					size := -1
				аесли type.размер˛бит >= 0 то
					size := type.размер˛бит
				аесли type(SyntaxTree.ВыражˉтипИзРодаМассивов).форма = SyntaxTree.формаМассиваСтатический то
					size := l3AlignedSizeOf(type(SyntaxTree.ВыражˉтипИзРодаМассивов).типЭлементов.резОсмысления)*type(SyntaxTree.ВыражˉтипИзРодаМассивов).статическаяДлина;
					type.УстРазмер˛бит(size);
				иначе
					size := 0; base := type;
					нцПока(base суть SyntaxTree.ВыражˉтипИзРодаМассивов) делай
						base := base(SyntaxTree.ВыражˉтипИзРодаМассивов).типЭлементов.резОсмысления;
						увел(size); (* length field *)
					кц;
					size := size*addressSize+addressSize;
					type.УстРазмер˛бит(size)
				всё;
			аесли type суть SyntaxTree.ВыражˉтипИзРодаМатМассивов то
				если ~(SyntaxTree.Осмыслен в type.стадииОсмысления) то
					size := -1
				аесли type(SyntaxTree.ВыражˉтипИзРодаМатМассивов).форма = SyntaxTree.формаМассиваСтатический то
					size := SizeOf(type(SyntaxTree.ВыражˉтипИзРодаМатМассивов).типЭлемента.резОсмысления)*type(SyntaxTree.ВыражˉтипИзРодаМатМассивов).статическаяДлина;
					type.УстРазмер˛бит(size);
				аесли type(SyntaxTree.ВыражˉтипИзРодаМатМассивов).форма = SyntaxTree.формаМассиваТензорный то
					size := addressSize (* pointer to geometry descriptor *)
				иначе
					size := 0;
					нцПока(type # НУЛЬ) и (type суть SyntaxTree.ВыражˉтипИзРодаМатМассивов) делай
						type := type(SyntaxTree.ВыражˉтипИзРодаМатМассивов).типЭлемента;
						если type # НУЛЬ то type := type.резОсмысления всё;
						увел(size);
					кц;
					size := size*2*addressSize (* length and increments *) +5*addressSize (* data ptr, adr ptr, flags, dim and elementsize *);
				всё;
			аесли type суть SyntaxTree.ВыражˉтипИзРодаСтрок то
				утв(SyntaxTree.Осмыслен в type.стадииОсмысления);
				size := type(SyntaxTree.ВыражˉтипИзРодаСтрок).длина * SizeOf(type(SyntaxTree.ВыражˉтипИзРодаСтрок).типСимвола);
			аесли type суть SyntaxTree.ВыражˉтипИзРодаПеречислений то
				size := addressSize
			аесли type = SyntaxTree.образцовоеНеверноеВыражениеˉтип то size := 0
			аесли type суть SyntaxTree.ВыражˉтипИзРодаТиповˉНаименований то
				СТОП(101); (* hint that unresolved type has been taken for type size computation *)
			аесли type суть SyntaxTree.ВыражˉтипИзРодаПортовВводаВывода то
				size := addressSize
			аесли type суть SyntaxTree.ВыражˉтипИзРодаАктивныхЯчеек то
				size := addressSize;
			аесли type суть SyntaxTree.ВыражˉтипИзРодаДиапазонов то
				size := 3 * SizeOf(sizeType);
			иначе
				СТОП(100)
			всё;
			возврат size
		кон SizeOf;

		проц SizeOfParameter*(par: SyntaxTree.ОбъявлениеПараметра):размерМЗ;
		нач
			если (par.Тип.резОсмысления суть SyntaxTree.ВыражˉтипИзРодаМассивов) или (par.Тип.резОсмысления суть SyntaxTree.ВыражˉтипИзРодаМатМассивов) то
				если (par.Тип.резОсмысления суть SyntaxTree.ВыражˉтипИзРодаМассивов) и (par.Тип.резОсмысления(SyntaxTree.ВыражˉтипИзРодаМассивов).форма = SyntaxTree.формаМассиваСтатический) и
					(par.видПараметра в {SyntaxTree.ВидПараметраКонст,SyntaxTree.ВидПараметраПерем})
					или
					(par.Тип.резОсмысления суть SyntaxTree.ВыражˉтипИзРодаМатМассивов) и (par.Тип.резОсмысления(SyntaxTree.ВыражˉтипИзРодаМатМассивов).форма = SyntaxTree.формаМассиваСтатический) и
					(par.видПараметра в {SyntaxTree.ВидПараметраКонст,SyntaxTree.ВидПараметраПерем})
					или (par.Тип.резОсмысления суть SyntaxTree.ВыражˉтипИзРодаМатМассивов) и (par.видПараметра = SyntaxTree.ВидПараметраПерем)
				то
					возврат addressSize
				аесли IsOberonProcedure(par.типˉвладелец) то
					возврат SizeOf(par.Тип);
				иначе возврат addressSize
				всё
			аесли par.Тип.резОсмысления суть SyntaxTree.ВыражˉтипИзРодаДиапазонов то
				если par.видПараметра = SyntaxTree.ВидПараметраПерем то
					возврат addressSize
				иначе
					возврат SizeOf(rangeType) (* array range components are materialized on stack for both value and const parameters *)
				всё
			аесли par.Тип.резОсмысления суть SyntaxTree.ВыражˉтипИзРодаЗаписей то
				если par.параметрˉсамЛи¿ то
					возврат addressSize
				аесли (par.видПараметра в {SyntaxTree.ВидПараметраКонст,SyntaxTree.ВидПараметраПерем}) то
					если IsOberonProcedure(par.типˉвладелец) то
						возврат 2*addressSize
					иначе
						возврат addressSize
					всё
				иначе
					возврат SizeOf(par.Тип);
				всё;
			аесли par.видПараметра = SyntaxTree.ВидПараметраПерем то
				возврат addressSize
			аесли par.видПараметра = SyntaxTree.ВидПараметраКонст то
				возврат SizeOf(par.Тип)
			иначе
				возврат SizeOf(par.Тип);
			всё;
		кон SizeOfParameter;

		проц SizeOfVariable*(var: SyntaxTree.ОбъявлениеПеременной):размерМЗ;
		нач
			если (var.Тип.резОсмысления суть SyntaxTree.ВыражˉтипИзРодаМатМассивов) или (var.Тип.резОсмысления суть SyntaxTree.ВыражˉтипИзРодаМассивов) то
				если (var.видПараметра в {SyntaxTree.ВидПараметраКонст,SyntaxTree.ВидПараметраПерем}) то
					возврат addressSize;
				иначе
					возврат SizeOf(var.Тип)
				всё;
			аесли var.Тип.резОсмысления суть SyntaxTree.ВыражˉтипИзРодаДиапазонов то
				если var.видПараметра = SyntaxTree.ВидПараметраПерем то
					возврат addressSize
				иначе
					возврат SizeOf(rangeType) (* array range components are materialized on stack for both value and const parameters *)
				всё
			аесли var.Тип.резОсмысления суть SyntaxTree.ВыражˉтипИзРодаЗаписей то
				если (var.видПараметра в {SyntaxTree.ВидПараметраКонст,SyntaxTree.ВидПараметраПерем}) то
					возврат 2*addressSize
				иначе
					возврат SizeOf(var.Тип);
				всё;
			аесли var.видПараметра = SyntaxTree.ВидПараметраПерем то
				возврат addressSize
			аесли var.видПараметра = SyntaxTree.ВидПараметраКонст то
				возврат SizeOf(var.Тип)
			иначе
				возврат SizeOf(var.Тип);
			всё;
		кон SizeOfVariable;


		проц AlignmentOf*(конст alignment: Alignment;type: SyntaxTree.Выражениеˉтип): размерМЗ;
		перем result: размерМЗ;
		нач
			type := type.резОсмысления;
			если type суть SyntaxTree.ВыражˉтипИзРодаЗаписей то
				если type.выравнивание˛бит <= 0 то
					если GenerateRecordOffsets(type(SyntaxTree.ВыражˉтипИзРодаЗаписей)) то
						result := type.выравнивание˛бит
					всё
				иначе
					result := type.выравнивание˛бит
				всё;
			аесли type суть SyntaxTree.ВыражˉтипИзРодаМассивов то
				если type.выравнивание˛бит <= 0 то
					если type(SyntaxTree.ВыражˉтипИзРодаМассивов).форма = SyntaxTree.формаМассиваСтатический то
						result := AlignmentOf(alignment,type(SyntaxTree.ВыражˉтипИзРодаМассивов).типЭлементов.резОсмысления);
					иначе
						result := alignment.max
					всё;
					type.УстВыравнивание(result)
				иначе
					result := type.выравнивание˛бит
				всё;
			аесли type суть SyntaxTree.ВыражˉтипИзРодаДиапазонов то
				result := AlignmentOf(alignment,sizeType);
			аесли type суть SyntaxTree.ВыражˉтипИзРодаСтрок то
				result := SizeOf(type(SyntaxTree.ВыражˉтипИзРодаСтрок).типСимвола);
			иначе
				result := SizeOf(type);
				если result > alignment.max то result := alignment.max всё;
				если result < alignment.min то result := alignment.min всё;
			всё;
			утв(result # 0);
			возврат result
		кон AlignmentOf;

		проц l3AlignedSizeOf*(type: SyntaxTree.Выражениеˉтип): размерМЗ;
		перем size: размерМЗ;
		нач
			size := SizeOf(type);
			Basic.Align(size, AlignmentOf(variableAlignment, type));
			возврат size
		кон l3AlignedSizeOf;

	кон System;

	проц ORDв(ч: Scanner.ВариантыПеревода):бцел32;
	нач (* ORD не работает *)
		возврат Scanner.ORDв(ч) кон ORDв;


	проц BuildScopes(system: System);
	перем i: цел32;
	нач
		нцДля i := 0 до end-1 делай
			system.operatorDefined[i] := ложь
		кц;
		system.globalScope[ORDв(Scanner.ВариантыПеревода.Uppercase)] := SyntaxTree.ЯвиВнутреннююОбластьВидимостиМодуля();
		system.globalScope[ORDв(Scanner.ВариантыПеревода.Русский)] := SyntaxTree.ЯвиВнутреннююОбластьВидимостиМодуля();
		system.globalModule[ORDв(Scanner.ВариантыПеревода.Uppercase)] := SyntaxTree.ЯвиДеревоМодуля("",SyntaxTree.образцовоеНеверноеМестоВ_тексте,NameGlobal,system.globalScope[ORDв(Scanner.ВариантыПеревода.Uppercase)],Scanner.ВариантыПеревода.Uppercase);
		system.globalModule[ORDв(Scanner.ВариантыПеревода.Русский)] := SyntaxTree.ЯвиДеревоМодуля("",SyntaxTree.образцовоеНеверноеМестоВ_тексте,NameGlobal,system.globalScope[ORDв(Scanner.ВариантыПеревода.Русский)],Scanner.ВариантыПеревода.Русский);
		system.systemScope[ORDв(Scanner.ВариантыПеревода.Uppercase)] := SyntaxTree.ЯвиВнутреннююОбластьВидимостиМодуля();
		system.systemScope[ORDв(Scanner.ВариантыПеревода.Русский)] := SyntaxTree.ЯвиВнутреннююОбластьВидимостиМодуля();
		system.systemModule[ORDв(Scanner.ВариантыПеревода.Uppercase)] := SyntaxTree.ЯвиДеревоМодуля("",SyntaxTree.образцовоеНеверноеМестоВ_тексте,SystemName,system.systemScope[ORDв(Scanner.ВариантыПеревода.Uppercase)],Scanner.ВариантыПеревода.Uppercase);
		system.systemModule[ORDв(Scanner.ВариантыПеревода.Русский)] := SyntaxTree.ЯвиДеревоМодуля("",SyntaxTree.образцовоеНеверноеМестоВ_тексте,НИЗКОУРName,system.systemScope[ORDв(Scanner.ВариантыПеревода.Русский)],Scanner.ВариантыПеревода.Русский);
	кон BuildScopes;

	проц SetDefaultDeclarations*(system: System; minBits: размерМЗ);
	перем now: Dates.DateTime; date, time: массив 20 из симв8;
	нач
		утв (minBits = 8);

		(* types *)
		system.integerType := SyntaxTree.ЯвиВыражˉтипИзРодаЧиселЦелых(матМинимум(system.addressSize,32),истина);
		system.longIntegerType := SyntaxTree.ЯвиВыражˉтипИзРодаЧиселЦелых(system.addressSize,истина);
		system.integerSetType := SyntaxTree.ЯвиВыражˉтипИзРодаБайт(system.integerType.размер˛бит);
		system.realType := SyntaxTree.ЯвиВыражˉтипИзРодаЧиселВещ(64);
		system.complexType := SyntaxTree.ЯвиВыражˉтипИзРодаЧисел(system.realType);

		system.booleanType := SyntaxTree.ЯвиВыражˉтипБулево(8);
		system.byteType := SyntaxTree.ЯвиВыражˉтипНизкоурБайт(8);
		system.characterType := SyntaxTree.ЯвиВыражˉтипИзРодаЛитер(8);

		system.anyType := SyntaxTree.ЯвиВыражˉтипДинамическиТипизированныйУкль(system.addressSize);
		system.objectType := SyntaxTree.ЯвиВыражˉтипБазовыйОбъект(system.addressSize);
		system.nilType := SyntaxTree.ЯвиВыражˉтипНУЛЬ(system.addressSize);
		system.addressType := SyntaxTree.ЯвиВыражˉтипАДРЕС(system.addressSize);
		system.sizeType := SyntaxTree.ЯвиВыражˉтипSIZE(system.addressSize);

		system.rangeType := SyntaxTree.ЯвиВыражˉтипИзРодаДиапазонов(3 * system.SizeOf(system.sizeType));

		system.setTypeA := SyntaxTree.ЯвиВыражˉтипИзРодаБайт(system.addressSize);
		system.setType64 := Set64;

		system.maxSize := MaxInteger(system, system.sizeType(SyntaxTree.ВыражˉтипИзРодаПримитивных), истина);
		system.maxSetA := system.SizeOf(system.setTypeA) - 1;

		(* type declarations *)
		DeclareTypeR(system.byteType,"BYTE","октет",system.systemScope); (* также или просто в модуле НИЗКОУР *)
		DeclareTypeR(system.addressType,"ADDRESS","адресВПамяти",system.globalScope);
		DeclareTypeR(system.sizeType,"SIZE","размерМЗ",system.globalScope); (* из него вычленится случай, когда это просто счётчик *)
		(*DeclareType(Same,"SAME",system.systemScope); *)

		(* system builtin procedures *)
		NewBuiltinR(systemGet,"GET","прочтиОбъектПоАдресу",system.systemScope,истина);
		NewBuiltinR(systemPut,"PUT","запишиОбъектПоАдресу",system.systemScope,истина);
		NewBuiltinR(systemPut64,"PUT64","запиши64битаПоАдресу",system.systemScope,истина);
		NewBuiltinR(systemPut32,"PUT32","запиши32битаПоАдресу",system.systemScope,истина);
		NewBuiltinR(systemPut16,"PUT16","запиши16битПоАдресу",system.systemScope,истина);
		NewBuiltinR(systemPut8,"PUT8","запиши8битПоАдресу",system.systemScope,истина);
		NewBuiltinR(systemGet64,"GET64","прочти64битаПоАдресу",system.systemScope,истина);
		NewBuiltinR(systemGet32,"GET32","прочти32битаПоАдресу",system.systemScope,истина);
		NewBuiltinR(systemGet16,"GET16","прочти16битПоАдресу",system.systemScope,истина);
		NewBuiltinR(systemGet8,"GET8","прочти8битПоАдресу",system.systemScope,истина);
		NewBuiltinR(systemVal,"VAL","подмениТипЗначения",system.systemScope,истина);
		NewBuiltinR(systemMove,"MOVE","копируйПамять",system.systemScope,истина);
		NewBuiltin(systemRef,"REF",system.systemScope,ложь);
		NewBuiltinR(systemNew,"NEW","нов",system.systemScope,ложь);
		NewBuiltinR(systemTypeCode,"TYPECODE","дайМетаданныеВремениВыполненияДляТипа",system.systemScope,истина);
		NewBuiltinR(systemHalt,"HALT","СТОП",system.systemScope,истина);

		NewBuiltinR(systemЛит32,"Лит32","Лит32",system.globalScope,истина);
		NewBuiltinR(systemЛитСимв32,"ЛитСимв32","ЛитСимв32",system.globalScope,истина);

		NewBuiltinR(systemSize,"SIZE","размерВОктетах",system.systemScope,истина);
		NewBuiltin(systemAdr,"ADR",system.systemScope,истина);

		NewBuiltin(systemMsk,"MSK",system.systemScope,истина);
		NewBuiltinR(systemBit,"BIT","дайБитПоАдресу",system.systemScope,истина);

		now := Dates.Now ();
		Strings.FormatDateTime ("hh:nn:ss", now, time);
		Strings.FormatDateTime ("mmm dd yyyy", now, date);
		NewStringConstantCamelCase("Time", Strings.NewString (time), system.characterType, system.systemScope);
		NewStringConstantCamelCase("Date", Strings.NewString (date), system.characterType, system.systemScope);
		NewBuiltinCamelCase(systemGetStackPointer,"GetStackPointer",system.systemScope,истина);
		NewBuiltinCamelCase(systemSetStackPointer,"SetStackPointer",system.systemScope,истина);
		NewBuiltinCamelCase(systemGetFramePointer,"GetFramePointer",system.systemScope,истина);
		NewBuiltinCamelCase(systemSetFramePointer,"SetFramePointer",system.systemScope,истина);
		NewBuiltinCamelCase(systemGetActivity,"GetActivity",system.systemScope,истина);
		NewBuiltinCamelCase(systemSetActivity,"SetActivity",system.systemScope,истина);

		(* Set up system types *)
		DeclareTypeR(system.characterType,"CHAR","симв8",system.globalScope);
		DeclareTypeR(Симв32,"симв32","симв32",system.globalScope);
		DeclareTypeR(system.rangeType,"RANGE","отрезокЦелых",system.globalScope);
		DeclareTypeR(system.integerType,"INTEGER","целМЗ",system.globalScope);
		DeclareTypeR(system.longIntegerType,"LONGINTEGER","длинноеЦелМЗ",system.globalScope);
		DeclareTypeR(system.integerSetType,"INTEGERSET","INTEGERSET",system.globalScope); (* в исходниках ЯОС не встречается, см. SET = мнвоНаБитахМЗ *)

		DeclareTypeR(Signed8, "SIGNED8", "цел8", system.globalScope);
		DeclareTypeR(Signed16, "SIGNED16", "цел16", system.globalScope);
		DeclareTypeR(Signed32, "SIGNED32", "цел32", system.globalScope);
		DeclareTypeR(Signed64, "SIGNED64", "цел64", system.globalScope);

		DeclareTypeR(Unsigned8, "UNSIGNED8", "бцел8", system.globalScope);
		DeclareTypeR(Unsigned16, "UNSIGNED16", "бцел16", system.globalScope);
		DeclareTypeR(Unsigned32, "UNSIGNED32", "бцел32", system.globalScope);
		DeclareTypeR(Unsigned64, "UNSIGNED64", "бцел64", system.globalScope);

		DeclareTypeR(Float32, "FLOAT32", "вещ32",system.globalScope);
		DeclareTypeR(Float64, "FLOAT64", "вещ64",system.globalScope);

		DeclareTypeR(Complex32, "COMPLEX32", "компл32", system.globalScope);
		DeclareTypeR(Complex64, "COMPLEX64", "компл64", system.globalScope);

		DeclareTypeR(system.realType,"REAL","вещМЗ", system.globalScope);
		DeclareTypeR(system.complexType,"COMPLEX","комплМЗ", system.globalScope);
		DeclareTypeR(system.booleanType,"BOOLEAN","булево",system.globalScope);
		DeclareTypeR(system.setTypeA,"SET","мнвоНаБитахМЗ",system.globalScope);
		DeclareTypeR(system.anyType,"ANY","динамическиТипизированныйУкль",system.globalScope);
		DeclareTypeR(system.objectType,"OBJECT","окласс",system.globalScope);

		DeclareTypeR(Set8, "SET8", "мнвоНаБитах8", system.globalScope);
		DeclareTypeR(Set16, "SET16", "мнвоНаБитах16", system.globalScope);
		DeclareTypeR(Set32, "SET32", "мнвоНаБитах32", system.globalScope);
		DeclareTypeR(Set64, "SET64", "мнвоНаБитах64", system.globalScope);

		(* глобальные функции. Если меняешь тут, ищи в другом месте вызовы NewBuiltinIdentifier *)
		NewBuiltinR(Abs,"ABS","матМодуль",system.globalScope,истина); (* prospero78/Oberon07ru. в КуМире - abs. Может быть определён для матриц *)
		NewBuiltinR(Ash,"ASH","арифмСдвиг",system.globalScope,истина);
		NewBuiltinR(Cap,"CAP","ASCII_вЗаглавную", system.globalScope,истина);
		NewBuiltinR(Chr,"CHR","симв8ИзКода",system.globalScope,истина); 
		NewBuiltinR(Chr32,"CHR32","симв32ИзКода",system.globalScope,истина);  (* CHR32 *)
		NewBuiltinR(Entier,"ENTIER","округлиВниз",system.globalScope,истина); (* 1С - Цел, КуМир - int, Русская википедия - "пол", Excel - ОКРВНИЗ *)
		NewBuiltin(Entier,"FLOOR",system.globalScope,истина); (* дублирует ENTIER и не входит в стандарт, но есть в Minos - пока оставляем *) 
		NewBuiltinR(EntierH,"ENTIERH","округлиВниз64",system.globalScope,истина); (* в A2 рекомендуется цел64(плавающееЗначение) *)
		NewBuiltinR(Len,"LEN","длинаМассива",system.globalScope,истина); (* слово "длина" слишком общее *)
		NewBuiltinR(Long,"LONG","устарПреобразуйКБолееШирокомуЦел",system.globalScope,истина);
		NewBuiltinR(Max,"MAX","матМаксимум",system.globalScope,истина); (* из-за минут не делаем просто макс,мин - оставляем свободу для минут *) 
		NewBuiltinR(Min,"MIN","матМинимум",system.globalScope,истина);
		NewBuiltinR(Odd,"ODD","нечётноеЛи¿",system.globalScope,истина); 
		NewBuiltinR(Ord,"ORD","кодСимв8",system.globalScope,истина); 
		NewBuiltinR(Ord32,"ORD32","кодСимв32",system.globalScope,истина);
		NewBuiltinR(Lsh,"LSH","логСдвиг",system.globalScope,истина);
		NewBuiltinR(Rot,"ROT","вращБит",system.globalScope,истина);

		NewBuiltinR(Ror,"ROR","вращВправоБит", system.globalScope,истина);
		NewBuiltinR(Rol,"ROL","вращВлевоБит", system.globalScope,истина);
		NewBuiltinR(Shl,"SHL","логИлиАрифмСдвигВлево", system.globalScope,истина);
		NewBuiltinR(Shr,"SHR","логИлиАрифмСдвигВправо", system.globalScope,истина);

		NewBuiltinR(Incr,"INCR","приращениеРазмерностиМатМассива",system.globalScope,истина);

		NewBuiltinR(Short,"SHORT","устарПреобразуйКБолееУзкомуЦел",system.globalScope,истина);
		NewBuiltinR(Sum,"SUM","суммаЭлтовМатМассива",system.globalScope,истина);
		NewBuiltinR(Dim,"DIM","размерностьМатМасссива",system.globalScope,истина);
		NewBuiltinR(Cas,"CAS","сравнениеСОбменом",system.globalScope,истина);

		NewBuiltin(First,"FIRST",system.globalScope,истина);
		NewBuiltin(Last,"LAST",system.globalScope,истина);
		NewBuiltin(Step,"STEP",system.globalScope,истина);

		NewBuiltinR(Re,"RE","комплRe",system.globalScope,истина); (* КуМир - переделать в псевдо-метод *)
		NewBuiltinR(Im,"IM","комплIm",system.globalScope,истина);

		NewBuiltinR(systemAdr,"ADDRESSOF","адресОт",system.globalScope,истина);
		NewBuiltinR(systemSize,"SIZEOF","размер16_от",system.globalScope,истина);

		(* global proper procedures *)
		NewBuiltinR(Assert,"ASSERT","утв",system.globalScope,истина); (* КуМир *)
		NewBuiltinR(Copy,"COPY","копируйСтрокуДо0",system.globalScope,истина);
		NewBuiltinR(Dec,"DEC","умень",system.globalScope,истина);
		NewBuiltinR(Excl,"EXCL","исключиИзМнваНаБитах",system.globalScope,истина);
		NewBuiltinR(Halt,"HALT","СТОП",system.globalScope,истина); (* Глагол *)
		NewBuiltinR(ВстрПроцИнспекция,"Инспекция","Инспекция",system.globalScope,истина); 
		NewBuiltinR(ВстрПроцППиши,"пПиши","пПиши",system.globalScope,истина); 
		NewBuiltinR(Если3,"если3","если3",system.globalScope,истина);
		NewBuiltinR(Inc,"INC","увел",system.globalScope,истина);
		NewBuiltinR(Incl,"INCL","включиВоМнвоНаБитах",system.globalScope,истина);
		NewBuiltinR(New,"NEW","нов",system.globalScope,ложь);
		NewBuiltinR(Dispose,"DISPOSE","удалиИзПамяти",system.globalScope, ложь);
		NewBuiltinR(GetProcedure,"GETPROCEDURE","дайПроцПоИмени",system.globalScope,истина);
		NewBuiltinR(systemTrace,"TRACE","трассируй",system.globalScope,истина); (* сам придумал :( *)
		NewBuiltinR(Reshape,"RESHAPE","видоизмениМатМассив",system.globalScope,истина); (* см. FoxArrayBase.Reshape *)
		(* это тоже что-то про мат.массивы - может быть, применить ф-ию ко всем эл-там. В диссере нет, надо читать исходники *)
		NewBuiltin(All,"ALL",system.globalScope,истина);
		NewBuiltin(Wait,"WAIT",system.globalScope,ложь);
		NewBuiltin(Connect,"CONNECT",system.globalScope,ложь);
		NewBuiltin(Receive,"RECEIVE",system.globalScope,ложь);
		NewBuiltin(Send,"SEND",system.globalScope,ложь);
		NewBuiltin(Delegate,"DELEGATE",system.globalScope,ложь);

		NewBuiltin(IncMul,"INCMUL",system.globalScope,истина);
		NewBuiltin(DecMul,"DECMUL",system.globalScope,истина);
		
	кон SetDefaultDeclarations;

	проц OperatorDefined*(system: System; op: цел32; defined: булево);
	нач
		system.operatorDefined[op] := defined;
	кон OperatorDefined;

	проц SetDefaultOperators*(system: System);
	перем i: цел32;
	нач
		нцДля i := Scanner.Equal до Scanner.Не делай
			OperatorDefined(system,i,истина);
		кц;

		OperatorDefined(system, Conversion, истина);
		OperatorDefined(system, DotTimesPlus, истина);
		OperatorDefined(system, AtMulDec, истина);
		OperatorDefined(system, AtMulInc, истина);
		OperatorDefined(system, DecMul, истина);
		OperatorDefined(system, IncMul, истина);

		OperatorDefined(system,Scanner.Transpose,истина);
		OperatorDefined(system,Scanner.Becomes,истина);
		OperatorDefined(system,Dec,истина);
		OperatorDefined(system,Excl,истина);
		OperatorDefined(system,Inc,истина);
		OperatorDefined(system,Incl,истина);
		OperatorDefined(system,Abs,истина);
		OperatorDefined(system,Ash,истина);
		OperatorDefined(system,Cap,истина);
		OperatorDefined(system,Chr,истина);
		OperatorDefined(system,Chr32,истина);
		OperatorDefined(system,Entier,истина);
		OperatorDefined(system,EntierH,истина);
		OperatorDefined(system,Len,истина);
		OperatorDefined(system,Long,истина);
		OperatorDefined(system,Max,истина);
		OperatorDefined(system,Min,истина);
		OperatorDefined(system,Odd,истина);
		OperatorDefined(system,Reshape,истина);
		OperatorDefined(system,Short,истина);
		OperatorDefined(system,Sum,истина);
		OperatorDefined(system,Dim,истина);
		OperatorDefined(system,Scanner.Address, истина);
		OperatorDefined(system,Scanner.Size, истина);
		OperatorDefined(system,Scanner.Alias, истина);
		OperatorDefined(system,All,истина);
		OperatorDefined(system,Re,истина);
		OperatorDefined(system,Im,истина);

		OperatorDefined(system, Scanner.ВопросительныеЗнаки, истина);

		OperatorDefined(system, Scanner.БольшеБольше, истина);
		OperatorDefined(system, Scanner.МеньшеМеньше, истина);

	кон SetDefaultOperators;

	проц DefaultSystem*(): System;
	перем system: System;
	нач
		нов(system,8,8,32, 8,32,32,32,64,0,ложь);
		SetDefaultDeclarations(system,8);
		SetDefaultOperators(system);
		возврат system
	кон DefaultSystem;

	проц IsOberonProcedure*(type: SyntaxTree.Выражениеˉтип): булево;
	нач
		возврат (type суть SyntaxTree.ВыражˉтипИзРодаПроцедур) и (type(SyntaxTree.ВыражˉтипИзРодаПроцедур).соглашениеОВызовах = SyntaxTree.СоглашениеОВызовахOberon)
	кон IsOberonProcedure;

	проц AlignedSizeOf*(system: System; конст alignment: Alignment; type: SyntaxTree.Выражениеˉтип):размерМЗ;
	перем value: размерМЗ;
	нач
		value := system.SizeOf(type);
		увел(value, (-value) остОтДеленияНа system.AlignmentOf(alignment, type));
		возврат value;
	кон AlignedSizeOf;

	(* returns if a module is the system module *)
	проц IsSystemModule*(module: SyntaxTree.ДеревоМодуля): булево;
	нач возврат (module.имя.И=systemName.И) или (module.имя.И=SystemName.И) или (module.имя.И=НИЗКОУРName.И)
	кон IsSystemModule;

	(** Various factories *)
	проц DeclareType0(type: SyntaxTree.Выражениеˉтип; конст name: массив из симв8; in: SyntaxTree.ВнутренняяОбластьВидимости);
	перем basic: SyntaxTree.ОбъявлениеТипаˉнаименования; duplicate: булево;
	нач
		basic := SyntaxTree.ЯвиОбъявлениеТипа(SyntaxTree.образцовоеНеверноеМестоВ_тексте,SyntaxTree.ЯвиИдентификаторВ_исходнике(name));
		basic.УстВыражениеˉтип(type);
		basic.ДобавьСтадиюОсмысления(SyntaxTree.Осмыслен);
		basic.УстПраваДоступа(SyntaxTree.ТолькоЧтение);
		in.ДобОбъявлениеТипаˉнаименования(basic);
		in.ДобОбъявление(basic,duplicate);
		утв(~duplicate);
	кон DeclareType0;

	(** External interface backends can use to add their types etc. to the global scope *)
	проц DeclareType*(type: SyntaxTree.Выражениеˉтип; конст name: массив из симв8; конст scope: массив из SyntaxTree.ВнутренняяОбластьВидимостиМодуля);
	перем nameL,nameU: Scanner.СтрокаИдентификатора;
	нач
		Basic.Lowercase(name,nameL);
		Basic.Uppercase(name,nameU);
		DeclareType0(type,nameU,scope[ORDв(Scanner.ВариантыПеревода.Uppercase)]);
		DeclareType0(type,nameU,scope[ORDв(Scanner.ВариантыПеревода.Русский)]);
	кон DeclareType;
	

	(** External interface backends can use to add their types etc. to the global scope *)
	проц DeclareTypeR*(type: SyntaxTree.Выражениеˉтип; конст name: массив из симв8; конст nameRu: массив из симв8; конст scope: массив из SyntaxTree.ВнутренняяОбластьВидимостиМодуля);
	перем nameL,nameU: Scanner.СтрокаИдентификатора;
	нач
		Basic.Lowercase(name,nameL);
		Basic.Uppercase(name,nameU);
		DeclareType0(type,nameU,scope[ORDв(Scanner.ВариантыПеревода.Uppercase)]);
		DeclareType0(type,nameRu,scope[ORDв(Scanner.ВариантыПеревода.Русский)]);
		НапишиСтрочкуДляПереводаГлобальногоМодуля(nameU,nameRu);
	кон DeclareTypeR;

	проц NewConstant0(конст name: массив из симв8; int: цел32; type: SyntaxTree.Выражениеˉтип; in: SyntaxTree.ВнутренняяОбластьВидимости);
	перем constant: SyntaxTree.ОбъявлениеКонстанты; value: SyntaxTree.Значение˛известноеВоВремяКомпиляции˛целое;duplicate: булево;
	нач
		value := SyntaxTree.ЯвиЗначение˛известноеВоВремяКомпиляции˛целое(SyntaxTree.образцовоеНеверноеМестоВ_тексте,int);
		value.УстТип(type);
		constant := SyntaxTree.ЯвиОбъявлениеКонстанты(SyntaxTree.образцовоеНеверноеМестоВ_тексте,SyntaxTree.ЯвиИдентификаторВ_исходнике(name));
		constant.УстВыражениеˉзначение(value);
		constant.УстТип(value.типОсмысленный);
		constant.УстПраваДоступа(SyntaxTree.ТолькоЧтение);
		constant.ДобавьСтадиюОсмысления(SyntaxTree.Осмыслен);
		in.ДобОбъявлениеКонстанты(constant);
		in.ДобОбъявление(constant,duplicate);
		утв(~duplicate);
	кон NewConstant0;

	проц NewConstant*(конст name: массив из симв8; int: цел32; type: SyntaxTree.Выражениеˉтип; конст scope: массив из SyntaxTree.ВнутренняяОбластьВидимостиМодуля);
	перем nameL,nameU: Scanner.СтрокаИдентификатора;
	нач
		Basic.Lowercase(name,nameL);
		Basic.Uppercase(name,nameU);
		NewConstant0(nameU,int,type,scope[ORDв(Scanner.ВариантыПеревода.Uppercase)]);
		NewConstant0(nameU,int,type,scope[ORDв(Scanner.ВариантыПеревода.Русский)]);
	кон NewConstant;

	проц NewStringConstant0(конст name: массив из симв8; string: SyntaxTree.Строка; baseType: SyntaxTree.Выражениеˉтип; in: SyntaxTree.ВнутренняяОбластьВидимости);
	перем constant: SyntaxTree.ОбъявлениеКонстанты; value: SyntaxTree.Значение˛известноеВоВремяКомпиляции˛строковое;duplicate: булево;
	нач
		value := SyntaxTree.ЯвиЗначение˛известноеВоВремяКомпиляции˛строковое(SyntaxTree.образцовоеНеверноеМестоВ_тексте,string);
		value.УстТип(SyntaxTree.ЯвиВыражˉтипИзРодаСтрок(SyntaxTree.образцовоеНеверноеМестоВ_тексте,baseType,value.длина));
		constant := SyntaxTree.ЯвиОбъявлениеКонстанты(SyntaxTree.образцовоеНеверноеМестоВ_тексте,SyntaxTree.ЯвиИдентификаторВ_исходнике(name));
		constant.УстВыражениеˉзначение(value);
		constant.УстТип(value.типОсмысленный);
		constant.УстПраваДоступа(SyntaxTree.ТолькоЧтение);
		constant.ДобавьСтадиюОсмысления(SyntaxTree.Осмыслен);
		in.ДобОбъявлениеКонстанты(constant);
		in.ДобОбъявление(constant,duplicate);
		утв(~duplicate);
	кон NewStringConstant0;

	проц NewStringConstant*(конст name: массив из симв8; string: SyntaxTree.Строка; type: SyntaxTree.Выражениеˉтип; конст scope: массив из SyntaxTree.ВнутренняяОбластьВидимостиМодуля);
	перем nameL,nameU: Scanner.СтрокаИдентификатора;
	нач
		Basic.Lowercase(name,nameL);
		Basic.Uppercase(name,nameU);
		NewStringConstant0(nameU,string,type,scope[ORDв(Scanner.ВариантыПеревода.Uppercase)]);
		NewStringConstant0(nameU,string,type,scope[ORDв(Scanner.ВариантыПеревода.Русский)]);
	кон NewStringConstant;

	проц NewStringConstantCamelCase*(конст name: массив из симв8; string: SyntaxTree.Строка; type: SyntaxTree.Выражениеˉтип; конст scope: массив из SyntaxTree.ВнутренняяОбластьВидимостиМодуля);
	нач
		NewStringConstant0(name,string,type,scope[ORDв(Scanner.ВариантыПеревода.Uppercase)]);
		NewStringConstant0(name,string,type,scope[ORDв(Scanner.ВариантыПеревода.Русский)]);
	кон NewStringConstantCamelCase;

	проц NewBuiltin0( id: цел32; конст name: массив из симв8; in:  SyntaxTree.ВнутренняяОбластьВидимостиМодуля; realtime: булево);
	перем basic: SyntaxTree.ОбъявлениеВстроеннойПроцедуры; duplicate: булево; type: SyntaxTree.ВыражˉтипИзРодаПроцедур;
	нач
		basic := SyntaxTree.ЯвиОбъявлениеВтроеннойПроцедуры(SyntaxTree.образцовоеНеверноеМестоВ_тексте,SyntaxTree.ЯвиИдентификаторВ_исходнике(name),id);
		basic.УстПраваДоступа(SyntaxTree.ТолькоЧтение);
		type := SyntaxTree.ЯвиВыражˉтипИзРодаПроцедур(SyntaxTree.образцовоеНеверноеМестоВ_тексте,in,НУЛЬ);
		type.Уст«реальногоВремени¿»(realtime);
		type.УстТипВозврата(SyntaxTree.образцовоеНеверноеВыражениеˉтип); (* make incompatible to any procedure *)
		basic.УстТип(type);
		basic.ДобавьСтадиюОсмысления(SyntaxTree.Осмыслен);
		in.ДобОбъявление(basic,duplicate);
		in.ДобОбъявлениеВстроеннойПроцедуры(basic);
		утв(~duplicate);
	кон NewBuiltin0;

	проц NewBuiltin*(id: цел32; конст name: массив из симв8; конст scope: массив из SyntaxTree.ВнутренняяОбластьВидимостиМодуля; realtime: булево);
	перем nameL,nameU: Scanner.СтрокаИдентификатора;
	нач
		Basic.Lowercase(name,nameL);
		Basic.Uppercase(name,nameU);
		NewBuiltin0(id,nameU,scope[ORDв(Scanner.ВариантыПеревода.Uppercase)],realtime);
		NewBuiltin0(id,nameU,scope[ORDв(Scanner.ВариантыПеревода.Русский)],realtime);
	кон NewBuiltin;

	проц NewBuiltinR*(id: цел32; конст имяАн, имяРу: массив из симв8; конст scope: массив из SyntaxTree.ВнутренняяОбластьВидимостиМодуля; realtime: булево);
	перем nameU: Scanner.СтрокаИдентификатора;
	нач
		Basic.Uppercase(имяАн,nameU);
		NewBuiltin0(id,nameU,scope[ORDв(Scanner.ВариантыПеревода.Uppercase)],realtime);
		NewBuiltin0(id,имяРу,scope[ORDв(Scanner.ВариантыПеревода.Русский)],realtime);
		НапишиСтрочкуДляПереводаГлобальногоМодуля(nameU,имяРу);
	кон NewBuiltinR;

	проц NewBuiltinCamelCase*(id: цел32; конст name: массив из симв8; конст scope: массив из SyntaxTree.ВнутренняяОбластьВидимостиМодуля; realtime: булево);
	нач
		NewBuiltin0(id,name,scope[ORDв(Scanner.ВариантыПеревода.Uppercase)],realtime);
		NewBuiltin0(id,name,scope[ORDв(Scanner.ВариантыПеревода.Русский)],realtime);
	кон NewBuiltinCamelCase;

	проц NewCustomBuiltin0(конст name: массив из симв8; scope: SyntaxTree.ВнутренняяОбластьВидимостиМодуля; subType: цел8; procedureType: SyntaxTree.ВыражˉтипИзРодаПроцедур);
	перем
		isDuplicate: булево;
		customBuiltin: SyntaxTree.ОбъявлениеПлатформоЗависимойВстроеннойПроцедуры;
	нач
		customBuiltin := SyntaxTree.ЯвиОбъявлениеПлатформоЗависимойВстроеннойПроцедуры(SyntaxTree.образцовоеНеверноеМестоВ_тексте, SyntaxTree.ЯвиИдентификаторВ_исходнике(name), systemSpecial, subType);
		customBuiltin.УстПраваДоступа(SyntaxTree.ТолькоЧтение); (* TODO: this might be changed *)
		procedureType.Уст«реальногоВремени¿»(истина);
		customBuiltin.УстТип(procedureType); (* TODO: make incompatible to any procedure *)
		customBuiltin.ДобавьСтадиюОсмысления(SyntaxTree.Осмыслен);
		scope.ДобОбъявление(customBuiltin, isDuplicate);
		scope.ДобОбъявлениеВстроеннойПроцедуры(customBuiltin);
		утв(~isDuplicate)
	кон NewCustomBuiltin0;

	проц NewCustomBuiltin*(конст name: массив из симв8; конст scope: массив из SyntaxTree.ВнутренняяОбластьВидимостиМодуля; subType: цел8; procedureType: SyntaxTree.ВыражˉтипИзРодаПроцедур);
	перем
		nameU: Scanner.СтрокаИдентификатора;
	нач
		Basic.Uppercase(name, nameU);
		NewCustomBuiltin0(nameU, scope[ORDв(Scanner.ВариантыПеревода.Uppercase)], subType, procedureType);
		NewCustomBuiltin0(nameU, scope[ORDв(Scanner.ВариантыПеревода.Русский)], subType, procedureType)
	кон NewCustomBuiltin;

	проц GetModuleSectionName*(name, context: SyntaxTree.ИдентификаторВ_исходнике; перем n: массив из симв8);
	перем s: SyntaxTree.СтрокаИдентификатора;
	нач
		если context.И # SyntaxTree.образцовыйНеверныйИдентификатор.И то
			Basic.GetString(context.И,n);
			если n = "A2" то
				Basic.GetString(name.И,n);
				возврат;
			всё;
			Basic.GetString(name.И,s);
			Strings.Append(n,"-");Strings.Append(n,s);
		иначе
			если name.И # SyntaxTree.образцовыйНеверныйИдентификатор.И то
				Basic.GetString(name.И,n);
			иначе
				n := ""
			всё
		всё;
	кон GetModuleSectionName;

	проц ModuleFileName*(name, context: SyntaxTree.ИдентификаторВ_исходнике; перем n: массив из симв8; вхКлючАнглийскиеИмена:булево);
	перем врем : ПереводыЭлементовКода.СтрокаИдентификатора;
	нач
		GetModuleSectionName(name, context, n);
		УтилитыДляПереводаКода.ПереведиИмяМодуляДляВызова(ПереводыЭлементовКода.модули, n, врем, вхКлючАнглийскиеИмена);
		копируйСтрокуДо0(врем, n);
	кон ModuleFileName;

	проц ModuleSectionIdentifier*(name, context: SyntaxTree.ИдентификаторВ_исходнике): SyntaxTree.ИдентификаторВ_исходнике;
	перем n: SyntaxTree.СтрокаИдентификатора;
	нач
		если context.И # SyntaxTree.образцовыйНеверныйИдентификатор.И то
			GetModuleSectionName(name, context, n);
			возврат SyntaxTree.ЯвиИдентификаторВ_исходнике(n);
		иначе
			возврат name
		всё;
	кон ModuleSectionIdentifier;

	проц ContextFromName*(конст fileName: массив из симв8; перем module,context: SyntaxTree.ИдентификаторВ_исходнике);
	перем moduleName, contextName: Scanner.СтрокаИдентификатора; i,j: цел32;
	нач
		i := 0; j := 0;
		нцПока (fileName[i] # 0X) и (fileName[i] # ".") делай
			moduleName[i] := fileName[i];
			увел(i);
		кц;
		moduleName[i] := 0X;
		если fileName[i] # 0X то
			копируйСтрокуДо0(moduleName, contextName);
			увел(i);
			нцПока(fileName[i] # 0X) делай
				moduleName[j] := fileName[i];
				увел(i); увел(j);
			кц;
			moduleName[j] := 0X;
		иначе
			contextName := "A2";
		всё;
		module := SyntaxTree.ЯвиИдентификаторВ_исходнике(moduleName);
		context := SyntaxTree.ЯвиИдентификаторВ_исходнике(contextName);
	кон ContextFromName;

	проц GetModuleName*(module: SyntaxTree.ДеревоМодуля; перем name: массив из симв8);
	нач
		GetModuleSectionName(module.имя, module.контекстA2, name);
	кон GetModuleName;

	проц GetModuleSegmentedName*(module: SyntaxTree.ДеревоМодуля; перем name: Basic.SegmentedName);
	нач
		name[0] := ModuleSectionIdentifier(module.имя, module.контекстA2).И;
		name[1] := Basic.invalidString;
	кон GetModuleSegmentedName;

	проц FindSymbol*(конст name: Basic.SegmentedName; scope: SyntaxTree.ВнутренняяОбластьВидимости): SyntaxTree.ОбъявлениеИменованнойСущности;
	перем s: цел32;  symbol : SyntaxTree.ОбъявлениеИменованнойСущности;

		проц GetSymbolScope;
		перем type: SyntaxTree.Выражениеˉтип;
		нач
			если symbol суть SyntaxTree.ДеревоМодуля то
				scope := symbol(SyntaxTree.ДеревоМодуля).внутренняяОбластьВидимостиМодуля
			аесли symbol суть SyntaxTree.ОбъявлениеИмпортаМодуля то
				scope := symbol(SyntaxTree.ОбъявлениеИмпортаМодуля).деревоМодуля.внутренняяОбластьВидимостиМодуля;
			аесли symbol суть SyntaxTree.ОбъявлениеПроцедуры то
				scope := symbol(SyntaxTree.ОбъявлениеПроцедуры).внутренняяОбластьВидимости
			аесли symbol суть SyntaxTree.ОбъявлениеТипаˉнаименования то
				type := symbol(SyntaxTree.ОбъявлениеТипаˉнаименования).выражениеˉтип.резОсмысления;
				если type суть SyntaxTree.ВыражˉтипИзРодаЗаписей то
					scope := type(SyntaxTree.ВыражˉтипИзРодаЗаписей).внутренняяОбластьВидимости
				всё;
			иначе
				scope := НУЛЬ
			всё
		кон GetSymbolScope;

		проц l4FindSymbol(l0name: SyntaxTree.ИдентификаторВ_исходнике): SyntaxTree.ОбъявлениеИменованнойСущности;
		нач
			если scope = scope.модульˉвладелец.внутренняяОбластьВидимостиМодуля то
				symbol := scope.модульˉвладелец.внутренняяОбластьВидимостиМодуля.ДайОбъявлениеИмпортаМодуляПоИмениМодуля(l0name, scope.модульˉвладелец.контекстA2);
				если symbol = НУЛЬ то
					symbol := scope.НайдиОбъявление(l0name)
				всё;
			иначе
				symbol := scope.НайдиОбъявление(l0name)
			всё;
			возврат symbol
		кон l4FindSymbol;

	нач
		s := 0;
		если name[0] = scope.модульˉвладелец.имя.И то
			увел(s)
		всё;
		scope := scope.модульˉвладелец.внутренняяОбластьВидимостиМодуля; (* expect fully qualified (segmented) name *)
		нцДо
			если scope = НУЛЬ то возврат НУЛЬ всё;
			symbol := l4FindSymbol( SyntaxTree.ИндексСтрокиВИдентификатор(name[s]));
			если symbol = НУЛЬ то возврат НУЛЬ
			иначе
				GetSymbolScope
			всё;
			увел(s);
		кцПри (s = длинаМассива(name)) или (name[s] < 0);
		возврат symbol;
	кон FindSymbol;

	проц GetSymbolNameInScope*(symbol: SyntaxTree.ОбъявлениеИменованнойСущности; inScope: SyntaxTree.ВнутренняяОбластьВидимости; перем name: массив из симв8);
	перем n: SyntaxTree.СтрокаИдентификатора; td: SyntaxTree.ОбъявлениеТипаˉнаименования;
		проц Scope(scope: SyntaxTree.ВнутренняяОбластьВидимости);
		нач
			если scope = НУЛЬ то (* do nothing, locally declared temporary symbol *)
			аесли scope = inScope то (* do not traverse further *)
			аесли scope суть SyntaxTree.ВнутренняяОбластьВидимостиМодуля то
				Scope(scope.охватывающаяОбластьВидимости);
				если (scope.модульˉвладелец.имя.И # NameGlobal.И) и (scope.модульˉвладелец.имя.И # Nameglobal.И) то
					GetModuleName(scope.модульˉвладелец, n);
					Strings.Append(name, n); Strings.Append(name,".");
				всё;
			аесли scope суть SyntaxTree.ВнутренняяОбластьВидимостиТипаИзРодаЗаписей то
				Scope(scope.охватывающаяОбластьВидимости);
				td := scope(SyntaxTree.ВнутренняяОбластьВидимостиТипаИзРодаЗаписей).типИзРодаЗаписейˉвладелец.объявлениеТипа;
				если td = НУЛЬ то
					td := scope(SyntaxTree.ВнутренняяОбластьВидимостиТипаИзРодаЗаписей).типИзРодаЗаписейˉвладелец.выражˉтипУкляВКоторомОпределёнДанныйТип.объявлениеТипа;
				всё;
				td.ДайИмяВВидеСтроки(n);
				Strings.Append(name,n); Strings.Append(name,".")
			аесли scope суть SyntaxTree.ВнутренняяОбластьВидимостиПроцедуры то
				Scope(scope.охватывающаяОбластьВидимости);
				scope(SyntaxTree.ВнутренняяОбластьВидимостиПроцедуры).процедураˉвладелец.ДайИмяВВидеСтроки(n);
				Strings.Append(name,n); Strings.Append(name,".")
			аесли scope суть SyntaxTree.ВнутренняяОбластьВидимостиТипаИзРодаАктивныхЯчеек то
				Scope(scope.охватывающаяОбластьВидимости);
				td := scope(SyntaxTree.ВнутренняяОбластьВидимостиТипаИзРодаАктивныхЯчеек).типИзРодаАктивныхЯчеекˉвладелец.объявлениеТипа;
				td.ДайИмяВВидеСтроки(n);
				Strings.Append(name,n); Strings.Append(name,".")
			всё;
		кон Scope;

	нач
		name := "";
		Scope(symbol.областьВидимостиГдеОбъявлено);
		symbol.ДайИмяВВидеСтроки(n);
		если symbol суть SyntaxTree.ОбъявлениеОперации то (*! append some more bits to make discrimintation possible *)
		всё;
		Strings.Append(name,n);
	кон GetSymbolNameInScope;

	проц GetSymbolName*(symbol: SyntaxTree.ОбъявлениеИменованнойСущности; перем name: массив из симв8);
	нач GetSymbolNameInScope(symbol,НУЛЬ,name)
	кон GetSymbolName;

	проц GetSymbolSegmentedNameInScope*(symbol: SyntaxTree.ОбъявлениеИменованнойСущности; inScope: SyntaxTree.ВнутренняяОбластьВидимости; перем pooledName: Basic.SegmentedName);
	перем td: SyntaxTree.ОбъявлениеТипаˉнаименования; i: цел32;

		проц Scope(scope: SyntaxTree.ВнутренняяОбластьВидимости);
		нач
			если scope = НУЛЬ то (* do nothing, locally declared temporary symbol *)
			аесли scope = inScope то (* do not traverse further *)
			аесли scope суть SyntaxTree.ВнутренняяОбластьВидимостиМодуля то
				Scope(scope.охватывающаяОбластьВидимости);
				если (scope.модульˉвладелец.имя.И # NameGlobal.И) и (scope.модульˉвладелец.имя.И # Nameglobal.И) то
					Basic.SuffixSegmentedName(pooledName,ModuleSectionIdentifier(scope.модульˉвладелец.имя, scope.модульˉвладелец.контекстA2).И);
				всё;
			аесли scope суть SyntaxTree.ВнутренняяОбластьВидимостиТипаИзРодаЗаписей то
				Scope(scope.охватывающаяОбластьВидимости);
				td := scope(SyntaxTree.ВнутренняяОбластьВидимостиТипаИзРодаЗаписей).типИзРодаЗаписейˉвладелец.объявлениеТипа;
				если td = НУЛЬ то
					td := scope(SyntaxTree.ВнутренняяОбластьВидимостиТипаИзРодаЗаписей).типИзРодаЗаписейˉвладелец.выражˉтипУкляВКоторомОпределёнДанныйТип.объявлениеТипа;
				всё;
				Basic.SuffixSegmentedName(pooledName,td.имя.И);
			аесли scope суть SyntaxTree.ВнутренняяОбластьВидимостиПроцедуры то
				Scope(scope.охватывающаяОбластьВидимости);
				Basic.SuffixSegmentedName(pooledName,scope(SyntaxTree.ВнутренняяОбластьВидимостиПроцедуры).процедураˉвладелец.имя.И);
			аесли scope суть SyntaxTree.ВнутренняяОбластьВидимостиТипаИзРодаАктивныхЯчеек то
				Scope(scope.охватывающаяОбластьВидимости);
				td := scope(SyntaxTree.ВнутренняяОбластьВидимостиТипаИзРодаАктивныхЯчеек).типИзРодаАктивныхЯчеекˉвладелец.объявлениеТипа;
				Basic.SuffixSegmentedName(pooledName, td.имя.И);
			всё;
		кон Scope;

	нач
		нцДля i := 0 до длинаМассива(pooledName)-1 делай pooledName[i] := -1 кц;
		Scope(symbol.областьВидимостиГдеОбъявлено);
		Basic.SuffixSegmentedName(pooledName, symbol.имя.И);
	кон GetSymbolSegmentedNameInScope;

	проц GetSymbolSegmentedName*(symbol: SyntaxTree.ОбъявлениеИменованнойСущности; перем pooledName: Basic.SegmentedName);
	нач
		GetSymbolSegmentedNameInScope(symbol,НУЛЬ,pooledName);
	кон GetSymbolSegmentedName;

	проц Level*(t: SyntaxTree.Выражениеˉтип): цел32;
	перем level: цел32;
	нач
		если t суть SyntaxTree.ВыражˉтипИзРодаЧиселЦел то
			просей t.размер˛бит из
				8: level := 0;
				|16: level := 1;
				|32: level := 2;
				|64: level := 3;
			всё;
		аесли t суть SyntaxTree.ВыражˉтипИзРодаЧиселВещ то
			просей t.размер˛бит из
				32: level := 4;
				|64: level := 5;
			всё
		иначе СТОП(100)
		всё;
		возврат level
	кон Level;

	проц ConvertSigned*(this: цел64; bits: размерМЗ): цел64;
	нач
		bits := 64-bits;
		возврат арифмСдвиг (арифмСдвиг (this, bits), -bits);
	кон ConvertSigned;

	проц ConvertUnsigned*(this: цел64; bits: размерМЗ): цел64;
	нач
		bits := 64-bits;
		возврат логСдвиг (логСдвиг (this, bits), -bits);
	кон ConvertUnsigned;

	проц MaxInteger*(system: System; type: SyntaxTree.ВыражˉтипИзРодаПримитивных; signed: булево): цел64;
	нач
		если signed то
			возврат арифмСдвиг (цел64(1), system.SizeOf (type) - 1) - 1;
		иначе
			возврат логСдвиг (цел64(-1), system.SizeOf (type) - 64);
		всё;
	кон MaxInteger;

	проц MinInteger*(system: System; type: SyntaxTree.ВыражˉтипИзРодаПримитивных; signed: булево): цел64;
	нач
		если signed то
			возврат -арифмСдвиг (цел64(1), system.SizeOf (type) - 1);
		иначе
			возврат 0
		всё;
	кон MinInteger;

	(*! make architecture  independent ! *)
	проц MaxFloat*(system: System; type: SyntaxTree.ВыражˉтипИзРодаЧиселВещ): вещ64;
	нач
		если system.SizeOf(type) = 32 то возврат матМаксимум(вещ32) иначе возврат матМаксимум(вещ64) всё;
	кон MaxFloat;

	проц MinFloat*(system: System; type: SyntaxTree.ВыражˉтипИзРодаЧиселВещ): вещ64;
	нач
		если system.SizeOf(type) = 32 то возврат матМинимум(вещ32) иначе возврат матМинимум(вещ64) всё;
	кон MinFloat;

	проц ConvertSet*(this: Basic.Set; bits: размерМЗ): Basic.Set;
	нач
		нцПока bits <= матМаксимум (Basic.Set) делай исключиИзМнваНаБитах (this, bits); увел (bits) кц;
		возврат this;
	кон ConvertSet;

	проц IsUnsignedInteger*(this: цел64; sizeInBits: размерМЗ): булево;
	перем m: цел64;
	нач
		m := арифмСдвиг(цел64(1),sizeInBits);
		возврат (this >= 0) и (this < m)
	кон IsUnsignedInteger;

	проц IsSignedInteger*(this: цел64; sizeInBits: размерМЗ): булево;
	перем m: цел64;
	нач
			m := арифмСдвиг(цел64(1),sizeInBits-1);
			возврат (this < m) и (-this <= m)
	кон IsSignedInteger;

	проц GetSignedIntegerType*(system: System; this: цел64): SyntaxTree.ВыражˉтипИзРодаЧиселЦел;

		(* code snippets for unsigned
		ELSE
			m := Builtins.AslH(1,system.SizeOf(type));
			RETURN (this >= 0) & (this < m)
		END;

		PROCEDURE Bits(x: SIGNED64): BOOLEAN;
		BEGIN
			WHILE x > 0 DO INC(bits); x := x DIV 2 END;
		END Bits;

		IF a = MIN(SIGNED64) THEN (* -a does not work on lowest possible number, ~a+1 would overflow *)
			RETURN Integer[64]
		ELSIF a < 0 THEN
			RETURN Integer[Bits(-a-1)+1]
		ELSE
			RETURN Unisgned[Bits(a)]
		END;
		*)

	нач
		если IsSignedInteger(this,8) то возврат Signed8
		аесли IsSignedInteger(this, 16) то возврат Signed16
		аесли IsSignedInteger(this, 32) то возврат Signed32
		иначе возврат Signed64
		всё;
	кон GetSignedIntegerType;

	проц GetIntegerType*(system: System; this: цел64): SyntaxTree.ВыражˉтипИзРодаЧиселЦел;
	нач
		если IsSignedInteger(this,8) то возврат Signed8
				(* system.SizeOf(...) = 8 : detect special backends with no sizes smaller than 32 *)
		аесли (system.SizeOf(Unsigned8) =  8) и IsUnsignedInteger(this,8) то возврат Unsigned8
		аесли IsSignedInteger(this, 16) то возврат Signed16
		аесли (system.SizeOf(Unsigned16) = 16) и IsUnsignedInteger(this,16) то возврат Unsigned16
		аесли IsSignedInteger(this, 32) то возврат Signed32
		аесли IsUnsignedInteger(this,32) то возврат Unsigned32
		иначе возврат Signed64
		всё;
	кон GetIntegerType;

	проц NewIntegerValue*(system: System; position: Position; hugeint: цел64): SyntaxTree.Значение˛известноеВоВремяКомпиляции;
	перем value: SyntaxTree.Значение˛известноеВоВремяКомпиляции˛целое;
	нач
		value := SyntaxTree.ЯвиЗначение˛известноеВоВремяКомпиляции˛целое(position,hugeint);
		value.УстТип(GetIntegerType(system,hugeint));
		возврат value
	кон NewIntegerValue;

	проц NewBooleanValue*(system: System; position: Position; b: булево): SyntaxTree.Значение˛известноеВоВремяКомпиляции;
	перем value: SyntaxTree.Значение˛известноеВоВремяКомпиляции˛булево;
	нач
		value := SyntaxTree.ЯвиЗначение˛известноеВоВремяКомпиляции˛булево(position,b);
		value.УстТип(system.booleanType);
		возврат value
	кон NewBooleanValue;

	проц GetSetType*(system: System; this: Basic.Set): SyntaxTree.МнвоType;
	нач
		если this * {0 .. 7} = this то возврат Set8
		аесли this * { 0 .. 15 } = this то возврат Set16
		аесли this * { 0 .. 31 } = this то возврат Set32
		иначе возврат Set64
		всё
	кон GetSetType;

	проц NewSetValue*(system: System; position: Position; s: Basic.Set): SyntaxTree.Значение˛известноеВоВремяКомпиляции;
	перем value: SyntaxTree.Значение˛известноеВоВремяКомпиляции˛байт;
	нач
		value := SyntaxTree.ЯвиЗначение˛известноеВоВремяКомпиляции˛байт(position,s);
		value.УстТип(GetSetType(system,s));
		возврат value
	кон NewSetValue;

	проц NewCharacterValue*(system: System; position: Position; c: симв8): SyntaxTree.Значение˛известноеВоВремяКомпиляции;
	перем value: SyntaxTree.Значение˛известноеВоВремяКомпиляции˛символ;
	нач
		value := SyntaxTree.ЯвиЗначение˛известноеВоВремяКомпиляции˛символ(position,c);
		value.УстТип(system.characterType);
		возврат value
	кон NewCharacterValue;

	проц NewСимв32Value*(system: System; position: Position; c: UCS32.CharJQ): SyntaxTree.Значение˛известноеВоВремяКомпиляции;
	перем value: SyntaxTree.Значение˛известноеВоВремяКомпиляции˛символ32;
	нач
		value := SyntaxTree.ЯвиЗначение˛известноеВоВремяКомпиляции˛символ32(position,c);
		value.УстТип(Симв32);
		возврат value
	кон NewСимв32Value;


	проц NewNilValue*(system: System; position: Position): SyntaxTree.Значение˛известноеВоВремяКомпиляции;
	перем value: SyntaxTree.Значение˛известноеВоВремяКомпиляции˛НУЛЬ;
	нач
		value := SyntaxTree.ЯвиЗначение˛известноеВоВремяКомпиляции˛НУЛЬ(position);
		value.УстТип(system.anyType);
		возврат value
	кон NewNilValue;

	(* distance for assignment to <- from *)
	проц BasicTypeDistance*(system: System; from, to: SyntaxTree.ВыражˉтипИзРодаПримитивных): размерМЗ;
	перем fromSize, toSize, distance: размерМЗ;
	нач
		fromSize := system.SizeOf(from); toSize := system.SizeOf(to);
		distance := -1;
		если (from суть SyntaxTree.ВыражˉтипИзРодаЧиселЦел) и (to суть SyntaxTree.ВыражˉтипИзРодаЧиселЦел) и (toSize >= fromSize) то
			если from(SyntaxTree.ВыражˉтипИзРодаЧиселЦел).соЗнакомЛи¿ # to(SyntaxTree.ВыражˉтипИзРодаЧиселЦел).соЗнакомЛи¿ то
				если (toSize=fromSize) и to(SyntaxTree.ВыражˉтипИзРодаЧиселЦел).соЗнакомЛи¿ то
					distance := матМинимум(размерМЗ)
				иначе
					увел(distance,2);
				всё;
			всё;
			нцПока toSize >= fromSize делай
				toSize := toSize DIV 2; увел(distance);
			кц;
		аесли (from суть SyntaxTree.ВыражˉтипИзРодаЧиселЦел) и (to суть SyntaxTree.ВыражˉтипSIZE) и (toSize >= fromSize)  то
			distance := 1;
			нцПока toSize >= fromSize делай
				toSize := toSize DIV 2; увел(distance);
			кц;
		аесли (from суть SyntaxTree.ВыражˉтипSIZE) и (to суть SyntaxTree.ВыражˉтипИзРодаЧиселЦел)  и (toSize >= fromSize) то
			distance := 1;
			нцПока toSize >= fromSize делай
				toSize := toSize DIV 2; увел(distance);
			кц;
		аесли (from суть SyntaxTree.ВыражˉтипИзРодаЛитер) и (to суть SyntaxTree.ВыражˉтипИзРодаЛитер) и (toSize >= fromSize) или
			(from суть SyntaxTree.ВыражˉтипИзРодаЧиселВещ) и (to суть SyntaxTree.ВыражˉтипИзРодаЧиселВещ) и (toSize >= fromSize) или
			(from суть SyntaxTree.МнвоType) и (to суть SyntaxTree.МнвоType) и (toSize >= fromSize)
		то
			нцПока toSize >= fromSize делай
				toSize := toSize DIV 2; увел(distance);
			кц;
		аесли (from суть SyntaxTree.ВыражˉтипИзРодаЧиселЦел) и (to суть SyntaxTree.ВыражˉтипИзРодаЧиселВещ) то
			если toSize = 64 то distance := 1 иначе distance := 0 всё;
			toSize := 64;
			нцПока toSize >= fromSize делай
				toSize := toSize DIV 2; увел(distance);
			кц;
		аесли (from суть SyntaxTree.ВыражˉтипSIZE) и (to суть SyntaxTree.ВыражˉтипИзРодаЧиселВещ) то
			distance := 1;
			нцПока toSize >= fromSize делай
				toSize := toSize DIV 2; увел(distance);
			кц;
		аесли (from суть SyntaxTree.ВыражˉтипИзРодаДиапазонов) и (to суть SyntaxTree.ВыражˉтипИзРодаДиапазонов) то
			distance := 0;
		аесли (from суть SyntaxTree.ВыражˉтипБулево) и (to суть SyntaxTree.ВыражˉтипБулево) то
			distance := 0;
		всё;

		если distance < 0 то distance := матМаксимум(размерМЗ) всё;
		возврат distance
	кон BasicTypeDistance;
	
проц СимволБоитсяЛиМашКода¿*(sym: SyntaxTree.ОбъявлениеИменованнойСущности; квоВидимыхСегментов : размерМЗ):булево;
перем массивСегментов: Basic.SegmentedName;
перем ц, квоСегментов, квоНевидимыхСегментов: размерМЗ;
перем ОВ: ПереводыЭлементовКода.ИменованнаяОбластьВидимости;
нач
	GetSymbolSegmentedName(sym, массивСегментов);
	нц 
		если квоСегментов = длинаМассива(массивСегментов) то
			прервиЦикл
		аесли (массивСегментов[квоСегментов] = Basic.invalidString) то
			прервиЦикл всё;
		увел(квоСегментов);
		кц;
	квоНевидимыхСегментов := квоСегментов - квоВидимыхСегментов;
	нц
		если ц = квоСегментов то
			прервиЦикл всё;
		если ц = 0 то 
			ОВ := УтилитыДляПереводаКода.ДайЯчейкуМодуля(ПереводыЭлементовКода.модули, Basic.ДайСтрокуКакСвежуюКопию(массивСегментов[ц])^);
			если ОВ = НУЛЬ то возврат ложь всё;
			просейТип ОВ:
			| ПереводыЭлементовКода.Модуль делай
				если (ОВ.en^ # ОВ.ru^) и (ц >= квоНевидимыхСегментов) то возврат истина всё 
			иначе
				возврат ложь всё
		иначе
			ОВ := УтилитыДляПереводаКода.ДайЯчейкуСимвола(ОВ.члены, Basic.ДайСтрокуКакСвежуюКопию(массивСегментов[ц])^, УтилитыДляПереводаКода.РежимПеревода.Перевод);
			если ОВ = НУЛЬ то возврат ложь всё;
			просейТип ОВ:
			| ПереводыЭлементовКода.Перевод делай
				если (ОВ.en^ # ОВ.ru^) и (ц >= квоНевидимыхСегментов) то возврат истина всё
			иначе
				возврат ложь всё всё;
		увел(ц) кц;
	возврат ложь кон СимволБоитсяЛиМашКода¿;
	

	проц GetIdentifier*(symbol: SyntaxTree.ИндВТаблИдент; case: Scanner.ВариантыПеревода): SyntaxTree.ИдентификаторВ_исходнике;
	нач
		если (symbol >= 0) и (symbol < длинаМассива(identifiers,1)) то
			возврат identifiers[Scanner.ORDв(case),symbol]
		иначе
			возврат SyntaxTree.образцовыйНеверныйИдентификатор
		всё;
	кон GetIdentifier;

	(* GetSymbol возвращает индекс идентификатора в глобальной таблице идентификаторов *)
	проц GetSymbol*(case: Scanner.ВариантыПеревода; id: SyntaxTree.ИдентификаторВ_исходнике): цел32;
	перем i: цел32;
	нач
		(*! quick and dirty implementation, optimize ! *)
		нцДля i := 0 до длинаМассива(identifiers,1)-1 делай
			если id.И = identifiers[Scanner.ORDв(case),i].И то возврат i всё;
		кц;
		возврат -1
	кон GetSymbol;


	проц НапишиСтрочкуДляПереводаГлобальногоМодуля(конст имяАнгл,имяРу: массив из симв8);
	нач
		(* Кусок для словаря переименований @Global.перев.XML Закомментируй, когда не нужно *)
		(** ЛогЯдра.пСтроку8(\"	<Scope en=""\);
		ЛогЯдра.пСтроку8(имяАнгл);
		ЛогЯдра.пСтроку8(\"" ru=""\);
		ЛогЯдра.пСтроку8(имяРу);
		ЛогЯдра.пСтроку8(\"" rx="0" dyn="0"/>"\);
		ЛогЯдра.пВК_ПС;  *)
		(* почти всё генерируется автоматически, но операции OR и MOD добавлены 
		в @Global.перев.XML руками, поскольку они являются 
		ещё и ключевыми словами языка и в определениях операций они 
		автоматически сами не переведутся, и не упомянуты в списках файлов, к-рые
		порождают данный словарь перевода *)

	кон НапишиСтрочкуДляПереводаГлобальногоМодуля;

	проц NewBuiltinIdentifierR(индексВТаблицеИдентификаторов: цел32; конст name_en: массив из симв8; конст name_ру: массив из симв8; пишиВЗаготовкуПереводовГлоальногоМодуля: булево);
	нач
		утв(индексВТаблицеИдентификаторов < длинаМассива(identifiers[0]));
		identifiers[ORDв(Scanner.ВариантыПеревода.Uppercase),индексВТаблицеИдентификаторов] := SyntaxTree.ЯвиИдентификаторВ_исходнике(name_en);
		identifiers[ORDв(Scanner.ВариантыПеревода.Русский),индексВТаблицеИдентификаторов] := SyntaxTree.ЯвиИдентификаторВ_исходнике(name_ру);
		если пишиВЗаготовкуПереводовГлоальногоМодуля то
			НапишиСтрочкуДляПереводаГлобальногоМодуля(name_en,name_ру) всё кон NewBuiltinIdentifierR;

	проц InitIdentifiers;
	перем i: цел32;

		проц NewKeywordIdentifier(op: цел32);
		перем id: Scanner.ИндексИдентификатора;
		нач
			Scanner.GetKeyword(Scanner.ВариантыПеревода.Uppercase,op,id);
			identifiers[ORDв(Scanner.ВариантыПеревода.Uppercase),op] := SyntaxTree.ИндексСтрокиВИдентификатор(id);
			Scanner.GetKeyword(Scanner.ВариантыПеревода.Русский,op,id);
			identifiers[ORDв(Scanner.ВариантыПеревода.Русский),op] := SyntaxTree.ИндексСтрокиВИдентификатор(id);
		кон NewKeywordIdentifier;

		проц NewBuiltinIdentifier(индексВТаблицеИдентификаторов: цел32; конст name: массив из симв8);
		нач
			утв(индексВТаблицеИдентификаторов < длинаМассива(identifiers[0]));
			identifiers[ORDв(Scanner.ВариантыПеревода.Uppercase),индексВТаблицеИдентификаторов] := SyntaxTree.ЯвиИдентификаторВ_исходнике(name);
			identifiers[ORDв(Scanner.ВариантыПеревода.Русский),индексВТаблицеИдентификаторов] := SyntaxTree.ЯвиИдентификаторВ_исходнике(name);
		кон NewBuiltinIdentifier;

	нач
		нцДля i := 0 до длинаМассива(identifiers,1)-1 делай
			identifiers[ORDв(Scanner.ВариантыПеревода.Uppercase),i] := SyntaxTree.образцовыйНеверныйИдентификатор; 
			identifiers[ORDв(Scanner.ВариантыПеревода.Русский),i] := SyntaxTree.образцовыйНеверныйИдентификатор;
		кц;
		нцДля i := 0 до Scanner.КонецТекста-1 делай
			NewKeywordIdentifier(i);
		кц;
		(* этот список должен быть синхронен с другими местами, ищи названия в кавычках *)
		NewBuiltinIdentifierR(Abs,"ABS","матМодуль",ложь); 
		NewBuiltinIdentifierR(Alias,"ALIAS","срезМатМассива",истина);
		NewBuiltinIdentifierR(Ash,"ASH","арифмСдвиг",ложь);
		NewBuiltinIdentifierR(Cap,"CAP","ASCII_вЗаглавную",ложь);
		NewBuiltinIdentifierR(Chr,"CHR","симв8ИзКода",ложь); 
		NewBuiltinIdentifierR(Chr32,"CHR32","симв32ИзКода",ложь); 
		NewBuiltinIdentifierR(Entier,"ENTIER","округлиВниз",ложь);
		NewBuiltinIdentifierR(EntierH,"ENTIERH","округлиВниз64",ложь);
		NewBuiltinIdentifierR(Len,"LEN","длинаМассива",ложь);
		NewBuiltinIdentifierR(Long,"LONG","устарПреобразуйКБолееШирокомуЦел",ложь);
		NewBuiltinIdentifierR(Lsh,"LSH","логСдвиг",ложь);
		NewBuiltinIdentifierR(Max,"MAX","матМаксимум",ложь);
		NewBuiltinIdentifierR(Min,"MIN","матМинимум",ложь);
		NewBuiltinIdentifierR(Odd,"ODD","нечётноеЛи¿",ложь);
		NewBuiltinIdentifierR(Ord,"ORD","кодСимв8",ложь);
		NewBuiltinIdentifierR(Ord32,"ORD32","кодСимв32",ложь); 
		NewBuiltinIdentifierR(Reshape,"RESHAPE","видоизмениМатМассив",ложь);
		NewBuiltinIdentifierR(Rol,"ROL","вращВлевоБит",ложь);
		NewBuiltinIdentifierR(Ror,"ROR","вращВправоБит",ложь);
		NewBuiltinIdentifierR(Rot,"ROT","вращБит",ложь);
		NewBuiltinIdentifierR(Short,"SHORT","устарПреобразуйКБолееУзкомуЦел",ложь);
		NewBuiltinIdentifierR(Shl,"SHL","логИлиАрифмСдвигВлево",ложь);
		NewBuiltinIdentifierR(Shr,"SHR","логИлиАрифмСдвигВправо",ложь);
		NewBuiltinIdentifierR(Sum,"SUM","суммаЭлтовМатМассива",ложь);
		NewBuiltinIdentifierR(Dim,"DIM","размерностьМатМассива",ложь);
		NewBuiltinIdentifierR(Cas,"CAS","сравнениеСОбменом",ложь);
		NewBuiltinIdentifierR(Dec,"DEC","умень",ложь);
		NewBuiltinIdentifierR(Excl,"EXCL","исключиИзМнваНаБитах",ложь);
		NewBuiltinIdentifierR(Inc,"INC","увел",ложь);
		NewBuiltinIdentifierR(Incl,"INCL","включиВоМнвоНаБитах",ложь);
		NewBuiltinIdentifier(All,"ALL");
		NewBuiltinIdentifierR(Re,"RE","комплRe",ложь); (* PascalABC: c.re, поэтому оставляем пока что *)
		NewBuiltinIdentifierR(Im,"IM","комплIm",ложь);
		NewBuiltinIdentifier(IncMul,"INCMUL"); (* Операция над мат.массивовм, см. FoxArrayBase и PCArrays.Mod *)
		NewBuiltinIdentifier(DecMul,"DECMUL");

		(* TODO: check if ok. The operators defined in FoxArrayBase require the following identifiers *)
		(* TODO: ".*+" should preferably be added as a new token in the scanner *)
		identifiers[ORDв(Scanner.ВариантыПеревода.Uppercase), Scanner.Becomes] := SyntaxTree.ЯвиИдентификаторВ_исходнике(":=");
		identifiers[ORDв(Scanner.ВариантыПеревода.Русский), Scanner.Becomes] := SyntaxTree.ЯвиИдентификаторВ_исходнике(":=");
		identifiers[ORDв(Scanner.ВариантыПеревода.Uppercase), Scanner.Transpose] := SyntaxTree.ЯвиИдентификаторВ_исходнике("`");
		identifiers[ORDв(Scanner.ВариантыПеревода.Русский), Scanner.Transpose] := SyntaxTree.ЯвиИдентификаторВ_исходнике("`");
		identifiers[ORDв(Scanner.ВариантыПеревода.Uppercase), DotTimesPlus] := SyntaxTree.ЯвиИдентификаторВ_исходнике(".*+");
		identifiers[ORDв(Scanner.ВариантыПеревода.Русский), DotTimesPlus] := SyntaxTree.ЯвиИдентификаторВ_исходнике(".*+");
		identifiers[ORDв(Scanner.ВариантыПеревода.Uppercase), AtMulDec] := SyntaxTree.ЯвиИдентификаторВ_исходнике("@MulDec");
		identifiers[ORDв(Scanner.ВариантыПеревода.Русский), AtMulDec] := SyntaxTree.ЯвиИдентификаторВ_исходнике("@MulDec");
		identifiers[ORDв(Scanner.ВариантыПеревода.Uppercase), AtMulInc] := SyntaxTree.ЯвиИдентификаторВ_исходнике("@MulInc");
		identifiers[ORDв(Scanner.ВариантыПеревода.Русский), AtMulInc] := SyntaxTree.ЯвиИдентификаторВ_исходнике("@MulInc");

		identifiers[ORDв(Scanner.ВариантыПеревода.Uppercase),Conversion] := SyntaxTree.ЯвиИдентификаторВ_исходнике("@Convert");
		identifiers[ORDв(Scanner.ВариантыПеревода.Русский),Conversion] := SyntaxTree.ЯвиИдентификаторВ_исходнике("@Convert");
		
		(* Виды флагов  *)

		(* NewBuiltinIdentifierR(NameProtected, "PROTECTED", "PROTECTED"); *)
		NewBuiltinIdentifier(NameWinAPI, StringWinAPI);
		NewBuiltinIdentifier(NameC, StringC);
		NewBuiltinIdentifier(NamePlatformCC, "PlatformCC");
		NewBuiltinIdentifier(NameMovable, "MOVABLE"); (* неизвестно, что это, в описании языка нет, в исходниках нет. Связано с ОбъявлениеПараметра.movable,
		но похоже, что ни на что не влияет. *)		
		NewBuiltinIdentifierR(NameUntraced, "UNTRACED", "неОтслСборщиком",истина);
		NewBuiltinIdentifier(NameUntracked, "UNTRACKED"); (* системный флаг *)
		NewBuiltinIdentifierR(NameDelegate, "DELEGATE", "делегат",истина); (* системный флаг *)
		NewBuiltinIdentifier(NameInterrupt, "INTERRUPT"); (* системный флаг *)
		NewBuiltinIdentifier(NamePcOffset, "PCOFFSET"); (* системный флаг *)
		NewBuiltinIdentifier(NameNoPAF, "NOPAF");
		NewBuiltinIdentifier(NameEntry, "INITIAL"); (* Точка входа *)
		(* NewBuiltinIdentifier(NameExit, StringExit); (* совпадает с Final, отключаем *) *)
		NewBuiltinIdentifier(NameFixed, "FIXED");
		NewBuiltinIdentifierR(NameFictive, "FICTIVE","поСмещению",истина);
		NewBuiltinIdentifierR(NameAligned, "ALIGNED","выровнять",истина);
		NewBuiltinIdentifier(NameAlignStack, "ALIGNSTACK");
		(* ModuleParser.Mod должен соответствовать, но сейчас он не соответствует и падает! *)
		NewBuiltinIdentifierR(NameExclusive, "EXCLUSIVE", "единолично",истина);
		NewBuiltinIdentifierR(NameActive,"ACTIVE", "активное",истина);
		NewBuiltinIdentifierR(NamePriority, "PRIORITY", "приоритет",истина);
		NewBuiltinIdentifier(NameSafe, "SAFE"); (* модификатор блока *)
		NewBuiltinIdentifierR(NameRealtime, "REALTIME", "можетПрерыватьСборщика",истина);
		NewBuiltinIdentifier(NameDynamic, "DYNAMIC");
		NewBuiltinIdentifier(NameDataMemorySize, "DataMemorySize"); (* для активных ячеек *)
		NewBuiltinIdentifier(NameCodeMemorySize, "CodeMemorySize"); (* для активных ячеек *)
		(* 
	  (** Этих двух вооще нету *)
		NewBuiltinIdentifier(NameChannelWidth, StringChannelWidth);
		NewBuiltinIdentifier(NameChannelDepth, StringChannelDepth); *)
		
		(** есть IdentifierChannelModule вместо этого 
		NewBuiltinIdentifier(NameChannelModule, StringChannelModule); *)


	  (* ключевые слова для активных ячеек *)
		NewBuiltinIdentifier(NameVector, "Vector");
		NewBuiltinIdentifier(NameFloatingPoint, "FloatingPoint");
		NewBuiltinIdentifier(NameNoMul,"NoMul");
		NewBuiltinIdentifier(NameNonBlockingIO,"NonBlockingIO");
		NewBuiltinIdentifier(NameTRM, "TRM");
		NewBuiltinIdentifier(NameTRMS, "TRMS");
		NewBuiltinIdentifier(NameBackend, "Backend");
		NewBuiltinIdentifier(NameRuntime, "Runtime");
		NewBuiltinIdentifier(NameEngine, "Engine");
		
		(* модификатор модуля для активных ячеек *)
		NewBuiltinIdentifier(NameFrequencyDivider, "FrequencyDivider");
		
		(* конец ключевых слов для активных ячеек *)
		NewBuiltinIdentifierR(NameFinal, "FINAL","неРасширяемая",истина);
		NewBuiltinIdentifier(NameAbstract, "ABSTRACT");
		
		NewBuiltinIdentifier(NameRegister, "REGISTER");
		NewBuiltinIdentifier(NameNoReturn, "NORETURN");
		NewBuiltinIdentifierR(NamePlain, "PLAIN", "безКадраАктивации",истина);
		NewBuiltinIdentifierR(NameUnsafe, "UNSAFE", "опасныйДоступКПамяти",истина);
		NewBuiltinIdentifierR(NameDisposable, "DISPOSABLE", "удалятьИзПамятиЯвно",истина);
		NewBuiltinIdentifierR(NameUnchecked, "UNCHECKED", "безОбычныхДинПроверок",истина);
		NewBuiltinIdentifierR(NameUncooperative, "UNCOOPERATIVE", "безКооперации",истина);
		NewBuiltinIdentifierR(NameПерекрыта, "OVERRIDE", "перекрыта",истина);
		NewBuiltinIdentifier(NameFingerprint, "Fingerprint"); (* модификатор блока, используется (как минимум, в нескольких) символьных файлах *)

	кон InitIdentifiers;

	(** initialize the global namespace *)
	проц Init;
	нач
		утв(НачалоФлагов > IncMul);
		InitIdentifiers;
		(* names are not arbitrary, do not change unless you know what you do (compatibilty with paco!) *)
		SystemName := SyntaxTree.ЯвиИдентификаторВ_исходнике("SYSTEM");
		systemName := SyntaxTree.ЯвиИдентификаторВ_исходнике("system");
		НИЗКОУРName := SyntaxTree.ЯвиИдентификаторВ_исходнике("НИЗКОУР");
		SelfParameterName := SyntaxTree.ЯвиИдентификаторВ_исходнике("@Self");
		ReturnParameterName := SyntaxTree.ЯвиИдентификаторВ_исходнике("@ReturnParameter");
		PointerReturnName := SyntaxTree.ЯвиИдентификаторВ_исходнике("@PtrReturnType");
		ResultName := SyntaxTree.ЯвиИдентификаторВ_исходнике("RESULT");
		A2Name := SyntaxTree.ЯвиИдентификаторВ_исходнике("A2");
		ArrayBaseName := SyntaxTree.ЯвиИдентификаторВ_исходнике("FoxArrayBase");
		ComplexNumbersName := SyntaxTree.ЯвиИдентификаторВ_исходнике("ComplexNumbers");
		RecordBodyName := SyntaxTree.ЯвиИдентификаторВ_исходнике("@Body");
		ModuleBodyName := SyntaxTree.ЯвиИдентификаторВ_исходнике("@Body");

		NameGlobal := SyntaxTree.ЯвиИдентификаторВ_исходнике("@GLOBAL");
		Nameglobal := SyntaxTree.ЯвиИдентификаторВ_исходнике("@global");

		IdentifierChannelModule := SyntaxTree.ЯвиИдентификаторВ_исходнике("Channels"); (* имя модуля каналов для активных ячеек *)
		IdentifierEngine := SyntaxTree.ЯвиИдентификаторВ_исходнике("Engine"); (* что-то для активных ячеек *)

		(* types *)
		Signed8 := SyntaxTree.ЯвиВыражˉтипИзРодаЧиселЦелых(8, истина);
		Signed16 := SyntaxTree.ЯвиВыражˉтипИзРодаЧиселЦелых(16, истина);
		Signed32 := SyntaxTree.ЯвиВыражˉтипИзРодаЧиселЦелых(32, истина);
		Signed64 := SyntaxTree.ЯвиВыражˉтипИзРодаЧиселЦелых(64, истина);
		Unsigned8 := SyntaxTree.ЯвиВыражˉтипИзРодаЧиселЦелых(8, ложь);
		Unsigned16 := SyntaxTree.ЯвиВыражˉтипИзРодаЧиселЦелых(16, ложь);
		Unsigned32 := SyntaxTree.ЯвиВыражˉтипИзРодаЧиселЦелых(32, ложь);
		Unsigned64 := SyntaxTree.ЯвиВыражˉтипИзРодаЧиселЦелых(64, ложь);
		Float32 := SyntaxTree.ЯвиВыражˉтипИзРодаЧиселВещ(32);
		Float64 := SyntaxTree.ЯвиВыражˉтипИзРодаЧиселВещ(64);
		Complex32 := SyntaxTree.ЯвиВыражˉтипИзРодаЧисел(Float32);
		Complex64 := SyntaxTree.ЯвиВыражˉтипИзРодаЧисел(Float64);
		Set8 := SyntaxTree.ЯвиВыражˉтипИзРодаБайт(8);
		Set16 := SyntaxTree.ЯвиВыражˉтипИзРодаБайт(16);
		Set32 := SyntaxTree.ЯвиВыражˉтипИзРодаБайт(32);
		Set64 := SyntaxTree.ЯвиВыражˉтипИзРодаБайт(64);
		
		Симв32 := SyntaxTree.ЯвиВыражˉтипИзРодаЛитер(32)
	кон Init;

нач
	Init;
кон LisGlobal.
