модуль LisInterpreter; (** AUTHOR ""; PURPOSE ""; *)

(* FoxInterpreter.Expression
	FoxInterpreter.c ~ *)

использует Scanner := LisScanner, AOParser := LisParser, SyntaxTree := LisSyntaxTree, Printout := LisPrintout, Commands, Diagnostics, StringPool, InterpreterSymbols := LisInterpreterSymbols, D:= Debugging,
	Strings, Потоки, Modules, PersistentObjects, Basic := FoxBasic, Global := LisGlobal, Heaps, UCS32;

конст
	EnableTrace = ложь;
	MaxIndex = 8;

тип
	Result*= InterpreterSymbols.Result;
	Value*=InterpreterSymbols.Value;
	Integer*=InterpreterSymbols.IntegerValue;
	Real*=InterpreterSymbols.RealValue;
	String*=InterpreterSymbols.StringValue;
	Boolean*=InterpreterSymbols.BooleanValue;
	Set*=InterpreterSymbols.SetValue;
	Range*=InterpreterSymbols.RangeValue;
	Char*=InterpreterSymbols.CharValue;
	Any*=InterpreterSymbols.AnyValue;
	MathArrayValue*= InterpreterSymbols.MathArrayValue;

	Scope*=InterpreterSymbols.Scope;
	Container*= InterpreterSymbols.Container;

	Builtin*=окласс (InterpreterSymbols.Object)
	перем id: цел32;
	кон Builtin;

	Item*= запись
		object*: InterpreterSymbols.Item;
		in*: InterpreterSymbols.Item;
		name*: StringPool.Index;
		i*: массив MaxIndex из цел32; (* indices if applicable *)
	кон;

	CommandStatement = окласс (SyntaxTree.Предписание)
	перем command: Strings.String;

		проц & InitCommandStatement(s: Strings.String);
		нач
			command := s
		кон InitCommandStatement;

	кон CommandStatement;

	PrintStatement = окласс (SyntaxTree.Предписание)
	перем expression: SyntaxTree.Выражениеˉзначение;

		проц & InitPrintStatement(e: SyntaxTree.Выражениеˉзначение);
		нач
			expression := e;
		кон InitPrintStatement;

	кон PrintStatement;

	Parser*= окласс(AOParser.Parser)

		проц {перекрыта}Statement*(statements: SyntaxTree.ПоследовательностьПредписаний; outer: SyntaxTree.Предписание): булево;
		перем statement: SyntaxTree.Предписание;
		нач
			если (Symbol() = Scanner.ВосклицательныйЗнак) то
				statement := Cmd();
				если statement # НУЛЬ то
					statements.ДобПредписание(statement);
				всё;
				возврат истина
			аесли (Symbol() = Scanner.ВопросительныйЗнак) то
				statement := Print();
				если statement # НУЛЬ то
					statements.ДобПредписание(statement);
				всё;
				возврат истина
			иначе
				возврат Statement^(statements, outer);
			всё;
		кон Statement;

		проц Cmd(): SyntaxTree.Предписание;
		перем cmd: CommandStatement; string: Scanner.Лексема;
		нач
			NextToken;
			если MandatoryString(string) то
			нов(cmd, string.string);
			(* TRACE(string^) *)
			всё;
			возврат cmd;
		кон Cmd;

		проц Print(): SyntaxTree.Предписание;
		перем print: PrintStatement;
		нач
			NextToken;
			нов(print, сам.Expression());
			возврат print;
		кон Print;

	кон Parser;

	Interpreter* = окласс (SyntaxTree.Посетитель)
	перем
		value: булево;
		item-: Item;
		module-: Modules.Module;
		typeDesc-: Modules.TypeDesc;
		scope-: Scope;
		exit: булево;
		error-: булево;
		diagnostics-: Diagnostics.Diagnostics;
		context-: Commands.Context;

		проц & Init*(l0scope: Scope; l1diagnostics: Diagnostics.Diagnostics; l2context: Commands.Context);
		нач
			если l0scope = НУЛЬ то l0scope := global всё;
			сам.scope := l0scope;
			error := ложь;
			сам.diagnostics := l1diagnostics;
			сам.context := l2context;
		кон Init;

		проц SetScope*(s: Scope);
		нач
			scope := s
		кон SetScope;

		проц Reset*;
		нач
			error := ложь;
		кон Reset;

		проц Error*(конст msg: массив из симв8);
		нач
			если error то возврат всё;
			error := истина;
			Basic.Error(diagnostics, "", Basic.invalidPosition, msg);
			(* Инспекция(6464); *)
		кон Error;

		проц ErrorAt*(конст msg: массив из симв8; где : Basic.Position);
		перем имяФайла: Basic.FileName;
		нач
			если error то возврат всё;
			(*! use diagnostics *)
			error := истина;
			если где.имяФайла # НУЛЬ то
				копируйСтрокуДо0(UCS32.JQvNovU8(где.имяФайла^)^,имяФайла) всё;
			Basic.Error(diagnostics, имяФайла, где, msg);
			(* Инспекция(6464); *)
		кон ErrorAt;


		проц ErrorSS(конст msg: массив из симв8; id: StringPool.Index);
		перем name: массив 128 из симв8; message: массив 256 из симв8;
		нач
			если error то возврат всё;
			(*! use diagnostics *)
			error := истина;
			трассируй(diagnostics);
			копируйСтрокуДо0(msg, message);
			если id # 0 то Strings.Append(message," "); StringPool.GetString(id, name); Strings.Append(message, name); всё;
			Basic.Error(diagnostics, "", Basic.invalidPosition, message);
		кон ErrorSS;

		(** syntax tree types omitted -- unused *)

		(** expressions *)

		проц {перекрыта}ПосетиВыражˉзначениеКонструкторБайта*(x: SyntaxTree.ВыражˉзначениеКонструкторБайта);
		перем s: мнвоНаБитахМЗ; i: размерМЗ; l3value: Value;
		нач
			нцДля i := 0 до x.состав.Длина()-1 делай
				если GetValue(x.состав.ДайВыражение(i), l3value) то
					если l3value суть Integer то включиВоМнвоНаБитах(s, цел32(l3value(Integer).value))
					аесли l3value суть Range то s := s + мнвоНаБитахМЗ({FIRST(l3value(Range).value)..LAST(l3value(Range).value)})
					иначе Error("wrong value type")
					всё;
				всё;
			кц;
			NewSet(s)
		кон ПосетиВыражˉзначениеКонструкторБайта;

		проц {перекрыта}ПосетиВыражˉзначениеКонструкторМатМассива*(x: SyntaxTree.ВыражˉзначениеКонструкторМатМассива);
		перем numberElements, i: размерМЗ; a: MathArrayValue;
		нач
			numberElements := x.состав.Длина();
			нов(a, numberElements);
			нцДля i := 0 до numberElements-1 делай
				ВычислиВыражениеˉзначение(x.состав.ДайВыражение(i));
				a.SetValue(i,item.object(Value));
			кц;
			item.object := a; value := истина;
		кон ПосетиВыражˉзначениеКонструкторМатМассива;

		проц NewAny(о: динамическиТипизированныйУкль);
		перем v: Any;
		нач
			нов(v, о); item.object := v; value := истина;
		кон NewAny;

		проц NewInt(i: цел64);
		перем v: Integer;
		нач
			нов(v, i); item.object := v; value := истина
		кон NewInt;

		проц NewReal(i: вещ64);
		перем v: Real;
		нач
			нов(v, i); item.object := v; value := истина
		кон NewReal;

		проц NewBool(b: булево);
		перем v: Boolean;
		нач
			нов(v, b); item.object := v; value := истина;
		кон NewBool;

		проц NewSet(s: мнвоНаБитахМЗ);
		перем v: Set;
		нач
			нов(v, s); item.object := v; value := истина;
		кон NewSet;

		проц NewString(конст s: массив из симв8);
		перем v: String;
		нач
			нов(v, s); item.object := v; value := истина;
		кон NewString;

		проц NewRange(r: отрезокЦелых);
		перем v: Range;
		нач
			нов(v, r ); item.object := v; value := истина;
		кон NewRange;

		проц NewChar(l4c: симв8);
		перем v: Char;
		нач
			нов(v, l4c); item.object := v; value := истина;
		кон NewChar;

		проц {перекрыта}ПосетиВыражˉзначениеУнарнаяОперация*(x: SyntaxTree.ВыражˉзначениеУнарнаяОперация);
		перем l5value: Value; i: цел64; r: вещ64; b: булево; operator: цел32;
		нач
			operator := x.Операция;
			если ~GetValue(x.операнд, l5value) то
				Error("no operand");
				возврат
			всё;
			если l5value суть Integer то
				i := l5value(Integer).value;
				просей operator из
				Scanner.ЗнакМинус: NewInt(-i)
				|Scanner.ЗнакПлюс: NewInt(i)
				иначе Error("unary operator not supported")
				всё;
			аесли l5value суть Real то
				r := l5value(Real).value;
				просей operator из
				Scanner.ЗнакМинус: NewReal(-r)
				|Scanner.ЗнакПлюс: NewReal(r)
				иначе Error("unary operator not supported")
				всё;
			аесли l5value суть Boolean то
				b := l5value(Boolean).value;
				просей operator из
				Scanner.Не: NewBool(~b)
				иначе Error("unary operator not supported")
				всё;
			аесли l5value суть Set то
				просей operator из
				Scanner.ЗнакМинус: NewSet(-l5value(Set).value)
				иначе Error("unary operator not supported")
				всё;
			иначе
				Error("unary operation not supported");
			всё;
		кон ПосетиВыражˉзначениеУнарнаяОперация;

		проц {перекрыта}ПосетиВыражˉзначениеБинарнаяОперация*(x: SyntaxTree.ВыражˉзначениеБинарнаяОперация);
		перем left, right: Value; operator: цел32; li, ri: цел64; lr, rr: вещ64; lb, rb:  булево; sl, sr: мнвоНаБитахМЗ;
		нач
			operator := x.Операция;
			если ~GetValue(x.лев, left) или ~GetValue(x.прав, right) то возврат всё;

			если (left суть Integer) и (right суть Integer) то
				li := left(Integer).value; ri := right(Integer).value;
				просей operator из
				|Scanner.ЗнакПлюс: NewInt(li+ri)
				|Scanner.ЗнакМинус: NewInt(li-ri);
				|Scanner.ЗнакУмножить: NewInt(li * ri);
				|Scanner.Div: NewInt(li DIV ri);
				|Scanner.Mod: NewInt(li остОтДеленияНа ri);
				|Scanner.Equal: NewBool(li = ri);
				|Scanner.Unequal: NewBool(li # ri)
				|Scanner.Less: NewBool(li < ri)
				|Scanner.LessEqual: NewBool(li <= ri)
				|Scanner.Greater: NewBool(li > ri)
				|Scanner.GreaterEqual: NewBool(li >= ri)
				|Scanner.Косая: NewReal(li/ri)
				иначе Error("binary operator not supported")
				всё;
			аесли ((left суть Integer) или (left суть Real)) и ((right суть Integer) или (right суть Real)) то
				если left суть Integer то lr := left(Integer).value
				иначе lr := left(Real).value
				всё;
				если right суть Integer то rr := right(Integer).value;
				иначе rr := right(Real).value
				всё;
				просей operator из
				|Scanner.ЗнакПлюс: NewReal(lr+rr)
				|Scanner.ЗнакМинус: NewReal(lr-rr);
				|Scanner.ЗнакУмножить: NewReal(lr * rr);
				|Scanner.Косая: NewReal(lr / rr);
				|Scanner.Equal: NewBool(lr = rr);
				|Scanner.Unequal: NewBool(lr # rr)
				|Scanner.Less: NewBool(lr < rr)
				|Scanner.LessEqual: NewBool(lr <= rr)
				|Scanner.Greater: NewBool(lr > rr)
				|Scanner.GreaterEqual: NewBool(lr >= rr)
				иначе Error("binary operator not supported")
				всё;
			аесли (left суть Boolean) и (right суть Boolean) то
				lb := left(Boolean).value; rb := right(Boolean).value;
				просей operator из
				|Scanner.Или: NewBool(lb или rb);
				|Scanner.И: NewBool(lb и rb);
				|Scanner.Equal: NewBool(lb = rb)
				|Scanner.Unequal: NewBool(lb # rb)
				иначе Error("operator not supported")
				всё;
			аесли (left суть String) и (right суть String) то
				просей operator из
				|Scanner.Equal: NewBool(left(String).value^ = right(String).value^);
				|Scanner.Unequal: NewBool(left(String).value^ = right(String).value^);
				|Scanner.Less: NewBool(left(String).value^ < right(String).value^);
				|Scanner.LessEqual: NewBool(left(String).value^ <= right(String).value^);
				|Scanner.Greater: NewBool(left(String).value^ > right(String).value^);
				|Scanner.GreaterEqual: NewBool(left(String).value^ >= right(String).value^);
				иначе Error("binary operator not supported")
				всё
			аесли (left суть Set) и (right суть Set) то
				sl := left(Set).value; sr := right(Set).value;
				просей operator из
				|Scanner.ЗнакПлюс: NewSet(sl+sr)
				|Scanner.ЗнакМинус: NewSet(sl-sr);
				|Scanner.ЗнакУмножить: NewSet(sl * sr);
				|Scanner.Косая: NewSet(sl / sr);
				|Scanner.Equal: NewBool(sl = sr);
				|Scanner.Unequal: NewBool(sl # sr)
				|Scanner.Less: NewBool(sl < sr)
				|Scanner.LessEqual: NewBool(sl <= sr)
				|Scanner.Greater: NewBool(sl > sr)
				|Scanner.GreaterEqual: NewBool(sl >= sr)
				иначе Error("binary operator not supported")
				всё;
			аесли (left суть Integer) и (right суть Set) то
				просей operator из
				Scanner.В: NewBool(left(Integer).value в right(Set).value)
				иначе Error("binary operator not supported")
				всё;
			иначе
				Error("binary operation not supported");
				Printout.Info("binary operation", x);
			всё;
		кон ПосетиВыражˉзначениеБинарнаяОперация;

		проц {перекрыта}ПосетиВыражˉзначениеКонструкторДиапазона*(x: SyntaxTree.ВыражˉзначениеКонструкторДиапазона);
		перем first,last,step: цел64; l6value: Integer;
		нач
			если ~ExpectInteger(x.первое, l6value) то возврат всё;
			first := l6value.value;
			если ~ExpectInteger(x.последнее, l6value) то возврат всё;
			last := l6value.value;
			если (x.Шаг # НУЛЬ) и ExpectInteger(x.Шаг, l6value) то
				step := l6value.value;
			иначе
				step := 1
			всё;
			NewRange(first ..last шаг step);
		кон ПосетиВыражˉзначениеКонструкторДиапазона;

		проц {перекрыта}ПосетиВыражˉзначениеКонструкторТензорногоДиапазона*(x: SyntaxTree.ВыражˉзначениеКонструкторТензорногоДиапазона);
		нач СТОП(100) (* abstract *) кон ПосетиВыражˉзначениеКонструкторТензорногоДиапазона;

		проц {перекрыта}ПосетиВыражˉзначениеПреобразованиеТипа*(x: SyntaxTree.ВыражˉзначениеПреобразованиеТипа);
		нач СТОП(100) (* abstract *) кон ПосетиВыражˉзначениеПреобразованиеТипа;

		(** designators (expressions) *)
		проц {перекрыта}ПосетиВыражˉобращение*(x: SyntaxTree.Выражˉобращение);
		нач СТОП(100) (* abstract *) кон ПосетиВыражˉобращение;

		проц {перекрыта}ПосетиВыражˉтипИзРодаТиповˉНаименований*(x: SyntaxTree.ВыражˉтипИзРодаТиповˉНаименований);
		перем moduleName, name: Modules.Name;
		нач
			если x.составнойИдентификатор.начало # SyntaxTree.образцовыйНеверныйИдентификатор то
				item.name := x.составнойИдентификатор.начало.И;
				item.object := scope.FindObject1(item.name, -1, item.in);

				если item.object = НУЛЬ то
					StringPool.GetString(item.name, moduleName);
					item.object :=InterpreterSymbols.GetModule(moduleName);
				всё;
			всё;
			item.name := x.составнойИдентификатор.конец.И;
			если (item.object # НУЛЬ) то
				если item.object суть Result то
					StringPool.GetString(item.name, name);
					item.object := item.object(Result).Find(name);
				иначе
					item.in := item.object;
					item.object := InterpreterSymbols.FindInObject1(item.object, item.name,-1);
				всё;
			иначе
				ErrorSS("invalid selector",item.name);
				item.in := НУЛЬ;
			всё;

		кон ПосетиВыражˉтипИзРодаТиповˉНаименований;

		(*
		PROCEDURE FindInScope(scope: Scope; symbol: StringPool.Index): Value;
		VAR item: Value;
		BEGIN
			REPEAT
				item := scope.Find1(symbol);

				IF (item = NIL) THEN
					scope := scope.outer
				ELSE
					scope := NIL
				END;
			UNTIL (scope = NIL);
			RETURN item
		END FindInScope;
		*)

(*
		PROCEDURE FindType(CONST types: POINTER TO ARRAY OF Modules.TypeDesc; CONST name: ARRAY OF CHAR): Modules.TypeDesc;
		VAR i: SIGNED32;
		BEGIN
		IF types = NIL THEN RETURN NIL END;
		FOR i := 0 TO LEN(types)-1 DO
			IF types[i].name = name THEN
				RETURN types[i];
			END;
		END;
		RETURN NIL;
		END FindType;

		PROCEDURE FindProc(CONST types: POINTER TO ARRAY OF Modules.ProcedureEntry; CONST name: ARRAY OF CHAR; VAR num: SIGNED32): BOOLEAN;
		BEGIN
		IF types = NIL THEN RETURN FALSE END;
		FOR num := 0 TO LEN(types)-1 DO
			IF types[num].name^ = name THEN
				RETURN TRUE;
			END;
		END;
			RETURN FALSE;
		END FindProc;

		PROCEDURE FindField(CONST types: POINTER TO ARRAY OF Modules.FieldEntry; CONST name: ARRAY OF CHAR; VAR num: SIGNED32): BOOLEAN;
		BEGIN
		IF types = NIL THEN RETURN FALSE END;
		FOR num := 0 TO LEN(types)-1 DO
			IF types[num].name^ = name THEN
				RETURN TRUE;
			END;
		END;
			RETURN FALSE;
		END FindField;

*)

		проц {перекрыта}ПосетиОбращение˛разобранноеКакОбрК_имени*(x: SyntaxTree.Обращение˛разобранноеКакОбрК_имени);
		перем moduleName: Modules.Name; 
			builtin : Builtin; anyValue: Any;
		нач
			утв(x.лев = НУЛЬ);
			item.name := x.идентификатор.И;
			(*
			item.object := FindInScope(item.scope, item.name);
			*)
			если item.name = Basic.MakeString("trace") то
				нов(builtin); builtin.id :=  Global.systemTrace;
				item.object := builtin;
			аесли item.name = Basic.MakeString("context") то
				нов(anyValue, context);
				item.object :=  anyValue;
			иначе

				item.object := scope.FindObject1(item.name, -1, item.in);

				если item.object = НУЛЬ то
					StringPool.GetString(item.name, moduleName);
					item.object :=InterpreterSymbols.GetModule(moduleName);
				всё;
			всё;
		кон ПосетиОбращение˛разобранноеКакОбрК_имени;

		проц {перекрыта}ПосетиОбращение˛разобранноеКакОбрК_члену*(x: SyntaxTree.Обращение˛разобранноеКакОбрК_члену);
		перем traverse: булево; name: массив 128 из симв8; 
		нач
			ВычислиВыражениеˉзначение(x.лев); traverse := ложь;
			если error то возврат всё;
			item.name := x.идентификатор.И;
			если (item.object # НУЛЬ) то
				если item.object суть Result то
					StringPool.GetString(item.name, name);
					item.object := item.object(Result).Find(name);
				иначе
					item.in := item.object;
					item.object := InterpreterSymbols.FindInObject1(item.object, x.идентификатор.И,-1);
				всё;
			иначе
				ErrorSS("invalid selector",item.name);
				item.in := НУЛЬ;
			всё;
		кон ПосетиОбращение˛разобранноеКакОбрК_члену;

		проц {перекрыта}ПосетиОбращение˛разобранноеКакВызовВ_круглСкобках*(x: SyntaxTree.Обращение˛разобранноеКакВызовВ_круглСкобках);
		перем e: SyntaxTree.Выражениеˉзначение; proc: InterpreterSymbols.ProcedureResult; i: размерМЗ;
			adr: адресВПамяти; adrValue: Value; any: InterpreterSymbols.AnyValue; возвращаетУкль: булево;
		нач
			e := x.лев;
			ВычислиВыражениеˉзначение(e);
			если (item.object # НУЛЬ) то
				если (item.object суть InterpreterSymbols.ProcedureResult) то
					proc := item.object(InterpreterSymbols.ProcedureResult);
					(* self pointer *)
					proc.Pars();
					если ~(proc.caller суть InterpreterSymbols.ModuleResult) то
						adrValue := proc.caller.Evaluate();
						утв(adrValue.GetAddress(adr));
						proc.PushAddress(adr);
					всё;
					(* result pointer *)
					возвращаетУкль := proc.ReturnsPointer();
					если возвращаетУкль то
						нов(any,НУЛЬ);
						proc.PushAddress(any.Address()) всё;
					нцДля i := 0 до x.параметры.Длина()-1 делай
						e := x.параметры.ДайВыражение(i);
						если ~proc.Push(Designate(e)) то Error("wrong parameter"); возврат всё;
					кц;
					если возвращаетУкль то
						если ~proc.ПропустиПараметр() то Error("что-то не так с разбором типа возврата"); возврат всё всё;
					если ~proc.Check() то Error("non-matching parameter number"); возврат всё;
					item.object := proc.Evaluate();
					если any # НУЛЬ то item.object := any всё;
				аесли (item.object суть Builtin) то
					просей item.object(Builtin).id из
					Global.systemTrace:
						SystemTrace(x.параметры);
					иначе
						ErrorAt("no builtin?",e.начВ_тексте)
					всё;
				иначе
						ErrorAt("no procedure",e.начВ_тексте)
				всё;
			иначе
				ErrorAt("no procedure",e.начВ_тексте);
			всё;
		кон ПосетиОбращение˛разобранноеКакВызовВ_круглСкобках;

		проц {перекрыта}ПосетиОбращение˛разобранноеКакОбрЧерезКарет*(x: SyntaxTree.Обращение˛разобранноеКакОбрЧерезКарет);
		нач СТОП(100) (* abstract *) кон ПосетиОбращение˛разобранноеКакОбрЧерезКарет;

		проц {перекрыта}ПосетиОбращение˛разобранноеКакОбрК_элтуВ_квадрСкобках*(x: SyntaxTree.Обращение˛разобранноеКакОбрК_элтуВ_квадрСкобках);
		перем array: MathArrayValue; i: размерМЗ; element: Value; index: Integer; obj: PersistentObjects.Object;
			leftValue, rightValue: Value; filter: InterpreterSymbols.ObjectFilter; expression: SyntaxTree.Выражениеˉзначение;
			attribute, l7value: массив 128 из симв8; 
		нач
			ВычислиВыражениеˉзначение(x.лев);
			если (item.object # НУЛЬ) и (item.object суть MathArrayValue) то
				element := item.object(MathArrayValue);
				нцДля i := 0 до x.параметры.Длина()-1 делай
					array := element(MathArrayValue);
					если GetInteger(x.параметры.ДайВыражение(i), index) то
						element := array.GetValue(цел32(index.value));
					всё;
				кц;
				item.object := element;
			аесли (item.object # НУЛЬ) то
				нов(filter); obj := item.object;
				нцДля i := 0 до x.параметры.Длина()-1 делай
					expression := x.параметры.ДайВыражение(i);
					если (expression суть SyntaxTree.ВыражˉзначениеБинарнаяОперация) и (expression(SyntaxTree.ВыражˉзначениеБинарнаяОперация).Операция = Scanner.Equal) то
						если (expression(SyntaxTree.ВыражˉзначениеБинарнаяОперация).лев суть SyntaxTree.Обращение˛разобранноеКакОбрК_имени) и
						GetValue(expression(SyntaxTree.ВыражˉзначениеБинарнаяОперация).прав, rightValue) то
							StringPool.GetString(
							expression(SyntaxTree.ВыражˉзначениеБинарнаяОперация).лев(SyntaxTree.Обращение˛разобранноеКакОбрК_имени).идентификатор.И, attribute);
							rightValue(Value).GetString(l7value);
							obj := filter.Filter(obj, attribute, l7value)
						иначе СТОП(200)
						всё;
					иначе
						если GetValue(expression, leftValue) то
							если leftValue суть String то
								leftValue(Value).GetString(l7value);
								obj := filter.Filter(obj, "name", l7value);
							аесли leftValue суть Integer то
								если obj суть PersistentObjects.ObjectList то
									item.object := obj(PersistentObjects.ObjectList).GetElement(цел32(leftValue(Integer).value))
								аесли obj суть Container то
									item.object := obj(Container).GetItem(цел32(leftValue(Integer).value))
								иначе Error("cannot be indexed")
								всё;
							всё;
						всё;
					всё;
				кц;
				если obj(Container).symbols.Length() > 0 то
					item.object := obj(Container).GetItem(0);
				иначе
					Error("no such symbol")
				всё;
			всё;
		кон ПосетиОбращение˛разобранноеКакОбрК_элтуВ_квадрСкобках;

		проц {перекрыта}ПосетиОбращение˛осмысленноеКакОбрК_именованнойСущности*(x: SyntaxTree.Обращение˛осмысленноеКакОбрК_именованнойСущности);
		нач СТОП(100) (* abstract *) кон ПосетиОбращение˛осмысленноеКакОбрК_именованнойСущности;

		проц {перекрыта}ПосетиОбращение˛осмысленноеКакОбрПоИндексу*(x: SyntaxTree.Обращение˛осмысленноеКакОбрПоИндексу);
		нач СТОП(100) (* abstract *) кон ПосетиОбращение˛осмысленноеКакОбрПоИндексу;

		проц {перекрыта}ПосетиОбращение˛осмысленноеКакВызовПроцедуры*(x: SyntaxTree.Обращение˛осмысленноеКакВызовПроцедуры);
		нач СТОП(100)
		кон ПосетиОбращение˛осмысленноеКакВызовПроцедуры;

		проц SystemTrace(x: SyntaxTree.СписокВыражˉзначенийЧерезЗапятую);
		перем
			printout: Printout.Printer;
			l8value: Value;
			expression: SyntaxTree.Выражениеˉзначение;
			i: размерМЗ;
			out: Потоки.Писарь;
		нач
			out := context.out;
			printout := Printout.NewPrinter(out,Printout.SourceCode,ложь,ложь,Scanner.ВариантыПеревода.Uppercase);
			нцДля i := 0 до x.Длина()-1 делай
				expression := x.ДайВыражение(i);
				если ~(expression суть SyntaxTree.Значение˛известноеВоВремяКомпиляции˛строковое) то
					printout.Expression(expression);
					out.пСтроку8("= ");
				всё;
				l8value := Evaluate(expression);
				если l8value # НУЛЬ то
					l8value.WriteValue(out);
				иначе
					out.пСтроку8("UNKNOWN")
				всё;
				out.пСтроку8("; ");
			кц;
			out.пВК_ПС;
			out.ПротолкниБуферВПоток;
		кон SystemTrace;

		проц FindType(type: SyntaxTree.Выражениеˉтип): Result;
		нач
			ПосетиУзелИзСемьиВыраженияˉтипа(type);
			если item.object # НУЛЬ то
				возврат item.object(Result);
			всё;
			возврат НУЛЬ;
		кон FindType;

		проц {перекрыта}ПосетиОбращение˛осмысленноеКакВызовВстроеннойПроцедуры*(x: SyntaxTree.Обращение˛осмысленноеКакВызовВстроеннойПроцедуры);
		перем p0,p1,p2: SyntaxTree.Выражениеˉзначение;
			len: размерМЗ;
			i: размерМЗ;
			position: SyntaxTree.МестоВ_тексте;
			result: Result;
			address: адресВПамяти;
			o: динамическиТипизированныйУкль;
			anyValue: InterpreterSymbols.AnyValue;
			proc: InterpreterSymbols.ProcedureResult;
			ignore: Result;
			e: SyntaxTree.Выражениеˉзначение;
		нач
			position := x.начВ_тексте;
			p0 := НУЛЬ; p1 := НУЛЬ; p2 := НУЛЬ;
			если x.параметры # НУЛЬ то
				len := x.параметры.Длина();
			иначе
				len := 0
			всё;
			просей x.номерВстроеннойПроцедуры из
			(* ----- NEW -----*)
			Global.New:
				result := FindType(x.возвращаемыйТип);
				если (result # НУЛЬ) и (result суть InterpreterSymbols.TypeResult)  то
					address := result.Address();
					Heaps.NewRec(o, address, ложь);
					нов(anyValue, o);

					proc := result(InterpreterSymbols.TypeResult).Constructor();
					если proc # НУЛЬ то
						proc.Pars();
						proc.PushAddress(o);
						нцДля i := 0 до x.параметры.Длина()-1 делай
							e := x.параметры.ДайВыражение(i);
							если ~proc.Push(Designate(e)) то Error("wrong parameter"); item.object := НУЛЬ; возврат всё;
						кц;
						если ~proc.Check() то Error("non-matching parameter number"); item.object := НУЛЬ; возврат всё;
						ignore := proc.Evaluate();
					всё;
					item.object := anyValue;
				иначе
					Error("No Type");
				всё;
			|Global.systemTrace:
				SystemTrace(x.параметры);
			иначе (* function not yet implemented *)
				Error("Not Yet Implemented");
			всё;
		кон ПосетиОбращение˛осмысленноеКакВызовВстроеннойПроцедуры;

		проц {перекрыта}ПосетиОбращение˛осмысленноеКакОхранаТипа*(x: SyntaxTree.Обращение˛осмысленноеКакОхранаТипа);
		нач СТОП(100) (* abstract *) кон ПосетиОбращение˛осмысленноеКакОхранаТипа;

		проц {перекрыта}ПосетиОбращение˛осмысленноеКакРазыменованиеУкля*(x: SyntaxTree.Обращение˛осмысленноеКакРазыменованиеУкля);
		нач СТОП(100) (* abstract *) кон ПосетиОбращение˛осмысленноеКакРазыменованиеУкля;

		проц {перекрыта}ПосетиОбращение˛осмысленноеКакВызовМетодаПредка*(x: SyntaxTree.Обращение˛осмысленноеКакВызовМетодаПредка);
		нач СТОП(100) (* abstract *) кон ПосетиОбращение˛осмысленноеКакВызовМетодаПредка;

		проц {перекрыта}ПосетиОбращение˛осмысленноеКакОбрК_себе*(x: SyntaxTree.Обращение˛осмысленноеКакОбрК_себе);
		нач СТОП(100) (* abstract *) кон ПосетиОбращение˛осмысленноеКакОбрК_себе;

		проц {перекрыта}ПосетиОбращение˛осмысленноеКакОбрК_псевдоПеременной«результат»*(x: SyntaxTree.Обращение˛осмысленноеКакОбрК_псевдоПеременной«результат»);
		нач СТОП(100) (* abstract *) кон ПосетиОбращение˛осмысленноеКакОбрК_псевдоПеременной«результат»;

		(** values *)
		проц {перекрыта}ПосетиЗначение˛известноеВоВремяКомпиляции*(x: SyntaxTree.Значение˛известноеВоВремяКомпиляции);
		нач СТОП(100) (* abstract *) кон ПосетиЗначение˛известноеВоВремяКомпиляции;

		проц {перекрыта}ПосетиЗначение˛известноеВоВремяКомпиляции˛булево*(x: SyntaxTree.Значение˛известноеВоВремяКомпиляции˛булево);
		нач
			NewBool(x.значение)
		кон ПосетиЗначение˛известноеВоВремяКомпиляции˛булево;

		проц {перекрыта}ПосетиЗначение˛известноеВоВремяКомпиляции˛целое*(x: SyntaxTree.Значение˛известноеВоВремяКомпиляции˛целое);
		нач
			NewInt(x.значение)
		кон ПосетиЗначение˛известноеВоВремяКомпиляции˛целое;

		проц {перекрыта}ПосетиЗначение˛известноеВоВремяКомпиляции˛символ*(x: SyntaxTree.Значение˛известноеВоВремяКомпиляции˛символ);
		нач
			NewChar(x.значение);
		кон ПосетиЗначение˛известноеВоВремяКомпиляции˛символ;

		проц {перекрыта}ПосетиЗначение˛известноеВоВремяКомпиляции˛байт*(x: SyntaxTree.Значение˛известноеВоВремяКомпиляции˛байт);
		нач
			NewSet(мнвоНаБитахМЗ(x.значение))
		кон ПосетиЗначение˛известноеВоВремяКомпиляции˛байт;

		проц {перекрыта}ПосетиЗначение˛известноеВоВремяКомпиляции˛матМассив*(x: SyntaxTree.Значение˛известноеВоВремяКомпиляции˛матМассив);
		нач СТОП(100) (* abstract *) кон ПосетиЗначение˛известноеВоВремяКомпиляции˛матМассив;

		проц {перекрыта}ПосетиЗначение˛известноеВоВремяКомпиляции˛вещ*(x: SyntaxTree.Значение˛известноеВоВремяКомпиляции˛вещ);
		нач
			NewReal(x.значение)
		кон ПосетиЗначение˛известноеВоВремяКомпиляции˛вещ;

		проц {перекрыта}ПосетиЗначение˛известноеВоВремяКомпиляции˛комплексное*(x: SyntaxTree.Значение˛известноеВоВремяКомпиляции˛комплексное);
		нач СТОП(100) (* abstract *) кон ПосетиЗначение˛известноеВоВремяКомпиляции˛комплексное;

		проц {перекрыта}ПосетиЗначение˛известноеВоВремяКомпиляции˛строковое*(x: SyntaxTree.Значение˛известноеВоВремяКомпиляции˛строковое);
		нач
			NewString(x.значение^);
		кон ПосетиЗначение˛известноеВоВремяКомпиляции˛строковое;

		проц {перекрыта}ПосетиЗначение˛известноеВоВремяКомпиляции˛НУЛЬ*(x: SyntaxTree.Значение˛известноеВоВремяКомпиляции˛НУЛЬ);
		нач NewAny(НУЛЬ) кон ПосетиЗначение˛известноеВоВремяКомпиляции˛НУЛЬ;

		проц {перекрыта}ПосетиЗначение˛известноеВоВремяКомпиляции˛перечисления*(x: SyntaxTree.Значение˛известноеВоВремяКомпиляции˛перечисления);
		нач СТОП(100) (* abstract *) кон ПосетиЗначение˛известноеВоВремяКомпиляции˛перечисления;

		(** symbols *)
		проц {перекрыта}ПосетиОбъявлениеИменованнойСущности*(x: SyntaxTree.ОбъявлениеИменованнойСущности);
		нач СТОП(100) (* abstract *) кон ПосетиОбъявлениеИменованнойСущности;

		проц {перекрыта}ПосетиОбъявлениеТипаˉнаименования*(x: SyntaxTree.ОбъявлениеТипаˉнаименования);
		нач СТОП(100) (* abstract *) кон ПосетиОбъявлениеТипаˉнаименования;

		проц {перекрыта}ПосетиОбъявлениеКонстанты*(x: SyntaxTree.ОбъявлениеКонстанты);
		нач СТОП(100) (* abstract *) кон ПосетиОбъявлениеКонстанты;

		проц {перекрыта}ПосетиОбъявлениеПеременной*(x: SyntaxTree.ОбъявлениеПеременной);
		нач СТОП(100) (* abstract *) кон ПосетиОбъявлениеПеременной;

		проц {перекрыта}ПосетиОбъявлениеПараметра*(x: SyntaxTree.ОбъявлениеПараметра);
		нач СТОП(100) (* abstract *) кон ПосетиОбъявлениеПараметра;

		проц {перекрыта}ПосетиОбъявлениеПроцедуры*(x: SyntaxTree.ОбъявлениеПроцедуры);
		нач СТОП(100) (* abstract *) кон ПосетиОбъявлениеПроцедуры;

		проц {перекрыта}ПосетиОбъявлениеВстроеннойПроцедуры*(x: SyntaxTree.ОбъявлениеВстроеннойПроцедуры);
		нач СТОП(100) (* abstract *) кон ПосетиОбъявлениеВстроеннойПроцедуры;

		проц {перекрыта}ПосетиОбъявлениеОперации*(x: SyntaxTree.ОбъявлениеОперации);
		нач СТОП(100) (* abstract *) кон ПосетиОбъявлениеОперации;

		проц {перекрыта}ПосетиОбъявлениеИспользованияМодуля*(x: SyntaxTree.ОбъявлениеИмпортаМодуля);
		нач СТОП(100) (* abstract *) кон ПосетиОбъявлениеИспользованияМодуля;

		(* copy src to value string replacing substrings that are embraced between refSymbols by expression value *)
		проц l9TranslateString*(cmd: симв8; конст str: массив из симв8; перем dest: Strings.String): булево;
		конст
			LeftDelimiter = '{'; RightDelimiter = '}';
		перем
			position : цел32; ch: симв8;
			destination, expMaker: Scanner.Строкопостроитель; destinationWriter, expressionWriter: Потоки.Писарь; scanner: Scanner.Лексер; parser: Parser;
			expression: SyntaxTree.Выражениеˉзначение; l0value: Value; len: размерМЗ;
			comment: цел32;

			проц Next(перем l1ch: симв8);
			нач
				если position = длинаМассива(str) то l1ch := 0X иначе l1ch := str[position]; увел(position) всё;
			кон Next;

			проц EvaluateExpression();
			перем reader: Потоки.Чтец; done: булево;
			нач
				reader := expMaker.ДайЧтеца();
				scanner := Scanner.NewScanner("", reader, 0, НУЛЬ);
				нов(parser, scanner, НУЛЬ, "");
				нцДо
					error := ложь;
					expression := parser.Expression();
					done := GetValue(expression, l0value);
				кцПри done или ~parser.Optional(Scanner.Двоеточие);

				если done то l0value(Value).WriteValue(destinationWriter);
				иначе
					destinationWriter.пСтроку8("#COULD NOT INTERPRETE#");
					error := истина;
				всё;
			кон EvaluateExpression;

		нач
			error := ложь;
			position := 0;
			Next(ch);
			нов(destination,256); destinationWriter := destination.ДайПисца();
			нов(expMaker, 256); expressionWriter := expMaker.ДайПисца();
			comment := 0;

			нцПока (ch # 0X) делай
				(* copy string literally *)
				если (comment = 0) и (ch = cmd) то
					Next(ch);
					если ch = LeftDelimiter то
						Next(ch);
						нцДо
							нцПока (ch # 0X) и (ch # RightDelimiter) делай expressionWriter.пСимв8(ch); Next(ch) кц;
							если ch = RightDelimiter то
								Next(ch); если (ch # cmd) то expressionWriter.пСимв8(RightDelimiter) всё;
							всё;
						кцПри (ch=0X) или (ch = cmd);
						если ch # 0X то Next(ch) всё;
						expressionWriter.ПротолкниБуферВПоток;
						EvaluateExpression();
						expMaker.СотриВсё;
					иначе
						destinationWriter.пСимв8(cmd);
					всё;
				(* remove comments *)
				аесли ch = "(" то
					Next(ch);
					если ch = "*" то
						увел(comment); Next(ch);
					аесли comment = 0 то
						destinationWriter.пСимв8("(");
					всё;
				аесли ch="*" то
					Next(ch);
					если ch = ")" то
						умень(comment);
						если comment < 0 то comment := 0 всё; Next(ch);
					аесли comment = 0 то
						destinationWriter.пСимв8("*")
					всё;
				иначе
					если comment = 0 то destinationWriter.пСимв8(ch) всё;
					Next(ch);
				всё;
			кц;
			destinationWriter.ПротолкниБуферВПоток;
			dest := destination.ДайУкльНаДанные(len);
			возврат ~error
		кон l9TranslateString;

		проц VisitCommandStatement(x: CommandStatement);
		перем t: Strings.String; res: целМЗ; msg: массив 128 из симв8; i: размерМЗ; array: Strings.StringArray; pos: цел32;
			command: массив 256 из симв8; l10context: Commands.Context;

			проц CreateContext(paramString : Strings.String; l11pos: цел32) : Commands.Context;
			перем l12c : Commands.Context; arg : Потоки.ЧтецИзСтроки; dummy : массив 1 из симв8; len: размерМЗ;
			нач
				если (paramString = НУЛЬ) то
					нов(arg, 1); dummy := ""; arg.ПримиСрезСтроки8ВСтрокуДляЧтения(dummy, 0, 1);
				иначе
					len := Strings.Length(paramString^)+1 (*+1 to include 0X *);
					нов(arg, len-l11pos); arg.ПримиСрезСтроки8ВСтрокуДляЧтения(paramString^, l11pos, len-l11pos);
				всё;
				нов(l12c, l10context.in, arg, l10context.out, l10context.error, l10context.caller);
				возврат l12c;
			кон CreateContext;

			проц IsDelimiter(ch : симв8) : булево;
			конст CR = 0DX;  LF = 0AX;  TAB = 9X;
			нач
				возврат (ch = " ") или (ch = CR) или (ch = LF) или (ch = TAB) или (ch = ";") или (ch = 0X);
			кон IsDelimiter;

		нач
			если сам.context = НУЛЬ то
				l10context := Commands.GetContext();
			иначе
				l10context := сам.context
			всё;
			если l9TranslateString("?", x.command^, t) то всё;
			array := Strings.Split(t^, "~");
			нцДля i := 0 до длинаМассива(array)-1 делай
				Strings.TrimWS(array[i]^);
				если (array[i]^ # "") то
						(* extract command *)
						pos := 0;
						нцПока ~IsDelimiter(array[i][pos])  делай command[pos] := array[i][pos]; увел(pos); кц;
						command[pos] := 0X;
						если pos # 0 то
							l10context := CreateContext(array[i], pos);
							Commands.Activate(command, l10context, мнвоНаБитахМЗ({Commands.Wait, Commands.InheritContext}), res, msg);
							если res # 0 то
								l10context.out.пСтроку8("Interpreter: "); l10context.error.пСтроку8(command); l10context.error.пСтроку8(" failed"); l10context.error.пВК_ПС
							всё;
						всё;
				всё;

			кц;
			если res # 0 то Error(msg) всё;
		кон VisitCommandStatement;

		проц VisitPrintStatement(x: PrintStatement);
		перем out: Потоки.Писарь; printout: Printout.Printer; expression: SyntaxTree.Выражениеˉзначение; l13value: Value;
		нач

			out := context.out;
			printout := Printout.NewPrinter(out,Printout.SourceCode,ложь,ложь,Scanner.ВариантыПеревода.Uppercase);
				expression := x.expression;
				если ~(expression суть SyntaxTree.Значение˛известноеВоВремяКомпиляции˛строковое) то
					printout.Expression(expression);
					out.пСтроку8("= ");
				всё;
				l13value := Evaluate(expression);
				если l13value # НУЛЬ то
					l13value.WriteValue(out);
				иначе
					out.пСтроку8("UNKNOWN")
				всё;
				out.пСтроку8("; ");
			out.пВК_ПС;
			out.ПротолкниБуферВПоток;
		кон VisitPrintStatement;

		(** statements *)
		проц {перекрыта}ПосетиПредписание*(x: SyntaxTree.Предписание);
		нач
			если x суть CommandStatement то
				VisitCommandStatement(x(CommandStatement));
			аесли x суть PrintStatement то
				VisitPrintStatement(x(PrintStatement));
			иначе СТОП(100)
			всё;
		кон ПосетиПредписание;

		проц {перекрыта}ПосетиПредписаниеВызватьПроцедуру*(x: SyntaxTree.ПредписаниеВызватьПроцедуру);
		перем call: SyntaxTree.Выражˉобращение;
		нач
			если ~(x.узелВызова суть SyntaxTree.Обращение˛разобранноеКакВызовВ_круглСкобках) то
				call := SyntaxTree.ЯвиОбращение˛разобранноеКакВызовВ_круглСкобках(x.начВ_тексте,x.узелВызова,SyntaxTree.ЯвиСписокВыражˉзначенийЧерезЗапятую());
			иначе
				call := x.узелВызова;
			всё;
			ПосетиУзелИзСемьиВыраженияˉзначения(call);
		кон ПосетиПредписаниеВызватьПроцедуру;

		проц LoadValue;
		нач
			если (item.object # НУЛЬ) и (item.object суть Result) то
				item.object := item.object(Result).Evaluate();
			иначе
				ErrorSS("could not load value", item.name);
			всё;
		кон LoadValue;

		проц GetValue*(x: SyntaxTree.Выражениеˉзначение; перем w: Value): булево;
		нач
			если error то возврат ложь всё;
			просейТип x:
			| SyntaxTree.МакроВызов делай
				ПосетиМакроВызов(x)
			иначе
				ВычислиВыражениеˉзначение(x) всё;
			если error то возврат ложь всё;
			LoadValue();
			если item.object # НУЛЬ то
				w := item.object(Value);
			всё;
			возврат ~error
		кон GetValue;

		проц Designate(x: SyntaxTree.Выражениеˉзначение): Result;
		нач
			ВычислиВыражениеˉзначение(x);
			если item.object # НУЛЬ то
				возврат item.object(Result);
			иначе
				возврат НУЛЬ
			всё;
		кон Designate;

		проц Evaluate(x: SyntaxTree.Выражениеˉзначение): Value;
		перем w: Value;
		нач
			если GetValue(x, w) то возврат w иначе возврат НУЛЬ всё;
		кон Evaluate;

		проц GetInteger(x: SyntaxTree.Выражениеˉзначение; перем i: Integer): булево;
		перем v: Value;
		нач
			если GetValue(x, v) и (v суть Integer) то i := v(Integer); возврат истина иначе возврат ложь всё;
		кон GetInteger;

		проц ExpectInteger(x: SyntaxTree.Выражениеˉзначение; перем i: Integer): булево;
		нач если ~GetInteger(x, i) то Error("invalid value - must be integer"); возврат ложь иначе возврат истина всё;
		кон ExpectInteger;

		проц GetBoolean(x: SyntaxTree.Выражениеˉзначение; перем i: Boolean): булево;
		перем v: Value;
		нач
			если GetValue(x, v) и (v суть Boolean) то i := v(Boolean); возврат истина иначе возврат ложь всё;
		кон GetBoolean;

		проц ExpectBoolean(x: SyntaxTree.Выражениеˉзначение; перем b: Boolean): булево;
		нач если ~GetBoolean(x, b) то Error("invalid value - must be boolean"); возврат ложь иначе возврат истина всё;
		кон ExpectBoolean;

		проц PutValue(x: SyntaxTree.Выражˉобращение; v: Value);
		нач
			ПосетиУзелИзСемьиВыраженияˉзначения(x);
			если (item.object # НУЛЬ) и item.object(Result).SetV(v) то
			аесли (item.in # НУЛЬ) и (item.name # 0) и (item.in суть Container) то
				item.in(Container).Enter1(v, item.name);
			всё;
		кон PutValue;

		проц {перекрыта}ПосетиПредписаниеПрисвоитьЗначение*(x: SyntaxTree.ПредписаниеПрисвоитьЗначение);
		перем l14value: Value;
		нач
			если GetValue(x.что, l14value) то
				если x.куда # НУЛЬ то
					PutValue(x.куда, l14value);
				всё;
			всё;
		кон ПосетиПредписаниеПрисвоитьЗначение;

		проц IfPart(ifPart: SyntaxTree.ВеткаПредписания«если»): булево;
		перем l15value: Boolean;
		нач
			если ExpectBoolean(ifPart.условие,l15value) то
				если l15value(Boolean).value то
					StatementSequence(ifPart.действия);
					возврат истина
				всё;
			всё;
			возврат ложь
		кон IfPart;

		проц {перекрыта}ПосетиПредписание«если»*(x: SyntaxTree.Предписание«если»);
		перем i: размерМЗ; elsif: SyntaxTree.ВеткаПредписания«если»;
		нач
			если IfPart(x.веткаЕсли) то возврат всё;
			нцДля i := 0 до x.ElsifParts()-1 делай
				elsif := x.ДайВеткуАесли(i);
				если IfPart(elsif) то возврат всё;
			кц;
			если x.веткаИначе # НУЛЬ то
				StatementSequence(x.веткаИначе)
			всё;
		кон ПосетиПредписание«если»;

		проц {перекрыта}ПосетиВеткуПредписания«просейТип»*(x: SyntaxTree.Предписание«просейТип»);
		нач СТОП(100) (* abstract *) кон ПосетиВеткуПредписания«просейТип»;

		проц CasePart(x: SyntaxTree.ВеткаПредписания«просей»; b: SyntaxTree.ВыражˉзначениеБинарнаяОперация): булево;
		перем i: размерМЗ; l16value: Value;
		нач
			нцДля i := 0 до x.составУсловия.Длина()-1 делай
				b.УстПрав(x.составУсловия.ДайВыражение(i));
				если GetValue(b, l16value) и (l16value суть Boolean) то
					если l16value(Boolean).value то StatementSequence(x.действия); возврат истина всё;
				иначе Error("invalid non-boolean value")
				всё
			кц;
			возврат ложь
		кон CasePart;

		проц {перекрыта}ПосетиПредписание«просей»*(x: SyntaxTree.Предписание«просей»);
		перем binary: SyntaxTree.ВыражˉзначениеБинарнаяОперация; i: размерМЗ;
		нач
			binary := SyntaxTree.ЯвиВыражˉзначениеБинарнаяОперация(Basic.invalidPosition, x.чтоПросеиваем, x.чтоПросеиваем, Scanner.Equal);
			нцДля i := 0 до x.ДайВеткиУсловий()-1 делай
				если CasePart(x.ДайВетку(i), binary) то возврат всё;
			кц;
			если x.ветка«Иначе» # НУЛЬ то
				StatementSequence(x.ветка«Иначе»)
			всё;
		кон ПосетиПредписание«просей»;

		проц {перекрыта}ПосетиПредписание«циклПока»*(x: SyntaxTree.Предписание«циклПока»);
		перем l17value: Boolean;
		нач
			нцПока ExpectBoolean(x.условие, l17value) и l17value.value делай
				StatementSequence(x.действия);
			кц;
		кон ПосетиПредписание«циклПока»;

		проц {перекрыта}ПосетиПредписание«циклДо»*(x: SyntaxTree.Предписание«циклДо»);
		перем l18value: Boolean;
		нач
			нцДо
				StatementSequence(x.действия);
			кцПри ~ExpectBoolean(x.условие, l18value) или l18value.value
		кон ПосетиПредписание«циклДо»;

		проц {перекрыта}ПосетиПредписание«циклДля»*(x: SyntaxTree.Предписание«циклДля»);
		перем fromV, toV: Integer; from, to,i: цел64; int: Integer;
		нач
			если ExpectInteger(x.От, fromV) и ExpectInteger(x.До, toV) то
				from := fromV.value;
				to := toV.value;
				ВычислиВыражениеˉзначение(x.Счётчик);
				нов(int, from);
				PutValue(x.Счётчик, int);
				i := from;
				нцПока i <= to делай
					int.value := i;
					StatementSequence(x.Действия);
					увел(i);
				кц;
			всё;
		кон ПосетиПредписание«циклДля»;

		проц {перекрыта}ПосетиПредписание«цикл»*(x: SyntaxTree.Предписание«цикл»);
		перем prevExit: булево;
		нач
			prevExit := exit;
			exit := ложь;
			нц
				StatementSequence(x.Действия);
				если exit то прервиЦикл всё;
			кц;
			exit := prevExit
		кон ПосетиПредписание«цикл»;

		проц {перекрыта}ПосетиПредписание«прервиЦикл»*(x: SyntaxTree.Предписание«прервиЦикл»);
		нач
			exit := истина
		кон ПосетиПредписание«прервиЦикл»;

		проц {перекрыта}ПосетиПредписание«возврат»*(x: SyntaxTree.Предписание«возврат»);
		нач СТОП(100) (* abstract *) кон ПосетиПредписание«возврат»;

		проц {перекрыта}ПосетиПредписание«дождись»*(x: SyntaxTree.Предписание«дождись»);
		нач СТОП(100) (* abstract *) кон ПосетиПредписание«дождись»;

		проц {перекрыта}ПосетиПредписание«тело»без«выходя»*(x: SyntaxTree.Предписание«тело»без«выходя»);
		нач
			StatementSequence(x.действия)
		кон ПосетиПредписание«тело»без«выходя»;

		проц {перекрыта}ПосетиПредписание«машКод»*(x: SyntaxTree.Предписание«машКод»);
		нач СТОП(100) (* abstract *) кон ПосетиПредписание«машКод»;
		
		проц {перекрыта}ПосетиМакроВызов*(м: SyntaxTree.МакроВызов);
		перем вызовВКруглыхСкобках: SyntaxTree.Обращение˛разобранноеКакВызовВ_круглСкобках;
		перем обрКЧлену: SyntaxTree.Обращение˛разобранноеКакОбрК_члену;
			вз : SyntaxTree.Выражениеˉзначение;
			proc: InterpreterSymbols.ProcedureResult; i: размерМЗ;
			any: InterpreterSymbols.AnyValue;
			значениеИнтерпретатораДляАргументаМакроса: InterpreterSymbols.AnyValue;		
			возвращаетУкль : булево;
		нач 
			(*x*)вызовВКруглыхСкобках := м.десигнатор(SyntaxTree.Обращение˛разобранноеКакВызовВ_круглСкобках);
			(*e*)обрКЧлену := вызовВКруглыхСкобках.лев(SyntaxTree.Обращение˛разобранноеКакОбрК_члену);
			(* далее по аналогии с ПосетиОбращение˛разобранноеКакВызовВ_круглСкобках, но мы не должны вычислять подвыражения, 
				а должны отдать их макросу *)
			ВычислиВыражениеˉзначение(обрКЧлену);
			если item.object = НУЛЬ то
				ErrorAt("макропроцедура не найдена",обрКЧлену.начВ_тексте); возврат всё;
			если ~(item.object суть InterpreterSymbols.ProcedureResult) то
				ErrorAt("это не похоже на макропроцедуру",обрКЧлену.начВ_тексте); возврат всё;
			proc := item.object(InterpreterSymbols.ProcedureResult);
			proc.Pars(); 
			(* пропускаем кусок, когда пр-ра является членом не-модуля - в этом случае нужно отправить «сам» объект *)
					(* если возвращает укль, а у нас будет укль *)
			возвращаетУкль := proc.ReturnsPointer();
			если возвращаетУкль то
				нов(any,НУЛЬ);
				proc.PushAddress(any.Address()) всё;
			нов(значениеИнтерпретатораДляАргументаМакроса,сам);
			если ~proc.Push(значениеИнтерпретатораДляАргументаМакроса) то 
				Error("не удалось передать интерпретатор - он должен быть первым параметром функции-макрорасширителя"); 
				возврат всё;
			нцДля i := 0 до вызовВКруглыхСкобках.параметры.Длина()-1 делай
				вз := вызовВКруглыхСкобках.параметры.ДайВыражение(i);
				(* к.ПишиЛЯ(вз); *)
				(* Здесь раньше был вызов Designate, к-рый вычислял выражение и записывал в стек его значение.
				Мы имитируем это вычисление (ох, правильно ли?) *)
				нов(значениеИнтерпретатораДляАргументаМакроса,вз);
				если ~proc.Push(значениеИнтерпретатораДляАргументаМакроса) то Error("неверный параметр макровызова"); возврат всё
			кц;
			если возвращаетУкль то
				если ~proc.ПропустиПараметр() то Error("что-то не так с разбором типа возврата"); возврат всё всё;
			если ~proc.Check() то Error("неверное к-во параметров макровызова"); возврат всё;
			item.object := proc.Evaluate();
			если any # НУЛЬ то item.object := any всё;
		кон ПосетиМакроВызов;
		

		проц ВычислиВыражениеˉзначение(x: SyntaxTree.Выражениеˉзначение);
		нач
			value := ложь;
			ПосетиУзелИзСемьиВыраженияˉзначения(x);
		кон ВычислиВыражениеˉзначение;

		проц Statement*(x: SyntaxTree.Предписание);
		нач
			item.object := НУЛЬ;
			ПосетиУзелИзСемьиПредписания(x);
		кон Statement;

		проц StatementSequence*(x: SyntaxTree.ПоследовательностьПредписаний);
		перем i: размерМЗ;
		нач
			нцДля i := 0 до x.Длина()-1 делай
				Statement(x.ДайПредписание(i));
			кц;
		кон StatementSequence;

	кон Interpreter;

	Resolver*= окласс
	перем
		interpreter: Interpreter;
		content: PersistentObjects.Content;
		resolved: Basic.HashTable;
		current: Scope;
		changed: булево;

		проц & InitResolver*;
		нач
			нов(content); нов(resolved,64); нов(interpreter, НУЛЬ, НУЛЬ, НУЛЬ);
		кон InitResolver;

		проц Traverse(конст name: массив из симв8; array: булево);
		перем index: цел32; success: булево;
		нач
			если array то index := 0 иначе index := -1 всё;
			нцДо
				success := ложь;
				content.success := ложь;
				current.object.Get(name, index, content);
				если content.success и (content.class = PersistentObjects.Class.Object) то
					success := content.object # НУЛЬ;
					если content.object # НУЛЬ то
						DoResolve(current.Enter(content.object)); (* content object can be overwritten as sideeffect! *)
					всё;
				всё;
				увел(index);
			кцПри ~array или ~success
		кон Traverse;

		проц DoResolve*(scope: Scope);
		перем translation: PersistentObjects.Interpretation; prev: Scope; str: Strings.String;
		нач
			если (scope.object # НУЛЬ) и ~resolved.Has(scope.object) то
				prev := current;
				current := scope;
				resolved.Put(scope.object, сам);
				interpreter.Init(scope, НУЛЬ, НУЛЬ);

				translation := scope.object.firstTranslation;
				нцПока translation # НУЛЬ делай
					если EnableTrace то D.String("resolve "); D.String(translation.name^); D.String(":"); D.String(translation.str^); всё;
					если interpreter.l9TranslateString("?", translation.str^,  str) то
						если EnableTrace то D.String(":"); D.Str(str^); всё;
						scope.object.Get(translation.name^, -1, content);
						если ~content.Equals(str^) то
							changed := истина;
							content.SetAsString(str^);
						всё;
						scope.object.Set(translation.name^, -1, content);
					иначе
						если EnableTrace то D.String(":could not resolve"); всё;
					всё;
					если EnableTrace то D.Ln; всё;
					translation := translation.next
				кц;

				scope.object.Enumerate(Traverse);

				current := prev;
			всё;
		кон DoResolve;

		проц Resolve*(scope: Scope);
		нач
			нцДо
				changed := ложь;
				resolved.Clear();
				DoResolve(scope);
			кцПри ~changed;
		кон Resolve;

	кон Resolver;

перем global-: Scope;

проц Statements*(context: Commands.Context);
перем scanner: Scanner.Лексер; parser: Parser; diagnostics: Diagnostics.StreamDiagnostics;
	seq: SyntaxTree.ПоследовательностьПредписаний; interpreter: Interpreter;
нач
	нов(diagnostics, context.error);
	scanner := Scanner.NewScanner("",context.arg,0,diagnostics);
	scanner.SetCase(Scanner.ВариантыПеревода.Uppercase);
	нов(parser, scanner, diagnostics, "");
	seq := parser.StatementSequence(НУЛЬ);
	нов(interpreter, global, diagnostics,context); interpreter.StatementSequence(seq);
кон Statements;

проц Expression*(context: Commands.Context);
перем scanner: Scanner.Лексер; parser: Parser; diagnostics: Diagnostics.StreamDiagnostics;
	interpreter: Interpreter; value: Value; expression: SyntaxTree.Выражениеˉзначение;
нач
	нов(diagnostics, context.error);
	scanner := Scanner.NewScanner("",context.arg,0,diagnostics);
	нов(parser, scanner, diagnostics, "");
	expression := parser.Expression();
	нов(interpreter, global, diagnostics,НУЛЬ);
	если interpreter.GetValue(expression, value) то
		value(Value).WriteValue(context.out); context.out.пВК_ПС
	иначе
		context.error.пСтроку8("could not evaluate expression"); context.error.пВК_ПС
	всё;
кон Expression;


проц ВычислиВыражениеИзСтроки*(выр: массив из симв8; потокРезультата: Потоки.Писарь; потокОшибок: Потоки.Писарь);
перем чтец: Потоки.ЧтецИзСтроки; scanner: Scanner.Лексер; parser: Parser; diagnostics: Diagnostics.StreamDiagnostics;
	interpreter: Interpreter; value: Value; expression: SyntaxTree.Выражениеˉзначение;
нач
	нов(diagnostics, потокОшибок);
	нов(чтец,длинаМассива(выр));
	чтец.ПримиСтроку8ДляЧтения(выр);
	scanner := Scanner.NewScanner("...МакроВызов...",чтец,0,diagnostics);
	нов(parser, scanner, diagnostics, "");
	expression := parser.Expression();
	нов(interpreter, global, diagnostics,НУЛЬ);
	если interpreter.GetValue(expression, value) то
		value(Value).WriteValue(потокРезультата); потокРезультата.пВК_ПС
	иначе
		diagnostics.Error("МакроВызов",0,"не получилось вычислить выражение"); потокОшибок.пВК_ПС
	всё;
	потокОшибок.ПротолкниБуферВПоток;
	потокРезультата.ПротолкниБуферВПоток;
кон ВычислиВыражениеИзСтроки;


проц TranslateString*(context: Commands.Context);
перем dest: Strings.String; testString: массив 256 из симв8; interpreter: Interpreter; streamDiagnostics: Diagnostics.StreamDiagnostics;
нач
	нов(streamDiagnostics, context.error);
	нов(interpreter, global, streamDiagnostics,НУЛЬ);
	нцПока context.arg.ПропустиБелоеПолеИЧитайЦепочкуСимволов8ДоБелогоПоляИлиВКавычках(testString) делай
		если interpreter.l9TranslateString("?", testString, dest) то
			context.out.пСтроку8("RESULT: ");
			context.out.пСтроку8(dest^);
			context.out.пВК_ПС;
		иначе
			context.error.пСтроку8("could not translate: ");
			context.error.пСтроку8(dest^);
			context.error.пВК_ПС;
		всё;
	кц;
кон TranslateString;

проц InitGlobalScope;
перем container: Container;
нач
	нов(container);
	нов(global, НУЛЬ, container);
кон InitGlobalScope;

перем c: цел32;
перем d: запись e: цел32 кон;


проц 
	FoxInterpreterTestGetter(): цел32;
	нач
		возврат 123;
	кон FoxInterpreterTestGetter;

	проц FoxInterpreterTestSetter(a: цел32): цел32;
	нач
		трассируй(a);
		возврат a+123;
	кон FoxInterpreterTestSetter;

	тип FoxInterpreterTestO= окласс
	перем i: цел32;
	проц &P(s: цел8);
	нач
		i := 999+s;
	кон P;

	кон FoxInterpreterTestO; 
	
	
проц ЗадействуйЧастныеПроцедурыДляТестов˛чтобыНеБылоПредупреждений*();
перем мусор: FoxInterpreterTestO;
нач
	мусор := мусор;
	неважно FoxInterpreterTestSetter(FoxInterpreterTestGetter());
кон 	ЗадействуйЧастныеПроцедурыДляТестов˛чтобыНеБылоПредупреждений;

нач
	InitGlobalScope;
	c := 10;
	d.e := 20;
кон LisInterpreter.

System.FreeDownTo FoxInterpreterSymbols ~ FoxInterpreter FoxInterpreterSymbols Reflection2 ~

LisInterpreter.Expression
	перем а := 9 ~

LisInterpreter.Expression
	LisInterpreter.c ~

LisInterpreter.Expression
	-8 ~

LisInterpreter.Expression
	LisInterpreter.d.e ~

LisInterpreter.Expression
	LisInterpreter.FoxInterpreterTestGetter() ~

LisInterpreter.Expression
	LisInterpreter.FoxInterpreterTestSetter(1000) ~

LisInterpreter.Statements
	a := NEW LisInterpreter.FoxInterpreterTestO(-8);
	trace(a.i);
	a.i := 10;
	ЛогЯдра.пЦел64(a.i,1);
	ЛогЯдра.пВК_ПС;
	~

LisInterpreter.Expression
	Test.c.b;
	~

LisInterpreter.Expression
	Test.Test(5);
	~
LisInterpreter.Statements
	a := Test.c.b;
	Test.c.b := Test.c.b + 1;
	~
LisInterpreter.Expression
	a;
	~
LisInterpreter.Expression
	Test.c.b;
	~

LisInterpreter.Statements
	Test.Test(123)
	~

LisInterpreter.Statements
	FOR i := 1 TO 100 DO
		CASE i MOD 10 OF
		1: suffix := "st"
		|2: suffix := "nd"
		|3: suffix := "rd"
		ELSE suffix := "th"
		END;
		IF i MOD 9 = 0 THEN
			! "System.Show This is the ?{i}??{suffix}? run." ;
			! "System.Ln";
		END;
	END;
~

LisInterpreter.Statements
	i := 0;
	trace(i);
	нцДля i := 1 до 100 делай
		trace(i);
		просей i остОтДеленияНа 10 из
		1: suffix := "st"
		|2: suffix := "nd"
		|3: suffix := "rd"
		иначе suffix := "th"
		всё;
		если i остОтДеленияНа 9 = 0 то
			! "System.Show This is the ?{i}??{suffix}? run." ;
			! "System.Ln";
		всё;
	всё;
~

LisInterpreter.Expression
	i остОтДеленияНа 10  ~

LisInterpreter.Expression
	i MOD 10  ~


LisInterpreter.Statements
	o := Test.TestO();
	~

LisInterpreter.Statements
	s := {0..10, 15};
	a := 10;
	b := 10..20;
	c := {a,b};
	x := 10;
	y := 20;
	z := x;
	z := x + y;
	b := x = y;
	nb := x # y;
	FOR i := 0 TO 3 DO
		a := i;
		IF i<2 THEN
			a := 200+i;
		END;
		CASE i OF
		0: a := 2000;
		|2: trace(100) (* СТОП и HALT не работают *)
		END;
	END;
	trace(x); (* трассируй не находится *)

	(* FOR i := 0 TO 100 DO
		x[i] := i (* здесь ошибка "x can not be indexed *)
	END; *)
	~

LisInterpreter.TranslateString
	"This is a string ?{15+2*20*a:32}? oha."
	"The rest of this string will be evaluated ?{3+5 = 20}?"
	"?{ 100*15"
	"a set in a evaluated expression ?{{1,2,4}}?"
	~

LisInterpreter.Statements
	a := [[1,2,3],[4,5,6],[7,8,9]];
	FOR i := 0 TO 2 DO
	FOR j := 0 TO 2 DO
		! \+"System.Show ?{a[i,j]}? ;"+\
	END;
		! \+"System.Ln;"+\
	END;
	! "System.Show ?{a}? ";
	? a;
	? 1+1;
	? 1+2;
	~
	
LisInterpreter.Expression MacroИПП.КопияСтроки("фис")  ~

System.FreeDownTo LisInterpreter LisInterpreterSymbols ~
